{
    "@class": "com.kony.gen.viz.model.container.KVizScrollFlexForm",
    "DNDConfig": null,
    "_margin_": [
        0,
        0,
        0,
        0
    ],
    "_orientation_": 1,
    "_padding_": [
        0,
        0,
        0,
        0
    ],
    "_percent_": true,
    "_skin_": "s2dc6f356fdf4f13a4e821f03d715027",
    "_title_": "Messages",
    "addWidgetsdone": false,
    "allboxes": [],
    "android": {
        "needAppMenu": false,
        "psp": {
            "windowSoftInputMode": 2
        }
    },
    "canUpdateUI": true,
    "children": [
        "flxHeader",
        "flxMessageDetailsMain",
        "flxPopupDocuments",
        "flxPopup",
        "flxConfirmationPopUp",
        "flxActions"
    ],
    "containerweight": 100,
    "controllerInfo": {
        "default": {
            "channel": "mobile",
            "name": "frmMessagesDetailsController"
        }
    },
    "currentLocale": "default",
    "desktopweb": {
        "needAppMenu": false
    },
    "device": "iPhoneX",
    "displayorientation": 1,
    "enabledforidletimeout": true,
    "friendlyName": "frmMessagesDetails",
    "id": "frmMessagesDetails",
    "ide_init": "AS_Form_h1a356b7bfe6472bb278ba6d80bb6597",
    "ide_preShow": "AS_Form_f543b1684e5d430fbee513e54acf894c",
    "info": null,
    "initdone": false,
    "inputaccessoryviewtype": 1,
    "ipad": {
        "needAppMenu": false,
        "psp": {
            "inputAccessoryViewType": 4
        },
        "titleBar": false
    },
    "iphone": {
        "needAppMenu": false,
        "psp": {
            "inputAccessoryViewType": 1,
            "titleBarAttributes": {
                "backBarButtonItem": {
                    "enabled": true,
                    "info": {
                        "title": ""
                    },
                    "kuid": "f56e5e3bd49344dc8ea832891666aa9b",
                    "style": 0,
                    "tintColor": "ffffff00",
                    "type": 1
                },
                "barStyle": 0,
                "hidesBackButton": false,
                "kuid": "ae81328de02f41d6bb3de43d90b404e3",
                "leftBarButtonItems": [],
                "leftItemsSupplementBackButton": true,
                "prompt": "",
                "renderTitleText": true,
                "rightBarButtonItems": [],
                "tintColor": "ffffff00",
                "translucent": false
            }
        },
        "titleBar": true
    },
    "iscustomlayout": false,
    "isvisible": true,
    "kiosk": {
        "needAppMenu": false
    },
    "kuid": "d2a148b143104f5da1ba5bc7c8381342",
    "layouttype": 2,
    "name": "kony.ui.Form2",
    "needappmenu": false,
    "paddinginpixel": false,
    "platform": "iphone",
    "prevDevice": "GalaxyS8",
    "prevPlatform": "android",
    "retaincontentalignment": false,
    "retainflexpositionproperties": false,
    "retainscrollposition": false,
    "shellCSS": "iOS_iPhoneX",
    "snapgridsize": 10,
    "snaptogrid": true,
    "spaan": {
        "needAppMenu": false
    },
    "spaandroidtablet": {
        "needAppMenu": false
    },
    "spabb": {
        "needAppMenu": false
    },
    "spaip": {
        "needAppMenu": false
    },
    "spaipad": {
        "needAppMenu": false
    },
    "spawindowstablet": {
        "needAppMenu": false
    },
    "spawinphone8": {
        "needAppMenu": false
    },
    "texti18n": "kony.mb.Hamburger.Messages",
    "titleBarSkin": "scb8fcbdebb649d1b5900564018c8da5",
    "titlebar": false,
    "type": 3,
    "wType": "Form",
    "windows8": {
        "needAppMenu": false
    },
    "winphone8": {
        "needAppMenu": false
    }
}