{
    "@class": "com.kony.gen.viz.model.container.KVizScrollFlexForm",
    "DNDConfig": null,
    "_margin_": [
        0,
        0,
        0,
        0
    ],
    "_orientation_": 1,
    "_padding_": [
        0,
        0,
        0,
        0
    ],
    "_percent_": true,
    "_skin_": "sfd374011f8943daa0815da0aecd0408",
    "_title_": "Locate Us",
    "addWidgetsdone": false,
    "allboxes": [],
    "android": {
        "psp": {
            "windowSoftInputMode": 2
        }
    },
    "canUpdateUI": true,
    "children": [
        "flxMainContainer",
        "flxPopup",
        "flxBg"
    ],
    "containerweight": 100,
    "controllerInfo": {
        "default": {
            "channel": "mobile",
            "name": "frmLocationMapController"
        }
    },
    "currentLocale": "default",
    "desktopweb": {
        "needAppMenu": false
    },
    "device": "iPhoneX",
    "displayorientation": 1,
    "enabledforidletimeout": true,
    "enablescrolling": false,
    "friendlyName": "frmLocationMap",
    "id": "frmLocationMap",
    "ide_init": "AS_Form_f874647b49a846cd935713722a1123bd",
    "ide_preShow": "AS_Form_f3926b75c32a4ef4bc18419bfcdaea6e",
    "info": null,
    "initdone": false,
    "inputaccessoryviewtype": 2,
    "ipad": {
        "psp": {
            "inputAccessoryViewType": 4
        }
    },
    "iphone": {
        "psp": {
            "inputAccessoryViewType": 2,
            "titleBarAttributes": {
                "backBarButtonItem": {
                    "enabled": true,
                    "info": {
                        "title": ""
                    },
                    "kuid": "a78333a62de24821b70792f2da0fb0aa",
                    "style": 0,
                    "tintColor": "ffffff00",
                    "type": 1
                },
                "barStyle": 0,
                "hidesBackButton": false,
                "kuid": "b09376e7b9ec4576ab017b420752a1dc",
                "leftBarButtonItems": [
                    {
                        "enabled": true,
                        "ide_onClick": "AS_BarButtonItem_b8d6c1a8b4954b819f49d9364dd7c248",
                        "info": {
                            "image": "transparentbox.png"
                        },
                        "kuid": "fb5834315cf94a0f9ebdfa5c1cba42ba",
                        "onClick": "AS_BarButtonItem_b8d6c1a8b4954b819f49d9364dd7c248",
                        "style": 0,
                        "tintColor": "ffffff00",
                        "type": 0
                    }
                ],
                "leftItemsSupplementBackButton": true,
                "prompt": "",
                "renderTitleText": true,
                "rightBarButtonItems": [
                    {
                        "enabled": true,
                        "ide_onClick": "AS_BarButtonItem_dc7c4348dac048ffb1f7226b38547901",
                        "info": {
                            "title": "Close"
                        },
                        "kuid": "f51610c9015d48ec8f3665712e950fac",
                        "onClick": "AS_BarButtonItem_dc7c4348dac048ffb1f7226b38547901",
                        "style": 0,
                        "tintColor": "ffffff00",
                        "type": 1
                    }
                ],
                "tintColor": "ffffff00",
                "translucent": false
            }
        },
        "titleBar": true
    },
    "isvisible": true,
    "kuid": "i951a66396dc4e2c83b1e019f7f0cb40",
    "layouttype": 2,
    "name": "kony.ui.Form2",
    "needappmenu": true,
    "paddinginpixel": false,
    "platform": "iphone",
    "prevDevice": "GalaxyS8",
    "prevPlatform": "android",
    "retainscrollposition": false,
    "shellCSS": "iOS_iPhoneX",
    "snapgridsize": 10,
    "snaptogrid": true,
    "texti18n": "kony.mb.Hamburger.Locateus",
    "titleBarSkin": "scb8fcbdebb649d1b5900564018c8da5",
    "titlebar": false,
    "type": 3,
    "wType": "Form"
}