{
    "@class": "com.kony.gen.viz.model.container.KVizSegment2",
    "DNDConfig": null,
    "__parentReadjusting__": false,
    "_bottom_": {
        "type": "string",
        "value": "0dp"
    },
    "_data_": [
        {
            "lblFrequency": {
                "@class": "com.viz.ide.model.segment.SimpleTextSegmentData",
                "i18nkey": "kony.mb.frequency.TransferNow",
                "text": "Transfer Now"
            }
        },
        {
            "lblFrequency": {
                "@class": "com.viz.ide.model.segment.SimpleTextSegmentData",
                "i18nkey": "kony.mb.frequency.OneTime",
                "text": "One Time"
            }
        },
        {
            "lblFrequency": {
                "@class": "com.viz.ide.model.segment.SimpleTextSegmentData",
                "i18nkey": "kony.mb.frequency.Daily",
                "text": "Daily"
            }
        },
        {
            "lblFrequency": {
                "@class": "com.viz.ide.model.segment.SimpleTextSegmentData",
                "i18nkey": "kony.mb.frequency.Weekly",
                "text": "Weekly"
            }
        },
        {
            "lblFrequency": {
                "@class": "com.viz.ide.model.segment.SimpleTextSegmentData",
                "i18nkey": "kony.mb.frequency.BiWeekly",
                "text": "Every Two Weeks"
            }
        },
        {
            "lblFrequency": {
                "@class": "com.viz.ide.model.segment.SimpleTextSegmentData",
                "i18nkey": "kony.mb.frequency.Monthly",
                "text": "Quaterly"
            }
        },
        {
            "lblFrequency": {
                "@class": "com.viz.ide.model.segment.SimpleTextSegmentData",
                "i18nkey": "kony.mb.frequency.Quaterly",
                "text": "Half Yearly"
            }
        },
        {
            "lblFrequency": {
                "@class": "com.viz.ide.model.segment.SimpleTextSegmentData",
                "i18nkey": "kony.mb.frequency.HalfYearly",
                "text": "Yearly"
            }
        },
        {
            "lblFrequency": {
                "@class": "com.viz.ide.model.segment.SimpleTextSegmentData",
                "i18nkey": "kony.mb.frequency.Yearly",
                "text": ""
            }
        }
    ],
    "_indicator_": "none",
    "_left_": {
        "type": "string",
        "value": "0dp"
    },
    "_margin_": [
        0,
        0,
        0,
        0
    ],
    "_orientation_": 2,
    "_padding_": [
        0,
        0,
        0,
        0
    ],
    "_top_": {
        "type": "string",
        "value": "0dp"
    },
    "_width_": {
        "type": "string",
        "value": "100%"
    },
    "autogrowmode": 0,
    "canUpdateUI": true,
    "containerweight": 100,
    "counter": "08",
    "disabledSkins": {},
    "focusedindex": null,
    "focuseditem": null,
    "groupcells": false,
    "hasSections": false,
    "id": "segFrequency",
    "info": null,
    "ipad": {
        "psp": {
            "indicator": "rowselect"
        }
    },
    "iphone": {
        "psp": {
            "indicator": "none"
        }
    },
    "iscustomlayout": false,
    "isvisible": true,
    "kuid": "dada71cad9b54177849b07b90bd8c860",
    "masterdata": {},
    "name": "kony.ui.SegmentedUI2",
    "needpageindicator": true,
    "pageoffdotimage": "pageoffdot.png",
    "pageondotimage": "pageondot.png",
    "paginationconfig": {
        "position": "bottom"
    },
    "parent": "flxTransactionFrequency",
    "pf": "frmTransferFrequencyEurope",
    "retaincontentalignment": false,
    "retainflexpositionproperties": false,
    "retainselection": false,
    "rowTemplateId": "gbf19dca85274651bb07aa77489858af",
    "rowcounter": 8,
    "rowfocusskin": "s02d7ca459a74168b4573e79b9d8efec",
    "rowskin": "s7edd442a0b84fcf8effd2349b7c3044",
    "rowtemplate": "flxFrequency",
    "screenlevelwidget": false,
    "seccounter": 0,
    "sectionHeaderTemplateId": null,
    "sectionheaderskin": "s65e8b0a8be54624ac979cda71a22cac",
    "selectedRows": null,
    "selectedState": false,
    "selectedindex": null,
    "selectedindices": null,
    "selecteditems": null,
    "selectedsectionindex": null,
    "selectionbehavior": "default",
    "separatorrequired": false,
    "showscrollbars": false,
    "viewtype": "tableview",
    "vizProps": {},
    "wType": "Segment",
    "widgetalignment": 5,
    "widgetdatamap": {
        "flxFrequency": "flxFrequency",
        "flxMain": "flxMain",
        "lblFrequency": "lblFrequency"
    },
    "widgetskin": "s7edd442a0b84fcf8effd2349b7c3044",
    "zindex": 1
}