{
    "Metadata": {
        "Version": {
            "iOS": "2.0"
        }
    },
    "NativeFunctionAPI": {
        "Android": {
            "4.0": {
                "Kony_FileStorage-Android-4.0": {
                    "enable": true,
                    "filename": "Kony_FileStorage-Android-4.0.zip",
                    "isDefault": true,
                    "os": "4.0",
                    "platform": "Android",
                    "title": "Kony_FileStorage"
                },
                "Kony_SDKCommons-Android-4.0": {
                    "enable": true,
                    "filename": "Kony_SDKCommons-Android-4.0.zip",
                    "isDefault": true,
                    "os": "4.0",
                    "platform": "Android",
                    "title": "Kony_SDKCommons"
                },
                "Kony_SyncV2-Android-4.0": {
                    "enable": true,
                    "filename": "Kony_SyncV2-Android-4.0.zip",
                    "isDefault": true,
                    "os": "4.0",
                    "platform": "Android",
                    "title": "Kony_SyncV2"
                },
                "konympsocialshare-Android-4.0": {
                    "enable": true,
                    "filename": "konympsocialshare-Android-4.0.zip",
                    "isDefault": false,
                    "os": "4.0",
                    "platform": "Android",
                    "title": "konympsocialshare"
                },
                "Kony_WebSocket-Android-4.0": {
                    "title": "Kony_WebSocket",
                    "platform": "Android",
                    "os": "4.0",
                    "ci": true,
                    "isDefault": true,
                    "filename": "Kony_WebSocket-Android-4.0.zip",
                    "enable": true
                }
            },
            "6.0": {},
            "API level 23": {
                "java.util.logging-Android-4.0": {
                    "enable": true,
                    "filename": "java.util.logging-Android-4.0.zip",
                    "isDefault": false,
                    "os": "API level 23",
                    "platform": "Android",
                    "title": "java.util.logging",
                    "url": "java.util.logging-Android-4.0.zip"
                }
            }
        },
        "iOS": {
            "11.0": {
                "Kony_FileStorage-iOS-11.0": {
                    "enable": true,
                    "filename": "Kony_FileStorage-iOS-11.0.zip",
                    "isDefault": true,
                    "nfiversion": "2.0",
                    "os": "11.0",
                    "platform": "iOS",
                    "title": "Kony_FileStorage"
                },
                "Kony_SDKCommons-iOS-11.0": {
                    "enable": true,
                    "filename": "Kony_SDKCommons-iOS-11.0.zip",
                    "isDefault": true,
                    "nfiversion": "2.0",
                    "os": "11.0",
                    "platform": "iOS",
                    "title": "Kony_SDKCommons"
                },
                "Kony_SyncV2-iOS-11.0": {
                    "enable": true,
                    "filename": "Kony_SyncV2-iOS-11.0.zip",
                    "isDefault": true,
                    "nfiversion": "2.0",
                    "os": "11.0",
                    "platform": "iOS",
                    "title": "Kony_SyncV2"
                },
                "Speech-iOS-11.0": {
                    "enable": false,
                    "filename": "Speech-iOS-11.0.zip",
                    "isDefault": false,
                    "nfiversion": "2.0",
                    "os": "11.0",
                    "platform": "iOS",
                    "title": "Speech",
                    "url": "Speech-iOS-11.0.zip"
                },
                "Kony_WebSocket-iOS-11.0": {
                    "title": "Kony_WebSocket",
                    "platform": "iOS",
                    "os": "11.0",
                    "ci": true,
                    "isDefault": true,
                    "filename": "Kony_WebSocket-iOS-11.0.zip",
                    "nfiversion": "2.0",
                    "enable": true
                }
            },
            "12.0": {
                "KonympSocialShare-iOS-12.0": {
                    "enable": true,
                    "filename": "KonympSocialShare-iOS-12.0.zip",
                    "isDefault": false,
                    "nfiversion": "2.0",
                    "os": "12.0",
                    "platform": "iOS",
                    "title": "KonympSocialShare"
                }
            },
            "13.0": {
                "MobileCoreServices-iOS-13.0": {
                    "title": "MobileCoreServices",
                    "platform": "iOS",
                    "os": "13.0",
                    "url": "/visualizer/nativeframeworks/2.0/ios/2.0.2/MobileCoreServices-iOS-13.0.zip",
                    "checksum": "782285702ae772af96b7d998f4585219c9177ce9",
                    "filename": "MobileCoreServices-iOS-13.0.zip",
                    "isDefault": false,
                    "nfiversion": "2.0",
                    "enable": true
                },
                "UIKit-iOS-13.0": {
                    "title": "UIKit",
                    "platform": "iOS",
                    "os": "13.0",
                    "url": "/visualizer/nativeframeworks/2.0/ios/2.0.2/UIKit-iOS-13.0.zip",
                    "checksum": "5bdeabfa26b241c1078c1d28ec5008b5a5061e90",
                    "filename": "UIKit-iOS-13.0.zip",
                    "isDefault": false,
                    "nfiversion": "2.0",
                    "enable": true
                }
            }
        }
    }
}