{
    "@class": "com.kony.gen.viz.model.component.KVizButton",
    "DNDConfig": null,
    "_bottom_": {
        "type": "number",
        "value": "1"
    },
    "_height_": {
        "type": "string",
        "value": "49dp"
    },
    "_margin_": [
        6,
        6,
        6,
        6
    ],
    "_padding_": [
        0,
        0,
        0,
        0
    ],
    "_right_": {
        "type": "number",
        "value": "1"
    },
    "_skin_": "s55c48626a9f4fb28bec5446740ce473",
    "_text_": "X",
    "_top_": {
        "type": "number",
        "value": "1"
    },
    "_width_": {
        "type": "string",
        "value": "99%"
    },
    "canUpdateUI": true,
    "containerweight": 100,
    "contentalignment": 5,
    "disabledSkins": {
        "focusSkin": "s31beeb1acb948a9ab9cfb48513042ca"
    },
    "displaytext": false,
    "focusskin": null,
    "id": "btnLastSixMonths",
    "info": null,
    "iscustomlayout": false,
    "isvisible": true,
    "kuid": "j7b94f75b33b4a67baca4a723e03dd4d",
    "name": "kony.ui.Button",
    "parent": "flxLastSixMonths",
    "pf": "frmApprovalsAndRequestsFilters",
    "retaincontentalignment": false,
    "retainflexpositionproperties": false,
    "wType": "Button",
    "zindex": 1000
}