{
    "@class": "com.kony.gen.viz.model.component.KVizImage2",
    "DNDConfig": null,
    "_base64_": null,
    "_height_": {
        "type": "string",
        "value": "17dp"
    },
    "_margin_": [
        0,
        0,
        0,
        0
    ],
    "_padding_": [
        0,
        0,
        0,
        0
    ],
    "_right_": {
        "type": "string",
        "value": "12dp"
    },
    "_skin_": "s679032976ec4441b527ec218f32745a",
    "_src_": "tickmark_green.png",
    "_top_": {
        "type": "string",
        "value": "0"
    },
    "_width_": {
        "type": "string",
        "value": "17dp"
    },
    "canUpdateUI": true,
    "centery": {
        "type": "string",
        "value": "50%"
    },
    "containerweight": 100,
    "id": "imgViewByStatusAll",
    "imagescalemode": 1,
    "info": null,
    "iphone": {
        "psp": {
            "cacheConfig": {
                "cachePolicy": 1,
                "cacheStoragePolicy": 1
            }
        }
    },
    "iscustomlayout": false,
    "isvisible": true,
    "kuid": "cb5b0ff59f1e47c98e1d258f9cd70bd9",
    "name": "kony.ui.Image2",
    "parent": "flxViewByStatusAll",
    "pf": "frmApprovalsAndRequestsFilters",
    "retaincontentalignment": false,
    "retainflexpositionproperties": false,
    "srcType": 1,
    "wType": "Image",
    "widgetalignment": 5
}