{
    "@class": "com.kony.gen.viz.model.container.KVizSegment2",
    "DNDConfig": null,
    "_bounces_": false,
    "_data_": [
        {
            "imgSelect": {
                "@class": "com.viz.ide.model.segment.ImageSegmentData",
                "src": "tickmark_green.png"
            },
            "lblCounter": {
                "@class": "com.viz.ide.model.segment.SimpleTextSegmentData",
                "text": ""
            },
            "lblSeperator": {
                "@class": "com.viz.ide.model.segment.SimpleTextSegmentData",
                "text": "."
            },
            "lblText": {
                "@class": "com.viz.ide.model.segment.SimpleTextSegmentData",
                "text": ""
            }
        }
    ],
    "_height_": {
        "type": "ref",
        "value": "preferred"
    },
    "_indicator_": "none",
    "_left_": {
        "type": "string",
        "value": "0"
    },
    "_margin_": [
        0,
        0,
        0,
        0
    ],
    "_orientation_": 2,
    "_padding_": [
        0,
        0,
        0,
        0
    ],
    "_top_": {
        "type": "string",
        "value": "0"
    },
    "_width_": {
        "type": "string",
        "value": "100%"
    },
    "autogrowmode": 1,
    "canUpdateUI": true,
    "containerweight": 100,
    "counter": "00",
    "disabledSkins": {
        "rowFocusSkin": "sec47134c53840738acea176209ff716",
        "rowSkin": "s18472307db04580a2a9cb6f4681ebec"
    },
    "focusedindex": null,
    "focuseditem": null,
    "groupcells": false,
    "hasSections": false,
    "id": "segOtherRequests",
    "info": null,
    "ipad": {
        "psp": {
            "indicator": "rowselect"
        }
    },
    "iphone": {
        "psp": {
            "bounces": false,
            "indicator": "none",
            "showProgressIndicator": false
        }
    },
    "iscustomlayout": false,
    "isvisible": true,
    "kuid": "f5ecbe6ba2674d90aedb47a8dc9293fc",
    "masterdata": {},
    "name": "kony.ui.SegmentedUI2",
    "needpageindicator": true,
    "pageoffdotimage": "pageoffdot.png",
    "pageondotimage": "pageondot.png",
    "paginationconfig": {
        "position": "bottom",
        "vdistance": 1
    },
    "parent": "flxSelectTransactionTypeS",
    "pf": "frmApprovalsAndRequestsFilters",
    "retaincontentalignment": false,
    "retainflexpositionproperties": false,
    "retainselection": false,
    "rowTemplateId": "ba205f41b9bf489f987f73ad33911caa",
    "rowcounter": 0,
    "rowfocusskin": null,
    "rowskin": null,
    "rowtemplate": "flxApprovalsAndRequestHistory",
    "screenlevelwidget": false,
    "seccounter": 0,
    "sectionheaderskin": "s65e8b0a8be54624ac979cda71a22cac",
    "selectedRows": null,
    "selectedState": false,
    "selectedindex": null,
    "selectedindices": null,
    "selecteditems": null,
    "selectedsectionindex": 0,
    "selectionbehavior": "default",
    "separatorcolor": "aaaaaa00",
    "separatorrequired": false,
    "separatorthickness": 1,
    "showprogressindicator": false,
    "showscrollbars": false,
    "swipeContext": {
        "currentPage": 0,
        "imageWidth": 828,
        "widthRatio": 0
    },
    "viewtype": "tableview",
    "vizProps": {},
    "wType": "Segment",
    "widgetalignment": 5,
    "widgetdatamap": {
        "flxApprovalsAndRequestHistory": "flxApprovalsAndRequestHistory",
        "flxText": "flxText",
        "imgSelect": "imgSelect",
        "lblCounter": "lblCounter",
        "lblSeperator": "lblSeperator",
        "lblText": "lblText"
    }
}