{
    "@class": "com.kony.gen.viz.model.component.KVizButton",
    "DNDConfig": null,
    "__parentReadjusting__": false,
    "_bottom_": {
        "type": "string",
        "value": "20dp"
    },
    "_height_": {
        "type": "string",
        "value": "48dp"
    },
    "_left_": {
        "type": "string",
        "value": "23dp"
    },
    "_margin_": [
        6,
        6,
        6,
        6
    ],
    "_padding_": [
        0,
        0,
        0,
        0
    ],
    "_right_": {
        "type": "string",
        "value": "23dp"
    },
    "_skin_": "sd04d4ccc5ff44cfa5e3c02e17c2279e",
    "_text_": "NEXT",
    "accessibilityconfig": {
        "a11yLabel": "NEXT"
    },
    "canUpdateUI": true,
    "centerx": {
        "type": "string",
        "value": "50.00%"
    },
    "containerweight": 100,
    "contentalignment": 5,
    "disabledSkins": {},
    "displaytext": true,
    "focusskin": "s77f5e4693994923b02a151cae68403f",
    "id": "btnVerify",
    "info": null,
    "iphone": {
        "psp": {
            "showProgressIndicator": false
        }
    },
    "isvisible": true,
    "kuid": "e69ca4d292964f97bbe811ca248e2bfa",
    "name": "kony.ui.Button",
    "parent": "flxMainContainer",
    "pf": "frmTransfersPhoneNumberEurope",
    "texti18n": "kony.mb.common.save",
    "wType": "Button",
    "zindex": 1
}