{
    "DNDConfig": null,
    "__parentReadjusting__": false,
    "_height_": {
        "type": "ref",
        "value": "preferred"
    },
    "_left_": {
        "type": "string",
        "value": "0dp"
    },
    "_margin_": [
        0,
        0,
        0,
        0
    ],
    "_orientation_": 6,
    "_padding_": [
        0,
        0,
        0,
        0
    ],
    "_percent_": true,
    "_skin_": "scc780d0e23b429d8785ff59321ae26b",
    "_top_": {
        "type": "string",
        "value": "80dp"
    },
    "_width_": {
        "type": "string",
        "value": "100%"
    },
    "allboxes": [],
    "autogrowmode": 1,
    "canUpdateUI": true,
    "children": [
        "flxFromAccount",
        "flxPayeeName",
        "flxInternational",
        "flxIBAN",
        "flxTransferFrequency",
        "flxTransferDate",
        "flxTransactionFee",
        "flxFrequencyType",
        "flxRecurrence",
        "flxStartDate",
        "flxEndDate",
        "segDetails",
        "flxSeparator",
        "flxpaidbyRecipient",
        "flxDescription",
        "flxTermsAndConditions"
    ],
    "clipbounds": true,
    "containerweight": 100,
    "enablescrolling": true,
    "id": "flxConfirmationDetails",
    "info": null,
    "iscustomlayout": false,
    "isvisible": true,
    "kuid": "h7b6a2896faa4ff296ae6153fe42708c",
    "layouttype": 4,
    "name": "kony.ui.FlexContainer",
    "parent": "flxTransferAmount",
    "pf": "frmTransferConfirmationEurope",
    "retaincontentalignment": false,
    "retainflexpositionproperties": false,
    "snapgridsize": 10,
    "snaptogrid": true,
    "wType": "FlexContainer",
    "widgetalignment": 1,
    "zindex": 4
}