{
    "@class": "com.kony.gen.viz.model.component.KVizUserWidget",
    "DNDConfig": null,
    "_children_": [],
    "_height_": {
        "type": "string",
        "value": "100%"
    },
    "_left_": {
        "type": "string",
        "value": "0dp"
    },
    "_margin_": [
        0,
        0,
        0,
        0
    ],
    "_orientation_": 1,
    "_padding_": [
        0,
        0,
        0,
        0
    ],
    "_percent_": true,
    "_render_": true,
    "_skin_": "s1174150032d40e89e43ce22807f619d",
    "_top_": {
        "type": "string",
        "value": "0dp"
    },
    "_width_": {
        "type": "string",
        "value": "100%"
    },
    "canUpdateUI": true,
    "containerweight": 0,
    "data": {
        "alertMessageText": "{i.kony.mb.AreyousuredoyouwanttocancelTransaction?}",
        "btnSwipableAction1": "{\"mapping\":\"{$.rootPath.serviceName}\",\"INTERNATIONAL_ACCOUNT_FUND_TRANSFER_CREATE\":{\"mapping\":\"{$.rootPath.statusDescription}\",\"Active\":{\"entitlement_keys\":[\"INTERNATIONAL_ACCOUNT_FUND_TRANSFER_CREATE\"],\"backgroundSkin\":\"ICSknFlx003E75\",\"icon\":\"edit.png\",\"text\":\"{i.kony.tab.common.Edit}\",\"id\":\"edit\",\"txtSkin\":\"ICSknLblFFFFFF13PX\"}},\"TRANSFER_BETWEEN_OWN_ACCOUNT_CREATE\":{\"mapping\":\"{$.rootPath.statusDescription}\",\"Active\":{\"entitlement_keys\":[\"TRANSFER_BETWEEN_OWN_ACCOUNT_CREATE\"],\"backgroundSkin\":\"ICSknFlx003E75\",\"icon\":\"edit.png\",\"text\":\"{i.kony.tab.common.Edit}\",\"id\":\"edit\",\"txtSkin\":\"ICSknLblFFFFFF13PX\"}},\"INTRA_BANK_FUND_TRANSFER_CREATE\":{\"mapping\":\"{$.rootPath.statusDescription}\",\"Active\":{\"entitlement_keys\":[\"INTRA_BANK_FUND_TRANSFER_CREATE\"],\"backgroundSkin\":\"ICSknFlx003E75\",\"icon\":\"edit.png\",\"text\":\"{i.kony.tab.common.Edit}\",\"id\":\"edit\",\"txtSkin\":\"ICSknLblFFFFFF13PX\"}},\"INTER_BANK_ACCOUNT_FUND_TRANSFER_CREATE\":{\"mapping\":\"{$.rootPath.statusDescription}\",\"Active\":{\"entitlement_keys\":[\"INTER_BANK_ACCOUNT_FUND_TRANSFER_CREATE\"],\"backgroundSkin\":\"ICSknFlx003E75\",\"icon\":\"edit.png\",\"text\":\"{i.kony.tab.common.Edit}\",\"id\":\"edit\",\"txtSkin\":\"ICSknLblFFFFFF13PX\"}}}",
        "btnSwipableAction2": "{\"mapping\":\"{$.rootPath.serviceName}\",\"INTERNATIONAL_ACCOUNT_FUND_TRANSFER_CREATE\":{\"mapping\":\"{$.rootPath.statusDescription}\",\"Active\":{\"entitlement_keys\":[\"INTERNATIONAL_ACCOUNT_FUND_TRANSFER_CREATE\"],\"backgroundSkin\":\"ICSknFlxEE0005\",\"icon\":\"cancel.png\",\"text\":\"{i.kony.mb.nuo.Cancel}\",\"id\":\"delete\",\"txtSkin\":\"ICSknLblFFFFFF13PX\"}},\"TRANSFER_BETWEEN_OWN_ACCOUNT_CREATE\":{\"mapping\":\"{$.rootPath.statusDescription}\",\"Active\":{\"entitlement_keys\":[\"TRANSFER_BETWEEN_OWN_ACCOUNT_CREATE\"],\"backgroundSkin\":\"ICSknFlxEE0005\",\"icon\":\"cancel.png\",\"text\":\"{i.kony.mb.nuo.Cancel}\",\"id\":\"delete\",\"txtSkin\":\"ICSknLblFFFFFF13PX\"}},\"INTRA_BANK_FUND_TRANSFER_CREATE\":{\"mapping\":\"{$.rootPath.statusDescription}\",\"Active\":{\"entitlement_keys\":[\"INTRA_BANK_FUND_TRANSFER_CREATE\"],\"backgroundSkin\":\"ICSknFlxEE0005\",\"icon\":\"cancel.png\",\"text\":\"{i.kony.mb.nuo.Cancel}\",\"id\":\"delete\",\"txtSkin\":\"ICSknLblFFFFFF13PX\"}},\"INTER_BANK_ACCOUNT_FUND_TRANSFER_CREATE\":{\"mapping\":\"{$.rootPath.statusDescription}\",\"Active\":{\"entitlement_keys\":[\"INTER_BANK_ACCOUNT_FUND_TRANSFER_CREATE\"],\"backgroundSkin\":\"ICSknFlxEE0005\",\"icon\":\"cancel.png\",\"text\":\"{i.kony.mb.nuo.Cancel}\",\"id\":\"delete\",\"txtSkin\":\"ICSknLblFFFFFF13PX\"}}}",
        "combinedUserIcon": "",
        "currencyCode": "{$.rootPath.transactionCurrency}",
        "dateFormat": "d/m/Y",
        "field1Label": "{ \"accountNumber\" : \"{$.rootPath.fromAccountNumber}\", \"nickName\": \"{$.rootPath.fromNickName}\", \"name\" : \"{$.rootPath.fromAccountName}\"}",
        "field2Label": "{$.rootPath.amount}",
        "field3Label": "{$.rootPath.statusDescription}",
        "field4Label": "{$.rootPath.scheduledDate}",
        "getCriteria": "{\"firstRecordNumber\" : 0, \"isScheduled\" : 1}",
        "getCriteriaDel": "{\"transactionId\": \"{$.rootPath.transactionId}\"}",
        "maxRecords": "{\"mapping\": \"lastRecordNumber\", \"lastRecordNumber\": 1000}",
        "noLabelText": "{i.kony.mb.common.AlertNo}",
        "noRecordsFoundSkin": "ICSknTLSSP42424215px",
        "noRecordsText": "{i.kony.mb.transfers.noRecordFound}",
        "noSearchResultsFoundText": "{i.kony.mb.transfers.noSearchResultFound}",
        "operationName": "getScheduledUserTransactions",
        "operationNameDel": "deleteTransaction",
        "paginatedRecords": "12",
        "primaryFieldSkin": "ICSknTLSSP42424215px",
        "retailIcon": "",
        "searchFields": "[\"toAccountName\", \"toAccountNumber\", \"amount\", \"scheduledDate\", \"fromAccountName\", \"fromAccountNumber\", \"transactionId\", \"transactionsNotes\"]",
        "secondaryFieldSkin": "ICSknTNSSP72727215px",
        "separatorSkin": "ICSknTLFlxE3E3E3",
        "serviceNameDel": "RBObjects",
        "statusImage": "{\"mapping\":\"{$.rootPath.statusDescription}\",\"Active\":\"green.png\",\"Expired\":\"red.png\"}",
        "yesLabelText": "{i.kony.mb.common.AlertYes}"
    },
    "id": "TransfersListMobileNative",
    "info": null,
    "iscustomlayout": false,
    "issegmentchild": false,
    "isvisible": true,
    "kuid": "e0ec6973cb8a49e9a3c2cbdc549fce74",
    "masterType": 1,
    "name": "kony.ui.UserWidgetInstance",
    "parent": "flxTransfersList",
    "pf": "frmTransferActivitiesRecurring",
    "retaincontentalignment": false,
    "retainflexpositionproperties": false,
    "retainflowhorizontalalignment": false,
    "sourceUserWidget": "e5c10c6ee8be4b4086d8de788e749682",
    "wType": "UserWidgetInstance"
}