{
    "@class": "com.kony.gen.viz.model.component.KVizButton",
    "DNDConfig": null,
    "_height_": {
        "type": "string",
        "value": "50dp"
    },
    "_left_": {
        "type": "string",
        "value": "20dp"
    },
    "_margin_": [
        6,
        6,
        6,
        6
    ],
    "_padding_": [
        0,
        0,
        0,
        0
    ],
    "_skin_": "s344358aaecf45c8bd1e938367e779e1",
    "_text_": "Transfer Cash",
    "_width_": {
        "type": "string",
        "value": "42%"
    },
    "canUpdateUI": true,
    "centery": {
        "type": "string",
        "value": "50%"
    },
    "containerweight": 100,
    "contentalignment": 5,
    "disabledSkins": {},
    "displaytext": true,
    "id": "btnTransferCash",
    "info": null,
    "iscustomlayout": false,
    "isvisible": true,
    "kuid": "eba0115f5b624e828d4889265f15aba7",
    "name": "kony.ui.Button",
    "parent": "flxCashBtns",
    "pf": "frmPortfolioDetails",
    "retaincontentalignment": false,
    "retainflexpositionproperties": false,
    "texti18n": "i18n.wealth.transferCash",
    "wType": "Button",
    "zindex": 1
}