{
	"AS_Button_cd3568b731d5476a8123c3602e5b1bc1": {
		"id": "AS_Button_cd3568b731d5476a8123c3602e5b1bc1",
		"type": "ACTION_SEQUENCE",
		"params": [
			{
				"datatype": "collection",
				"name": "eventobject"
			}
		],
		"language": "js",
		"actions": [
			{
				"id": "ADD_SNIPPET_ide_onClick_icfb6086e270449b93627d5c6d3e12bd",
				"type": "ADD_SNIPPET",
				"codeSnippet": "this.setChar(4);",
				"callbackType": null
			}
		]
	}
}