{
	"AS_Button_a6bd1e76de9d41ce98d093910bc4fac3": {
		"id": "AS_Button_a6bd1e76de9d41ce98d093910bc4fac3",
		"type": "ACTION_SEQUENCE",
		"params": [
			{
				"datatype": "collection",
				"name": "eventobject"
			}
		],
		"language": "js",
		"actions": [
			{
				"id": "ADD_SNIPPET_ide_onClick_j57258a075a3470c9945ee403ca60abd",
				"type": "ADD_SNIPPET",
				"codeSnippet": "this.setChar(2);",
				"callbackType": null
			}
		]
	}
}