{
	"AS_FlexContainer_d2d6923b07ff44d9a47f94c3b7502d80": {
		"id": "AS_FlexContainer_d2d6923b07ff44d9a47f94c3b7502d80",
		"type": "ACTION_SEQUENCE",
		"params": [
			{
				"datatype": "collection",
				"name": "eventobject"
			}
		],
		"contextObj": {
			"type": "userwidgets",
			"KUID": "uf2f0013a66a4e46b1cd30a115534f65"
		},
		"language": "js",
		"actions": [
			{
				"id": "INVOKE_FUNCTION__f8514dacb06a40c68d5fc7dc84c456ed",
				"type": "INVOKE_FUNCTION",
				"sequenceKUID": "searchPreShow",
				"display": "searchPreShow",
				"inputparams": [],
				"parentId": null,
				"callbackType": null,
				"disabled": null,
				"source": "controller"
			}
		]
	}
}