{
	"AS_FlexContainer_dc1dadd5acc74bd48354a2d425c3f655": {
		"id": "AS_FlexContainer_dc1dadd5acc74bd48354a2d425c3f655",
		"type": "ACTION_SEQUENCE",
		"params": [
			{
				"datatype": "collection",
				"name": "eventobject"
			}
		],
		"language": "js",
		"actions": []
	}
}