{
	"AS_FlexContainer_d9418f3ce3234d208b06eee38e3bd2c3": {
		"id": "AS_FlexContainer_d9418f3ce3234d208b06eee38e3bd2c3",
		"type": "ACTION_SEQUENCE",
		"params": [
			{
				"datatype": "collection",
				"name": "eventobject"
			}
		],
		"contextObj": {
			"type": "userwidgets",
			"KUID": "u84c697f1e814ff593213100cec00bba"
		},
		"language": "js",
		"actions": [
			{
				"id": "INVOKE_FUNCTION__cf827052e5494e8b98866c2a51bca0b9",
				"type": "INVOKE_FUNCTION",
				"sequenceKUID": "preShowActivationCode",
				"display": "preShowActivationCode",
				"inputparams": [],
				"parentId": null,
				"callbackType": null,
				"disabled": null,
				"source": "controller"
			}
		]
	}
}