{
	"AS_FlexContainer_b3a16e34cb524c87a802ad00f287980e": {
		"id": "AS_FlexContainer_b3a16e34cb524c87a802ad00f287980e",
		"type": "ACTION_SEQUENCE",
		"params": [
			{
				"datatype": "collection",
				"name": "eventobject"
			}
		],
		"contextObj": {
			"type": "userwidgets",
			"KUID": "ubdaf7e5f9e24d8ea5c6f3e140134973"
		},
		"language": "js",
		"actions": [
			{
				"id": "ADD_SNIPPET__e4975467440f45c28b3d2c58b58ccb7b",
				"type": "ADD_SNIPPET",
				"codeSnippet": "this.preShow();",
				"parentId": null,
				"callbackType": null
			}
		]
	}
}