{
	"AS_Image_hbe9fd68cea34c02b106af8b06b4a6ed": {
		"id": "AS_Image_hbe9fd68cea34c02b106af8b06b4a6ed",
		"type": "ACTION_SEQUENCE",
		"params": [
			{
				"datatype": "collection",
				"name": "eventobject"
			},
			{
				"datatype": "string",
				"name": "imagesrc"
			},
			{
				"datatype": "boolean",
				"name": "issuccess"
			}
		],
		"contextObj": {
			"type": "forms",
			"platform": "",
			"KUID": "h65c10a2cabc493c8ac9ef9c703d1486"
		},
		"language": "js",
		"actions": [
			{
				"id": "ADD_SNIPPET__c495aac834ca4a56b50ba3cb780a5cc8",
				"type": "ADD_SNIPPET",
				"codeSnippet": "this.onAdDownloadComplete(issuccess,1);",
				"parentId": null,
				"callbackType": null
			}
		]
	}
}