{
    "@class": "com.kony.gen.viz.model.component.KVizSwitch",
    "DNDConfig": null,
    "__parentReadjusting__": false,
    "_height_": {
        "type": "string",
        "value": "32dp"
    },
    "_left_": {
        "type": "string",
        "value": "170dp"
    },
    "_margin_": [
        0,
        0,
        0,
        0
    ],
    "_padding_": [
        0,
        0,
        0,
        0
    ],
    "_skin_": "s8764efb1edc47e1aabe259cb11d344e",
    "_top_": {
        "type": "string",
        "value": "175dp"
    },
    "_width_": {
        "type": "string",
        "value": "55dp"
    },
    "canUpdateUI": true,
    "containerweight": 100,
    "id": "switchRememberMe",
    "info": null,
    "iphone": {
        "psp": {
            "nativeThumbLook": true
        }
    },
    "iscustomlayout": false,
    "isvisible": true,
    "kiosk": {
        "render": false
    },
    "kuid": "cdcbacd64e5640f284c0c0bd1ae7efa3",
    "leftsidetext": "     ",
    "name": "kony.ui.Switch",
    "osPlatform": "android",
    "osVersion": "iOS7",
    "parent": "flxMainWrapper",
    "pf": "frmTransfersSwiftCodeEurope",
    "retaincontentalignment": false,
    "retainflexpositionproperties": false,
    "rightsidetext": "     ",
    "selectedindex": 0,
    "wType": "Switch",
    "widgetalignment": 5,
    "zindex": 1
}