{
    "DNDConfig": null,
    "__parentReadjusting__": false,
    "_height_": {
        "type": "string",
        "value": "100%"
    },
    "_left_": {
        "type": "string",
        "value": "0dp"
    },
    "_margin_": [
        0,
        0,
        0,
        0
    ],
    "_orientation_": 6,
    "_padding_": [
        0,
        0,
        0,
        0
    ],
    "_percent_": true,
    "_skin_": "s6fa0cefdffa4fd7b377424319ff39df",
    "_top_": {
        "type": "string",
        "value": "0%"
    },
    "_width_": {
        "type": "string",
        "value": "100%"
    },
    "allboxes": [],
    "autogrowmode": 0,
    "canUpdateUI": true,
    "children": [
        "flxPopupContainer",
        "CopyflxPopupContainer0a7fc4bb40a904d",
        "flxDismiss"
    ],
    "clipbounds": true,
    "containerweight": 100,
    "enablescrolling": true,
    "id": "flxPopupApplyForCard",
    "info": null,
    "isvisible": false,
    "kuid": "f8fcca287595440db464bf78f5550a19",
    "layouttype": 2,
    "name": "kony.ui.FlexContainer",
    "parent": "frmCardManageHome",
    "pf": "frmCardManageHome",
    "snapgridsize": 10,
    "snaptogrid": true,
    "wType": "FlexContainer",
    "widgetalignment": 1,
    "zindex": 103
}
