{
    "@class": "com.kony.gen.viz.model.container.KVizSegment2",
    "DNDConfig": null,
    "__parentReadjusting__": false,
    "_data_": [
        [
            {
                "lblProfileHeading": {
                    "@class": "com.viz.ide.model.segment.SimpleTextSegmentData",
                    "i18nkey": "kony.mb.Settings.Alerts",
                    "text": "Alerts"
                },
                "lblSeperator": {
                    "@class": "com.viz.ide.model.segment.SimpleTextSegmentData",
                    "text": "Profile"
                }
            },
            [
                {
                    "imgArrow": {
                        "@class": "com.viz.ide.model.segment.ImageSegmentData",
                        "src": "chevron.png"
                    },
                    "lblTitle": {
                        "@class": "com.viz.ide.model.segment.SimpleTextSegmentData",
                        "i18nkey": "kony.mb.Alerts.SecurityAlerts",
                        "text": "Security"
                    },
                    "lblValue": {
                        "@class": "com.viz.ide.model.segment.SimpleTextSegmentData",
                        "text": "Off"
                    }
                },
                {
                    "imgArrow": {
                        "@class": "com.viz.ide.model.segment.ImageSegmentData",
                        "src": "chevron.png"
                    },
                    "lblTitle": {
                        "@class": "com.viz.ide.model.segment.SimpleTextSegmentData",
                        "i18nkey": "kony.mb.alerts.TransactionAlerts",
                        "text": "Transaction & Payment"
                    },
                    "lblValue": {
                        "@class": "com.viz.ide.model.segment.SimpleTextSegmentData",
                        "text": "On"
                    }
                }
            ]
        ]
    ],
    "_height_": {
        "type": "ref",
        "value": "preferred"
    },
    "_indicator_": "none",
    "_left_": {
        "type": "string",
        "value": "0dp"
    },
    "_margin_": [
        0,
        0,
        0,
        0
    ],
    "_orientation_": 2,
    "_padding_": [
        0,
        0,
        0,
        0
    ],
    "_top_": {
        "type": "string",
        "value": "0dp"
    },
    "_width_": {
        "type": "string",
        "value": "100%"
    },
    "autogrowmode": 1,
    "canUpdateUI": true,
    "containerweight": 100,
    "counter": "01",
    "focusedindex": null,
    "focuseditem": null,
    "groupcells": false,
    "hasSections": true,
    "id": "segSettingsAlerts",
    "info": null,
    "ipad": {
        "psp": {
            "indicator": "rowselect"
        }
    },
    "iphone": {
        "psp": {
            "indicator": "none"
        }
    },
    "iscustomlayout": false,
    "isvisible": true,
    "kuid": "h6b2b62b2abe45c8b661c04a3e5a2cf4",
    "masterdata": {},
    "name": "kony.ui.SegmentedUI2",
    "needpageindicator": true,
    "pageoffdotimage": "pageoffdot.png",
    "pageondotimage": "pageondot.png",
    "paginationconfig": {
        "position": "bottom"
    },
    "parent": "flxMainContainer",
    "pf": "frmSettings",
    "retaincontentalignment": false,
    "retainflexpositionproperties": false,
    "retainselection": false,
    "rowTemplateId": "jf79eb039e5d47739f4e0c864b4e2d5a",
    "rowcounter": 1,
    "rowfocusskin": "s02d7ca459a74168b4573e79b9d8efec",
    "rowskin": "s18472307db04580a2a9cb6f4681ebec",
    "rowtemplate": "flxSettings",
    "screenlevelwidget": false,
    "seccounter": 0,
    "sectionHeaderTemplateId": "cac6a2d09701423592fd36210ee59696",
    "sectionheaderskin": "s65e8b0a8be54624ac979cda71a22cac",
    "sectionheadertemplate": "flxSettingsHeader",
    "selectedRows": null,
    "selectedState": false,
    "selectedindex": null,
    "selectedindices": null,
    "selecteditems": null,
    "selectedsectionindex": 0,
    "selectionbehavior": "default",
    "separatorrequired": false,
    "showscrollbars": false,
    "viewtype": "tableview",
    "vizProps": {},
    "wType": "Segment",
    "widgetalignment": 5,
    "widgetdatamap": {
        "flxRightWrapper": "flxRightWrapper",
        "flxSepartaor": "flxSepartaor",
        "flxSettings": "flxSettings",
        "flxSettingsHeader": "flxSettingsHeader",
        "flxTopShadow": "flxTopShadow",
        "imgArrow": "imgArrow",
        "lblProfileHeading": "lblProfileHeading",
        "lblSeperator": "lblSeperator",
        "lblTitle": "lblTitle",
        "lblValue": "lblValue"
    },
    "zindex": 1
}