{
    "DNDConfig": null,
    "__parentReadjusting__": false,
    "_height_": {
        "type": "string",
        "value": "60dp"
    },
    "_left_": {
        "type": "string",
        "value": "0%"
    },
    "_margin_": [
        0,
        0,
        0,
        0
    ],
    "_orientation_": 6,
    "_padding_": [
        0,
        0,
        0,
        0
    ],
    "_percent_": true,
    "_skin_": "s2f151753493419fbfbbd2cec23c38b9",
    "_top_": {
        "type": "string",
        "value": "0%"
    },
    "_width_": {
        "type": "string",
        "value": "100%"
    },
    "allboxes": [],
    "autogrowmode": 0,
    "canUpdateUI": true,
    "children": [
        "imgUserIcon",
        "flxVerticalSeparator1",
        "lblEnrollAccount",
        "imgRightArrow1"
    ],
    "clipbounds": true,
    "containerweight": 100,
    "enablescrolling": true,
    "id": "flxEnrollAccount",
    "info": null,
    "iscustomlayout": false,
    "isvisible": true,
    "kuid": "e54a0cc487bb47f4b316de0aa49f2d2a",
    "layouttype": 2,
    "name": "kony.ui.FlexContainer",
    "parent": "flxEnrollAccountContainer",
    "pf": "frmEnrollActivateProfile",
    "retaincontentalignment": false,
    "retainflexpositionproperties": false,
    "retainflowhorizontalalignment": false,
    "snapgridsize": 10,
    "snaptogrid": true,
    "wType": "FlexContainer",
    "widgetalignment": 1,
    "zindex": 1
}