{
    "@class": "com.kony.gen.viz.model.component.KVizUserWidget",
    "DNDConfig": null,
    "_children_": [],
    "_height_": {
        "type": "ref",
        "value": "preferred"
    },
    "_left_": {
        "type": "string",
        "value": "0dp"
    },
    "_margin_": [
        0,
        0,
        0,
        0
    ],
    "_orientation_": 1,
    "_padding_": [
        0,
        0,
        0,
        0
    ],
    "_percent_": true,
    "_skin_": "sfa9e44ac8b8451385df29041b55bd50",
    "_top_": {
        "type": "string",
        "value": "0dp"
    },
    "_width_": {
        "type": "string",
        "value": "100%"
    },
    "canUpdateUI": true,
    "containerweight": 0,
    "data": {
        "advancedFilterValues": "[{\"id\":\"All\",\"text\":\"{i.i18n.Search.AllTransfers}\"},{\"id\":\"Completed\",\"text\":\"{i.i18n.Search.Completed}\"},{\"id\":\"Pending\",\"text\":\"{i.i18n.Search.Pending}\"},{\"id\":\"Rejected\",\"text\":\"{i.i18n.Search.Rejected}\"},{\"id\":\"Scheduled\",\"text\":\"{i.i18n.Search.Scheduled}\"}]",
        "filterSelected": "[{\"id\":\"All\",\"headerText\":\"{i.i18n.Search.ShowingAllTransfers}\"},{\"id\":\"Completed\",\"headerText\":\"{i.i18n.Search.ShowingCompletedTransfers}\"},{\"id\":\"Pending\",\"headerText\":\"{i.i18n.Search.ShowingPendingTransfers}\"},{\"id\":\"Rejected\",\"headerText\":\"{i.i18n.Search.ShowingRejectedTransfers}\"},{\"id\":\"Scheduled\",\"headerText\":\"{i.i18n.Search.ShowingScheduledTransfers}\"}]"
    },
    "id": "SearchAndFilter",
    "info": null,
    "iscustomlayout": false,
    "isvisible": true,
    "kuid": "hf2d89a56fca4f6ab9c6c51ff9434464",
    "masterType": 1,
    "name": "kony.ui.UserWidgetInstance",
    "parent": "flxSearchandFilters",
    "pf": "frmTransferActivitiesTransfers",
    "retaincontentalignment": false,
    "retainflexpositionproperties": false,
    "retainflowhorizontalalignment": false,
    "sourceUserWidget": "ja972e6c9493454bbb389df89f0e7553",
    "wType": "UserWidgetInstance"
}