{
    "DNDConfig": null,
    "_height_": {
        "type": "string",
        "value": "49dp"
    },
    "_left_": {
        "type": "string",
        "value": "29dp"
    },
    "_margin_": [
        0,
        0,
        0,
        0
    ],
    "_orientation_": 6,
    "_padding_": [
        0,
        0,
        0,
        0
    ],
    "_percent_": true,
    "_skin_": "s966eaf1ea1441148b4828270a782f8b",
    "_top_": {
        "type": "string",
        "value": "0dp"
    },
    "_width_": {
        "type": "string",
        "value": "90%"
    },
    "allboxes": [],
    "autogrowmode": 0,
    "canUpdateUI": true,
    "centery": {
        "type": "string",
        "value": "50%"
    },
    "children": [
        "lblText",
        "lblCounter"
    ],
    "clipbounds": true,
    "containerId": true,
    "containerweight": 100,
    "enablescrolling": true,
    "id": "flxText",
    "info": null,
    "iscustomlayout": false,
    "isvisible": true,
    "kuid": "a8e0174ebd5f4a8591951108ef5bc3b8",
    "layouttype": 3,
    "name": "kony.ui.FlexContainer",
    "parent": "flxApprovalsAndRequestFilter",
    "pf": "segApprovalsAndRequestFilter",
    "retaincontentalignment": false,
    "retainflexpositionproperties": false,
    "retainflowhorizontalalignment": false,
    "snapgridsize": 10,
    "snaptogrid": true,
    "wType": "FlexContainer",
    "widgetalignment": 1
}