{
    "@class": "com.kony.gen.viz.model.component.KVizLabel",
    "DNDConfig": null,
    "__parentReadjusting__": false,
    "_height_": {
        "type": "string",
        "value": "23dp"
    },
    "_left_": {
        "type": "string",
        "value": "20dp"
    },
    "_margin_": [
        1,
        1,
        1,
        1
    ],
    "_padding_": [
        0,
        0,
        0,
        0
    ],
    "_skin_": "s509a27b2e7a4b26b0e0f15b000882aa",
    "_text_": "RFI-123321",
    "_top_": {
        "type": "string",
        "value": "0dp"
    },
    "_width_": {
        "type": "ref",
        "value": "preferred"
    },
    "_wrapping_": 2,
    "accessibilityconfig": {
        "a11yLabel": "Subject Line Max one lineSubject Line Max one line"
    },
    "android": {
        "maxNumberOfLines": 1,
        "textStyle": {
            "letterSpacing": 0,
            "strikeThrough": false
        },
        "textTruncatePosition": 3
    },
    "canUpdateUI": true,
    "containerId": true,
    "containerweight": 100,
    "contentalignment": 4,
    "id": "lblReqId",
    "info": null,
    "ipad": {
        "psp": {
            "wrapping": 2
        }
    },
    "iphone": {
        "maxNumberOfLines": 1,
        "psp": {
            "wrapping": 2
        },
        "textTruncatePosition": 3
    },
    "iscustomlayout": false,
    "isvisible": true,
    "kuid": "cae7479b4071480a94d288ddc6427c62",
    "maxnumberoflines": 1,
    "maxwidth": {
        "type": "string",
        "value": "238dp"
    },
    "minwidth": {
        "type": "string",
        "value": "10dp"
    },
    "name": "kony.ui.Label",
    "parent": "flxRequestId",
    "pf": "segMessages",
    "retaincontentalignment": false,
    "retainflexpositionproperties": false,
    "textstyle": {},
    "texttruncateposition": 3,
    "tooltip": "",
    "wType": "Label",
    "zindex": 1
}