{
    "DNDConfig": null,
    "__parentReadjusting__": false,
    "_height_": {
        "type": "string",
        "value": "100%"
    },
    "_margin_": [
        0,
        0,
        0,
        0
    ],
    "_orientation_": 6,
    "_padding_": [
        0,
        0,
        0,
        0
    ],
    "_percent_": true,
    "_skin_": "s38e071e0d88486185fc4ed3f44ef7d4",
    "_width_": {
        "type": "string",
        "value": "0.25%"
    },
    "allboxes": [],
    "autogrowmode": 0,
    "canUpdateUI": true,
    "children": [],
    "clipbounds": true,
    "containerweight": 100,
    "enablescrolling": true,
    "id": "flxBorder",
    "info": null,
    "iscustomlayout": false,
    "isvisible": true,
    "kuid": "jf367c32374946bc8295f460cadfffd1",
    "layouttype": 2,
    "name": "kony.ui.FlexContainer",
    "parent": "flxChequeLabels",
    "pf": "frmChequeManagement",
    "retaincontentalignment": false,
    "retainflexpositionproperties": false,
    "retainflowhorizontalalignment": false,
    "snapgridsize": 10,
    "snaptogrid": true,
    "wType": "FlexContainer",
    "widgetalignment": 1,
    "zindex": 1
}