{
	"AS_BarButtonItem_c94f89c9900e44598c790349d2fefb83": {
		"id": "AS_BarButtonItem_c94f89c9900e44598c790349d2fefb83",
		"type": "ACTION_SEQUENCE",
		"params": [
			{
				"datatype": "collection",
				"name": "eventobject"
			}
		],
		"language": "js",
		"actions": [
			{
				"id": "ADD_SNIPPET__j789eaee841346fcbb7fa591d17dbe1d",
				"type": "ADD_SNIPPET",
				"codeSnippet": "this.cancelOnClick();",
				"parentId": null,
				"callbackType": null
			}
		]
	}
}