{
	"AS_BarButtonItem_e8177345272a42c5965e594ea8ef29ee": {
		"id": "AS_BarButtonItem_e8177345272a42c5965e594ea8ef29ee",
		"type": "ACTION_SEQUENCE",
		"params": [
			{
				"datatype": "collection",
				"name": "eventobject"
			}
		],
		"language": "js",
		"actions": [
			{
				"id": "ADD_SNIPPET_f922c0e2ee3f4c99bb1df307b88f1c37",
				"type": "ADD_SNIPPET",
				"codeSnippet": "this.onClickCancel();",
				"parentId": null,
				"callbackType": null
			}
		]
	}
}