{
	"AS_Button_af024f9d8bb948f6944420d6078fff66": {
		"id": "AS_Button_af024f9d8bb948f6944420d6078fff66",
		"type": "ACTION_SEQUENCE",
		"params": [
			{
				"datatype": "collection",
				"name": "eventobject"
			}
		],
		"contextObj": {
			"type": "forms",
			"platform": null,
			"KUID": "bfa7c6c156b24178972a3e804b34dd97"
		},
		"language": "js",
		"actions": [
			{
				"id": "ADD_SNIPPET_ide_onClick_f89f70ce05f54944b916a9868b0aeae5",
				"type": "ADD_SNIPPET",
				"codeSnippet": "this.setKeypadChar(1);"
			}
		]
	}
}