{
	"AS_Button_g01e76560f194c8d80e7cdaf6793c6a7": {
		"id": "AS_Button_g01e76560f194c8d80e7cdaf6793c6a7",
		"type": "ACTION_SEQUENCE",
		"params": [
			{
				"datatype": "collection",
				"name": "eventobject"
			}
		],
		"contextObj": {
			"type": "forms",
			"platform": "",
			"KUID": "g91a6b7c3c9147ffa6a22faac2248b95"
		},
		"language": "js",
		"actions": []
	}
}