{
	"AS_Button_f7fb2a7040b2489fbe5c14eb29262958": {
		"id": "AS_Button_f7fb2a7040b2489fbe5c14eb29262958",
		"type": "ACTION_SEQUENCE",
		"params": [
			{
				"datatype": "collection",
				"name": "eventobject"
			}
		],
		"contextObj": {
			"type": "forms",
			"platform": null,
			"KUID": "fe21355b9d46462a8db787248e2ccf00"
		},
		"language": "js",
		"actions": [
			{
				"id": "ADD_SNIPPET_ide_onClick_h9ec4037018440428177e715b0e56683",
				"type": "ADD_SNIPPET",
				"codeSnippet": "this.setKeypadChar(4);",
				"callbackType": null
			}
		]
	}
}