{
	"AS_Button_ie63c6b037724c458878430ebaf7cc8a": {
		"id": "AS_Button_ie63c6b037724c458878430ebaf7cc8a",
		"type": "ACTION_SEQUENCE",
		"params": [
			{
				"datatype": "collection",
				"name": "eventobject"
			}
		],
		"contextObj": {
			"type": "forms",
			"platform": null,
			"KUID": "gbeec3d6be6a48b193ffbbe95b39d6ac"
		},
		"language": "js",
		"actions": [
			{
				"id": "ADD_SNIPPET_ide_onClick_a5b08f285fdb469b957427adef10a8e7",
				"type": "ADD_SNIPPET",
				"codeSnippet": "this.setKeypadChar(9);",
				"callbackType": null
			}
		]
	}
}