{
	"AS_Button_ab2f595176fb46e692b7c9fbdf84bfb0": {
		"id": "AS_Button_ab2f595176fb46e692b7c9fbdf84bfb0",
		"type": "ACTION_SEQUENCE",
		"params": [
			{
				"datatype": "collection",
				"name": "eventobject"
			}
		],
		"language": "js",
		"actions": [
			{
				"id": "ADD_SNIPPET_ide_onClick_eb57f1ac9f724e66acd5febbb7d6a49d",
				"type": "ADD_SNIPPET",
				"codeSnippet": "this.setKeypadChar(1);",
				"callbackType": null
			}
		]
	}
}