{
	"AS_Button_efa6b49622d34702952b8a62e9dd1ce7": {
		"id": "AS_Button_efa6b49622d34702952b8a62e9dd1ce7",
		"type": "ACTION_SEQUENCE",
		"params": [
			{
				"datatype": "collection",
				"name": "eventobject"
			}
		],
		"contextObj": {
			"type": "forms",
			"platform": null,
			"KUID": "g450e900b3ae42dfb0c366bd54f5c1f9"
		},
		"language": "js",
		"actions": [
			{
				"id": "ADD_SNIPPET_ide_onClick_a06d2a8e62b44d7c9a5250349012028d",
				"type": "ADD_SNIPPET",
				"codeSnippet": "this.setKeypadChar(2);"
			}
		]
	}
}