{
	"AS_Button_f00c38eb967947af9e36a0ffdfb4afe6": {
		"id": "AS_Button_f00c38eb967947af9e36a0ffdfb4afe6",
		"type": "ACTION_SEQUENCE",
		"params": [
			{
				"datatype": "collection",
				"name": "eventobject"
			}
		],
		"contextObj": {
			"type": "forms",
			"platform": null,
			"KUID": "i478aeb81aa84e7ba1d760efdbb6b815"
		},
		"language": "js",
		"actions": [
			{
				"id": "ADD_SNIPPET_ide_onClick_a8484cd6b1144ef6bc85bea999090e60",
				"type": "ADD_SNIPPET",
				"codeSnippet": "this.setKeypadChar(4);",
				"callbackType": null
			}
		]
	}
}