{
	"AS_BarButtonItem_i5af5b97922540bc9f0970b5cfaf9e79": {
		"id": "AS_BarButtonItem_i5af5b97922540bc9f0970b5cfaf9e79",
		"type": "ACTION_SEQUENCE",
		"params": [
			{
				"datatype": "collection",
				"name": "eventobject"
			}
		],
		"language": "js",
		"actions": [
			{
				"id": "ADD_SNIPPET_a017cbad05e749e8b1d4d800cb8c1a6f",
				"type": "ADD_SNIPPET",
				"codeSnippet": "this.editCustomView();",
				"parentId": null
			}
		]
	}
}