{
	"AS_BarButtonItem_ce930e25b84a43148f0d379b325ac586": {
		"id": "AS_BarButtonItem_ce930e25b84a43148f0d379b325ac586",
		"type": "ACTION_SEQUENCE",
		"params": [
			{
				"datatype": "collection",
				"name": "eventobject"
			}
		],
		"language": "js",
		"actions": [
			{
				"id": "ADD_SNIPPET_i9d06f09b7874c3aa24b86404d3380b1",
				"type": "ADD_SNIPPET",
				"codeSnippet": "this.navigateCustomBack();",
				"parentId": null
			}
		]
	}
}