{
	"AS_Button_i93a76d23b8647f791038f00a879241a": {
		"id": "AS_Button_i93a76d23b8647f791038f00a879241a",
		"type": "ACTION_SEQUENCE",
		"params": [
			{
				"datatype": "collection",
				"name": "eventobject"
			}
		],
		"contextObj": {
			"type": "forms",
			"platform": "",
			"KUID": "fc40338e7ea64c55bfbabdaf9eacd83a"
		},
		"language": "js",
		"actions": [
			{
				"id": "ADD_SNIPPET__f9e13c1b86f04ec68ce748124a0a8371",
				"type": "ADD_SNIPPET",
				"codeSnippet": "this.setKeypadChar(3);",
				"parentId": null,
				"callbackType": null
			}
		]
	}
}