{
	"AS_BarButtonItem_f509d93cdef04dc39b1c75b704de6171": {
		"id": "AS_BarButtonItem_f509d93cdef04dc39b1c75b704de6171",
		"type": "ACTION_SEQUENCE",
		"params": [
			{
				"datatype": "collection",
				"name": "eventobject"
			}
		],
		"language": "js",
		"actions": [
			{
				"id": "ADD_SNIPPET__i26f020ee5d440f0ad82f677886bcc8f",
				"type": "ADD_SNIPPET",
				"codeSnippet": "var settingsMod = kony.mvc.MDAApplication.getSharedInstance().getModuleManager().getModule(\"SettingsModule\");\nsettingsMod.presentationController.commonFunctionForNavigation(\"frmTransfers\");",
				"parentId": null,
				"callbackType": null
			}
		]
	}
}