{
	"AS_Button_b1be19563f814a51b7ab31877b5954f2": {
		"id": "AS_Button_b1be19563f814a51b7ab31877b5954f2",
		"type": "ACTION_SEQUENCE",
		"params": [
			{
				"datatype": "collection",
				"name": "eventobject"
			}
		],
		"contextObj": {
			"type": "forms",
			"platform": "",
			"KUID": "de715a6e566245a58fcb775a437d3230"
		},
		"language": "js",
		"actions": [
			{
				"id": "ADD_SNIPPET_cf45f4497e2f4bd5a6248f97f1a87ea1",
				"type": "ADD_SNIPPET",
				"codeSnippet": "this.setKeypadChar(1);",
				"parentId": null,
				"callbackType": null
			}
		]
	}
}