{
	"AS_BarButtonItem_bd3dd011b6aa444cb7ee738b6f6a7a50": {
		"id": "AS_BarButtonItem_bd3dd011b6aa444cb7ee738b6f6a7a50",
		"type": "ACTION_SEQUENCE",
		"params": [
			{
				"datatype": "collection",
				"name": "eventobject"
			}
		],
		"language": "js",
		"actions": [
			{
				"id": "ADD_SNIPPET__h5aff37fbb2c42de873ab856cdc57046",
				"type": "ADD_SNIPPET",
				"codeSnippet": "this.btnRightOnClick();",
				"parentId": null,
				"callbackType": null
			}
		]
	}
}