{
	"AS_BarButtonItem_de82b28f307e4c9983cc6034d4c3dcde": {
		"id": "AS_BarButtonItem_de82b28f307e4c9983cc6034d4c3dcde",
		"type": "ACTION_SEQUENCE",
		"params": [
			{
				"datatype": "collection",
				"name": "eventobject"
			}
		],
		"language": "js",
		"actions": [
			{
				"id": "ADD_SNIPPET__ec79eaec992e43179401a8215c04fec8",
				"type": "ADD_SNIPPET",
				"codeSnippet": "var settingsMod = kony.mvc.MDAApplication.getSharedInstance().getModuleManager().getModule(\"SettingsModule\");\nsettingsMod.presentationController.commonFunctionForNavigation(\"frmProfilePersonalDetails\");",
				"parentId": null,
				"callbackType": null
			}
		]
	}
}