{
	"AS_Button_d243f57d61654e92a106d7a161404fff": {
		"id": "AS_Button_d243f57d61654e92a106d7a161404fff",
		"type": "ACTION_SEQUENCE",
		"params": [
			{
				"datatype": "collection",
				"name": "eventobject"
			}
		],
		"contextObj": {
			"type": "forms",
			"platform": null,
			"KUID": "gccb7f91b1bc4b47a5cfca6b33865804"
		},
		"language": "js",
		"actions": [
			{
				"id": "ADD_SNIPPET_ide_onClick_f776ffd0ec5a4b19845eac0655b37082",
				"type": "ADD_SNIPPET",
				"codeSnippet": "this.setKeypadChar(7);",
				"callbackType": null
			}
		]
	}
}