{
	"AS_Button_e2c7fb9f4e8340e0ac603e9564e2f5c6": {
		"id": "AS_Button_e2c7fb9f4e8340e0ac603e9564e2f5c6",
		"type": "ACTION_SEQUENCE",
		"params": [
			{
				"datatype": "collection",
				"name": "eventobject"
			}
		],
		"contextObj": {
			"type": "forms",
			"platform": null,
			"KUID": "g116859904954eb28f098d833436a84a"
		},
		"language": "js",
		"actions": [
			{
				"id": "ADD_SNIPPET_ide_onClick_b568f80d93bc422eb4c39a40ceeb17fa",
				"type": "ADD_SNIPPET",
				"codeSnippet": "this.setKeypadChar('.');",
				"callbackType": null
			}
		]
	}
}