{
	"AS_Button_b8c949daed8849e99cb8cf456bb2859b": {
		"id": "AS_Button_b8c949daed8849e99cb8cf456bb2859b",
		"type": "ACTION_SEQUENCE",
		"params": [
			{
				"datatype": "collection",
				"name": "eventobject"
			}
		],
		"contextObj": {
			"type": "forms",
			"platform": "",
			"KUID": "ff6e8713a5584165ade992f20989a4b6"
		},
		"language": "js",
		"actions": []
	}
}