{
	"AS_BarButtonItem_ebf923d10eff47afb54194adff6cd2cc": {
		"id": "AS_BarButtonItem_ebf923d10eff47afb54194adff6cd2cc",
		"type": "ACTION_SEQUENCE",
		"params": [
			{
				"datatype": "collection",
				"name": "eventobject"
			}
		],
		"language": "js",
		"actions": [
			{
				"id": "ADD_SNIPPET_ide_onClick_d674423e633b4b97aa2ba8b85ec646c7",
				"type": "ADD_SNIPPET",
				"codeSnippet": "this.onClickCancel();",
				"callbackType": null
			}
		]
	}
}