{
	"AS_BarButtonItem_g0a97b24900844baa665de19612faa9d": {
		"id": "AS_BarButtonItem_g0a97b24900844baa665de19612faa9d",
		"type": "ACTION_SEQUENCE",
		"params": [
			{
				"datatype": "collection",
				"name": "eventobject"
			}
		],
		"language": "js",
		"actions": [
			{
				"id": "ADD_SNIPPET_b626c0546dc8499c8da11992d2ca9ee1",
				"type": "ADD_SNIPPET",
				"codeSnippet": "this.onCancelClick();",
				"parentId": null,
				"callbackType": null
			}
		]
	}
}