{
	"AS_Button_jd2f9ffdd6924b03bb0175998407e8d3": {
		"id": "AS_Button_jd2f9ffdd6924b03bb0175998407e8d3",
		"type": "ACTION_SEQUENCE",
		"params": [
			{
				"datatype": "collection",
				"name": "eventobject"
			}
		],
		"contextObj": {
			"type": "forms",
			"platform": "",
			"KUID": "fc40338e7ea64c55bfbabdaf9eacd83a"
		},
		"language": "js",
		"actions": [
			{
				"id": "ADD_SNIPPET__a8bd0f658b7447dd93f5ffc504e119fd",
				"type": "ADD_SNIPPET",
				"codeSnippet": "this.setKeypadChar(0);",
				"parentId": null,
				"callbackType": null
			}
		]
	}
}