{
	"AS_BarButtonItem_bb53b1432cd740db85bb55e9c39cff2e": {
		"id": "AS_BarButtonItem_bb53b1432cd740db85bb55e9c39cff2e",
		"type": "ACTION_SEQUENCE",
		"params": [
			{
				"datatype": "collection",
				"name": "eventobject"
			}
		],
		"language": "js",
		"actions": [
			{
				"id": "ADD_SNIPPET_ide_onClick_c546aa7fc5154ab98a8bfd18385e61ff",
				"type": "ADD_SNIPPET",
				"codeSnippet": "this.cancelOnClick();",
				"callbackType": null
			}
		]
	}
}