{
	"AS_Button_c22104b8081c49ca8a9f6b3b083a2089": {
		"id": "AS_Button_c22104b8081c49ca8a9f6b3b083a2089",
		"type": "ACTION_SEQUENCE",
		"params": [
			{
				"datatype": "collection",
				"name": "eventobject"
			}
		],
		"contextObj": {
			"type": "forms",
			"platform": null,
			"KUID": "a30723bedf264ec2a3a9ae486d2c918e"
		},
		"language": "js",
		"actions": [
			{
				"id": "ADD_SNIPPET_ide_onClick_d35ffdd802cd437f8a77b9c3a0ed16fb",
				"type": "ADD_SNIPPET",
				"codeSnippet": "this.setKeypadChar(4);",
				"callbackType": null
			}
		]
	}
}