{
	"AS_BarButtonItem_gfa217e064aa4de7883e8fbe38f25cc6": {
		"id": "AS_BarButtonItem_gfa217e064aa4de7883e8fbe38f25cc6",
		"type": "ACTION_SEQUENCE",
		"params": [
			{
				"datatype": "collection",
				"name": "eventobject"
			}
		],
		"language": "js",
		"actions": [
			{
				"id": "ADD_SNIPPET__g6389d14c82a4df4b0827d9e0f863e23",
				"type": "ADD_SNIPPET",
				"codeSnippet": "this.cancelOnClick();",
				"parentId": null,
				"callbackType": null
			}
		]
	}
}