{
	"AS_Button_i9f63c5ef5ba431198b3a810ca956af6": {
		"id": "AS_Button_i9f63c5ef5ba431198b3a810ca956af6",
		"type": "ACTION_SEQUENCE",
		"params": [
			{
				"datatype": "collection",
				"name": "eventobject"
			}
		],
		"contextObj": {
			"type": "forms",
			"platform": "",
			"KUID": "i12c1ee247194beda9069c83ef14bedb"
		},
		"language": "js",
		"actions": [
			{
				"id": "INVOKE_FUNCTION___bccbef164fc140d68731706efcd0c9fa",
				"type": "INVOKE_FUNCTION",
				"sequenceKUID": "btnContinueSignUpOnClick",
				"display": "btnContinueSignUpOnClick",
				"inputparams": [],
				"parentId": null,
				"callbackType": null,
				"disabled": null,
				"source": "controller"
			}
		]
	}
}