{
	"AS_Button_deb8a6aa679f43d8b185781d93ec5ac2": {
		"id": "AS_Button_deb8a6aa679f43d8b185781d93ec5ac2",
		"type": "ACTION_SEQUENCE",
		"params": [
			{
				"datatype": "collection",
				"name": "eventobject"
			}
		],
		"contextObj": {
			"type": "forms",
			"platform": null,
			"KUID": "c5cf3858f83c45218e921d6674a8f4d2"
		},
		"language": "js",
		"actions": [
			{
				"id": "NAVIGATE_TO_FORM__ide_onClick_bb56e0399a3743bfb09eae359abcd259",
				"type": "NAVIGATE_TO_FORM",
				"formId": "frmAccStatements",
				"friendlyName": "frmAccStatements",
				"formKUID": "f6a5a6d5d9bb413fa4cec8e26cc06a88",
				"mappings": {},
				"mappingsOrder": [],
				"parentId": "",
				"callbackType": null,
				"enableMappingEditor": true,
				"package": "AccountModule",
				"navigationObj": "{\n    \"_meta_\": {\n        \"eventName\": \"\",\n        \"widgetId\": \"\"\n    }\n}",
				"isCustomInput": false
			}
		]
	}
}