{
	"AS_Button_dd060757283f46f286a7e3cbf0809323": {
		"id": "AS_Button_dd060757283f46f286a7e3cbf0809323",
		"type": "ACTION_SEQUENCE",
		"params": [
			{
				"datatype": "collection",
				"name": "eventobject"
			}
		],
		"contextObj": {
			"type": "forms",
			"platform": "",
			"KUID": "bd407b4f1db84aaf857350c5154838d3"
		},
		"language": "js",
		"actions": [
			{
				"id": "ADD_SNIPPET__f88ee60725864a3998007eafbd84df47",
				"type": "ADD_SNIPPET",
				"codeSnippet": "this.setKeypadChar(4);",
				"parentId": null,
				"callbackType": null
			}
		]
	}
}