{
	"AS_Button_fd4af8009044422caf31a2464cc02d7c": {
		"id": "AS_Button_fd4af8009044422caf31a2464cc02d7c",
		"type": "ACTION_SEQUENCE",
		"params": [
			{
				"datatype": "collection",
				"name": "eventobject"
			}
		],
		"contextObj": {
			"type": "forms",
			"platform": null,
			"KUID": "gbeec3d6be6a48b193ffbbe95b39d6ac"
		},
		"language": "js",
		"actions": [
			{
				"id": "ADD_SNIPPET_ide_onClick_a1a9b34aaacc4165b4e0af0be184ec64",
				"type": "ADD_SNIPPET",
				"codeSnippet": "this.setKeypadChar(6);",
				"callbackType": null
			}
		]
	}
}