{
	"AS_Button_e28f61ed29f64dc980bdf969a4b75ab7": {
		"id": "AS_Button_e28f61ed29f64dc980bdf969a4b75ab7",
		"type": "ACTION_SEQUENCE",
		"params": [
			{
				"datatype": "collection",
				"name": "eventobject"
			}
		],
		"contextObj": {
			"type": "forms",
			"platform": null,
			"KUID": "g42339271a2a451ca2bd041a9f456142"
		},
		"language": "js",
		"actions": [
			{
				"id": "NAVIGATE_TO_FORM__ide_onClick_ccccab8c6e2a4050a466bcbb8b683e51",
				"type": "NAVIGATE_TO_FORM",
				"formId": "frmTransferActivitiesTransfers",
				"friendlyName": "frmTransferActivitiesTransfers",
				"formKUID": "ac504a704a324da2a75c8f812a918cdc",
				"mappings": {},
				"mappingsOrder": [],
				"enableMappingEditor": true,
				"package": "MoneyMovementModule",
				"isCustomInput": false
			}
		]
	}
}