{
	"AS_Button_ie26890de1dd4dd1ab1d12a62f9020f9": {
		"id": "AS_Button_ie26890de1dd4dd1ab1d12a62f9020f9",
		"type": "ACTION_SEQUENCE",
		"params": [
			{
				"datatype": "collection",
				"name": "eventobject"
			}
		],
		"contextObj": {
			"type": "forms",
			"platform": null,
			"KUID": "gf0bea0914e64207ac1054f290e6340f"
		},
		"language": "js",
		"actions": [
			{
				"id": "ADD_SNIPPET_ide_onClick_e3593ca8093b46479b731e4115241c95",
				"type": "ADD_SNIPPET",
				"codeSnippet": "this.setKeypadChar(7);",
				"callbackType": null
			}
		]
	}
}