{
	"AS_Button_d0fd3fda98af4adfae3bf3b033e9a75c": {
		"id": "AS_Button_d0fd3fda98af4adfae3bf3b033e9a75c",
		"type": "ACTION_SEQUENCE",
		"params": [
			{
				"datatype": "collection",
				"name": "eventobject"
			}
		],
		"contextObj": {
			"type": "forms",
			"platform": null,
			"KUID": "ia3fe8faa68d4b5b9a388469875e332c"
		},
		"language": "js",
		"actions": [
			{
				"id": "ADD_SNIPPET_ide_onClick_aeaf40ecbf3b435589363f143eca2c02",
				"type": "ADD_SNIPPET",
				"codeSnippet": "this.setKeypadChar(3);",
				"callbackType": null
			}
		]
	}
}