{
	"AS_BarButtonItem_b2841e7576d64d21828873ac563ff7a2": {
		"id": "AS_BarButtonItem_b2841e7576d64d21828873ac563ff7a2",
		"type": "ACTION_SEQUENCE",
		"params": [
			{
				"datatype": "collection",
				"name": "eventobject"
			}
		],
		"language": "js",
		"actions": [
			{
				"id": "ADD_SNIPPET_b1df66eef2e5440b98129f0e942c3d32",
				"type": "ADD_SNIPPET",
				"codeSnippet": "this.navigateBack();",
				"parentId": null
			}
		]
	}
}