{
	"AS_Button_af6f9b532bcb4e72b3437cd94801f0fb": {
		"id": "AS_Button_af6f9b532bcb4e72b3437cd94801f0fb",
		"type": "ACTION_SEQUENCE",
		"params": [
			{
				"datatype": "collection",
				"name": "eventobject"
			}
		],
		"contextObj": {
			"type": "forms",
			"platform": null,
			"KUID": "g58b4112139443f4a57df6baf62e25e8"
		},
		"language": "js",
		"actions": [
			{
				"id": "ADD_SNIPPET_ide_onClick_d366cd1059304e2bab05ab825c3cb63d",
				"type": "ADD_SNIPPET",
				"codeSnippet": "this.setKeypadChar(7);",
				"callbackType": null
			}
		]
	}
}