{
	"AS_Button_b3fc54d4ec4049bf9c1c1af5850acf7d": {
		"id": "AS_Button_b3fc54d4ec4049bf9c1c1af5850acf7d",
		"type": "ACTION_SEQUENCE",
		"params": [
			{
				"datatype": "collection",
				"name": "eventobject"
			}
		],
		"contextObj": {
			"type": "forms",
			"platform": null,
			"KUID": "cfa2a77e6cf74e9497d2d9f2c0e272f9"
		},
		"language": "js",
		"actions": [
			{
				"id": "NAVIGATE_TO_FORM__ide_onClick_c04092bdf0a94c92ac6060509e12e1ca",
				"type": "NAVIGATE_TO_FORM",
				"formId": "frmLogin",
				"friendlyName": "frmLogin",
				"formKUID": "h65c10a2cabc493c8ac9ef9c703d1486",
				"mappings": {},
				"mappingsOrder": [],
				"parentId": "",
				"callbackType": null,
				"enableMappingEditor": true,
				"package": "AuthModule",
				"navigationObj": "{\n    \"_meta_\": {\n        \"eventName\": \"\",\n        \"widgetId\": \"\"\n    }\n}",
				"isCustomInput": false
			}
		]
	}
}