{
	"AS_BarButtonItem_e8da606b6aee48278693cc4c55e74830": {
		"id": "AS_BarButtonItem_e8da606b6aee48278693cc4c55e74830",
		"type": "ACTION_SEQUENCE",
		"params": [
			{
				"datatype": "collection",
				"name": "eventobject"
			}
		],
		"language": "js",
		"actions": [
			{
				"id": "ADD_SNIPPET__bf4c5aabe596423a8b886b5944e19655",
				"type": "ADD_SNIPPET",
				"codeSnippet": "this.flxBackOnClick();",
				"parentId": null,
				"callbackType": null
			}
		]
	}
}