{
	"AS_Button_g6c4d14e5f8446d6af12b544c9e9c953": {
		"id": "AS_Button_g6c4d14e5f8446d6af12b544c9e9c953",
		"type": "ACTION_SEQUENCE",
		"params": [
			{
				"datatype": "collection",
				"name": "eventobject"
			}
		],
		"contextObj": {
			"type": "forms",
			"platform": null,
			"KUID": "dc859d3a382b431a96ebc6b38e6d92fd"
		},
		"language": "js",
		"actions": [
			{
				"id": "ADD_SNIPPET_ide_onClick_b3c1971d059043ceafe1e6b31aabcce9",
				"type": "ADD_SNIPPET",
				"codeSnippet": "this.setKeypadChar(4);",
				"callbackType": null
			}
		]
	}
}