{
	"AS_BarButtonItem_h003ad9c82ea4d55a7e51b942c90eab9": {
		"id": "AS_BarButtonItem_h003ad9c82ea4d55a7e51b942c90eab9",
		"type": "ACTION_SEQUENCE",
		"params": [
			{
				"datatype": "collection",
				"name": "eventobject"
			}
		],
		"language": "js",
		"actions": [
			{
				"id": "ADD_SNIPPET_g4af80a69d8d43cca92c817be6311c17",
				"type": "ADD_SNIPPET",
				"codeSnippet": "this.backNavigation();",
				"parentId": null
			}
		]
	}
}