{
	"AS_Button_e072961820894efcb500f617a9b10830": {
		"id": "AS_Button_e072961820894efcb500f617a9b10830",
		"type": "ACTION_SEQUENCE",
		"params": [
			{
				"datatype": "collection",
				"name": "eventobject"
			}
		],
		"contextObj": {
			"type": "forms",
			"platform": "",
			"KUID": "eb884581c9154390af4af6572938d7c4"
		},
		"language": "js",
		"actions": [
			{
				"id": "ADD_SNIPPET__he2d7a2d0c134b4d8ed3c2d83085c7d0",
				"type": "ADD_SNIPPET",
				"codeSnippet": "this.setKeypadChar(6);",
				"parentId": null,
				"callbackType": null
			}
		]
	}
}