{
	"AS_BarButtonItem_e7038417bcd24307a8530beef94c0c3f": {
		"id": "AS_BarButtonItem_e7038417bcd24307a8530beef94c0c3f",
		"type": "ACTION_SEQUENCE",
		"params": [
			{
				"datatype": "collection",
				"name": "eventobject"
			}
		],
		"language": "js",
		"actions": [
			{
				"id": "ADD_SNIPPET__e54b7b752d1246dc839444dcccc4767c",
				"type": "ADD_SNIPPET",
				"codeSnippet": "this.onClickCancel();",
				"parentId": null,
				"callbackType": null
			}
		]
	}
}