{
	"AS_Button_h067e162fc9345da99585d343d887fc3": {
		"id": "AS_Button_h067e162fc9345da99585d343d887fc3",
		"type": "ACTION_SEQUENCE",
		"params": [
			{
				"datatype": "collection",
				"name": "eventobject"
			}
		],
		"contextObj": {
			"type": "forms",
			"platform": null,
			"KUID": "g116859904954eb28f098d833436a84a"
		},
		"language": "js",
		"actions": [
			{
				"id": "ADD_SNIPPET_ide_onClick_f7e89782cc82401aac479df794b5c4c3",
				"type": "ADD_SNIPPET",
				"codeSnippet": "this.setKeypadChar(0);",
				"callbackType": null
			}
		]
	}
}