{
	"AS_Button_iefb8edcfed943aca43b48792841ff2f": {
		"id": "AS_Button_iefb8edcfed943aca43b48792841ff2f",
		"type": "ACTION_SEQUENCE",
		"params": [
			{
				"datatype": "collection",
				"name": "eventobject"
			}
		],
		"contextObj": {
			"type": "forms",
			"platform": "",
			"KUID": "fabc653950774f86a578cb382970af65"
		},
		"language": "js",
		"actions": [
			{
				"id": "ADD_SNIPPET__b1f4cb87b26343dc99a823638d0af066",
				"type": "ADD_SNIPPET",
				"codeSnippet": "this.setKeypadChar(9);",
				"parentId": null,
				"callbackType": null
			}
		]
	}
}