{
	"AS_BarButtonItem_e75c4816156146de805238458baf8571": {
		"id": "AS_BarButtonItem_e75c4816156146de805238458baf8571",
		"type": "ACTION_SEQUENCE",
		"params": [
			{
				"datatype": "collection",
				"name": "eventobject"
			}
		],
		"language": "js",
		"actions": [
			{
				"id": "ADD_SNIPPET_ide_onClick_df9c4a50fde041ac8321f6353748f8ff",
				"type": "ADD_SNIPPET",
				"codeSnippet": "this.navigateCustomBack();",
				"callbackType": null
			}
		]
	}
}