{
	"AS_Button_ec9cd86084844583af2b482a829b78f4": {
		"id": "AS_Button_ec9cd86084844583af2b482a829b78f4",
		"type": "ACTION_SEQUENCE",
		"params": [
			{
				"datatype": "collection",
				"name": "eventobject"
			}
		],
		"contextObj": {
			"type": "forms",
			"platform": null,
			"KUID": "g58b4112139443f4a57df6baf62e25e8"
		},
		"language": "js",
		"actions": [
			{
				"id": "ADD_SNIPPET_ide_onClick_h612d50ea8834de6b679112008d81650",
				"type": "ADD_SNIPPET",
				"codeSnippet": "this.setKeypadChar(4);",
				"callbackType": null
			}
		]
	}
}