{
	"AS_Button_j6bdd639afb246ae9ad9e6e05804c54b": {
		"id": "AS_Button_j6bdd639afb246ae9ad9e6e05804c54b",
		"type": "ACTION_SEQUENCE",
		"params": [
			{
				"datatype": "collection",
				"name": "eventobject"
			}
		],
		"contextObj": {
			"type": "forms",
			"platform": "",
			"KUID": "g4582e392c054106b9e743c29610e98c"
		},
		"language": "js",
		"actions": [
			{
				"id": "ADD_SNIPPET__bf033b333b63413cb6c03c9f6d45776a",
				"type": "ADD_SNIPPET",
				"codeSnippet": "this.btnSkipOnClick();",
				"parentId": null,
				"callbackType": null
			}
		]
	}
}