{
	"AS_Button_i3be465d80c74853a461be23695af913": {
		"id": "AS_Button_i3be465d80c74853a461be23695af913",
		"type": "ACTION_SEQUENCE",
		"params": [
			{
				"datatype": "collection",
				"name": "eventobject"
			}
		],
		"contextObj": {
			"type": "forms",
			"platform": null,
			"KUID": "g3620424935f41cd83896434e513810d"
		},
		"language": "js",
		"actions": [
			{
				"id": "ADD_SNIPPET_ide_onClick_ce0108dd84794e2a9bdad2916118c0d1",
				"type": "ADD_SNIPPET",
				"codeSnippet": "this.setKeypadChar(7);",
				"callbackType": null
			}
		]
	}
}