{
	"AS_BarButtonItem_ee1d2f13fc094865ab3cfadb2a683113": {
		"id": "AS_BarButtonItem_ee1d2f13fc094865ab3cfadb2a683113",
		"type": "ACTION_SEQUENCE",
		"params": [
			{
				"datatype": "collection",
				"name": "eventobject"
			}
		],
		"language": "js",
		"actions": [
			{
				"id": "ADD_SNIPPET_c3c57ec424774dbdba45ee4c8bea4f0e",
				"type": "ADD_SNIPPET",
				"codeSnippet": "this.onCancelClick();",
				"parentId": null,
				"callbackType": null
			}
		]
	}
}