{
	"AS_BarButtonItem_aca2c22944fa4d61b68476d3a37ab1fb": {
		"id": "AS_BarButtonItem_aca2c22944fa4d61b68476d3a37ab1fb",
		"type": "ACTION_SEQUENCE",
		"params": [
			{
				"datatype": "collection",
				"name": "eventobject"
			}
		],
		"language": "js",
		"actions": [
			{
				"id": "ADD_SNIPPET_ide_onClick_hdeeb3c5f43f493dbf6ceb23a7a99e2e",
				"type": "ADD_SNIPPET",
				"codeSnippet": "this.navigateCustomBack();",
				"callbackType": null
			}
		]
	}
}