{
	"AS_Button_da85512aae1946ab9688fa755a1a2eac": {
		"id": "AS_Button_da85512aae1946ab9688fa755a1a2eac",
		"type": "ACTION_SEQUENCE",
		"params": [
			{
				"datatype": "collection",
				"name": "eventobject"
			}
		],
		"contextObj": {
			"type": "forms",
			"platform": "",
			"KUID": "bd407b4f1db84aaf857350c5154838d3"
		},
		"language": "js",
		"actions": [
			{
				"id": "ADD_SNIPPET__j9a0eb313b76439db9aef1bdb7a9ebba",
				"type": "ADD_SNIPPET",
				"codeSnippet": "this.setKeypadChar(1);",
				"parentId": null,
				"callbackType": null
			}
		]
	}
}