{
	"AS_BarButtonItem_a75faa27f3a84d239b3c28921aa2ba57": {
		"id": "AS_BarButtonItem_a75faa27f3a84d239b3c28921aa2ba57",
		"type": "ACTION_SEQUENCE",
		"params": [
			{
				"datatype": "collection",
				"name": "eventobject"
			}
		],
		"language": "js",
		"actions": [
			{
				"id": "ADD_SNIPPET__fff0ac1d2ac846c7a5ce21ea16258c15",
				"type": "ADD_SNIPPET",
				"codeSnippet": "this.btnRightOnClick();",
				"parentId": null,
				"callbackType": null
			}
		]
	}
}