{
	"AS_Button_f8b6b1770c6f4c7d8a7103092cb5e15f": {
		"id": "AS_Button_f8b6b1770c6f4c7d8a7103092cb5e15f",
		"type": "ACTION_SEQUENCE",
		"params": [
			{
				"datatype": "collection",
				"name": "eventobject"
			}
		],
		"contextObj": {
			"type": "forms",
			"platform": null,
			"KUID": "cd327cfeeb2f4236bf398402e2a0aa58"
		},
		"language": "js",
		"actions": [
			{
				"id": "ADD_SNIPPET_ide_onClick_g2fa9451d0f74ca98a674f7ddf8e9a11",
				"type": "ADD_SNIPPET",
				"codeSnippet": "this.setKeypadChar(4);",
				"callbackType": null
			}
		]
	}
}