{
	"AS_Button_d39dcb857a864c7985698776a7804f71": {
		"id": "AS_Button_d39dcb857a864c7985698776a7804f71",
		"type": "ACTION_SEQUENCE",
		"params": [
			{
				"datatype": "collection",
				"name": "eventobject"
			}
		],
		"contextObj": {
			"type": "forms",
			"platform": "",
			"KUID": "eb884581c9154390af4af6572938d7c4"
		},
		"language": "js",
		"actions": [
			{
				"id": "ADD_SNIPPET__ff7c4b88b72e48e483803199ce930dad",
				"type": "ADD_SNIPPET",
				"codeSnippet": "this.setKeypadChar(2);",
				"parentId": null,
				"callbackType": null
			}
		]
	}
}