{
	"AS_Button_d365b24c3e8e4859bd6d888338f7c6e3": {
		"id": "AS_Button_d365b24c3e8e4859bd6d888338f7c6e3",
		"type": "ACTION_SEQUENCE",
		"params": [
			{
				"datatype": "collection",
				"name": "eventobject"
			}
		],
		"contextObj": {
			"type": "forms",
			"platform": null,
			"KUID": "c719d50200df45358fd79063ef57c8b6"
		},
		"language": "js",
		"actions": [
			{
				"id": "ADD_SNIPPET_ide_onClick_fc6291986b0041498a2387d3784ede23",
				"type": "ADD_SNIPPET",
				"codeSnippet": "this.setKeypadChar(1);",
				"callbackType": null
			}
		]
	}
}