{
	"AS_Button_df0d1a1eeb6c4e37af20fa89f580ac79": {
		"id": "AS_Button_df0d1a1eeb6c4e37af20fa89f580ac79",
		"type": "ACTION_SEQUENCE",
		"params": [
			{
				"datatype": "collection",
				"name": "eventobject"
			}
		],
		"contextObj": {
			"type": "forms",
			"platform": null,
			"KUID": "g116859904954eb28f098d833436a84a"
		},
		"language": "js",
		"actions": [
			{
				"id": "ADD_SNIPPET_ide_onClick_fb0ca8b061bf4bba9c84c5fa12df459c",
				"type": "ADD_SNIPPET",
				"codeSnippet": "this.setKeypadChar(5);",
				"callbackType": null
			}
		]
	}
}