{
	"AS_BarButtonItem_jddae95be6c74a6b8dfa063a85062889": {
		"id": "AS_BarButtonItem_jddae95be6c74a6b8dfa063a85062889",
		"type": "ACTION_SEQUENCE",
		"params": [
			{
				"datatype": "collection",
				"name": "eventobject"
			}
		],
		"language": "js",
		"actions": [
			{
				"id": "ADD_SNIPPET__d86d1464a9324b4fba40ed25ff020429",
				"type": "ADD_SNIPPET",
				"codeSnippet": "this.onClickCancel();",
				"parentId": null,
				"callbackType": null
			}
		]
	}
}