{
	"AS_Button_h8f0611a8e144265b0e1cc9eb80de6e5": {
		"id": "AS_Button_h8f0611a8e144265b0e1cc9eb80de6e5",
		"type": "ACTION_SEQUENCE",
		"params": [
			{
				"datatype": "collection",
				"name": "eventobject"
			}
		],
		"contextObj": {
			"type": "forms",
			"platform": null,
			"KUID": "ia3fe8faa68d4b5b9a388469875e332c"
		},
		"language": "js",
		"actions": [
			{
				"id": "ADD_SNIPPET_ide_onClick_ed0d6fc10f034f3484b92bfe4ce5cbf0",
				"type": "ADD_SNIPPET",
				"codeSnippet": "this.setKeypadChar(9);",
				"callbackType": null
			}
		]
	}
}