{
	"AS_Button_e3b9dcb8159b49b8893a8496fa196785": {
		"id": "AS_Button_e3b9dcb8159b49b8893a8496fa196785",
		"type": "ACTION_SEQUENCE",
		"params": [
			{
				"datatype": "collection",
				"name": "eventobject"
			}
		],
		"contextObj": {
			"type": "forms",
			"platform": null,
			"KUID": "dc336312264b45a88927cb20acece118"
		},
		"language": "js",
		"actions": [
			{
				"id": "ADD_SNIPPET_ide_onClick_i552641e135a43a59986620785e5acd8",
				"type": "ADD_SNIPPET",
				"codeSnippet": "this.setKeypadChar(6);",
				"callbackType": null
			}
		]
	}
}