{
	"AS_Button_d787b524da0a4cc4bbf8a891dea23fc1": {
		"id": "AS_Button_d787b524da0a4cc4bbf8a891dea23fc1",
		"type": "ACTION_SEQUENCE",
		"params": [
			{
				"datatype": "collection",
				"name": "eventobject"
			}
		],
		"contextObj": {
			"type": "forms",
			"platform": null,
			"KUID": "d48d401b09e64af0aa1b2f490eca9622"
		},
		"language": "js",
		"actions": [
			{
				"id": "NAVIGATE_TO_FORM__ide_onClick_a7e6ad5d94c245a1962575bf81da5b89",
				"type": "NAVIGATE_TO_FORM",
				"formId": "frmTransferActivitiesDirectDebits",
				"friendlyName": "frmTransferActivitiesDirectDebits",
				"formKUID": "ce16403d628d4bf38bfca8590ec8be2d",
				"mappings": {},
				"mappingsOrder": [],
				"enableMappingEditor": true,
				"package": "MoneyMovementModule",
				"isCustomInput": false
			}
		]
	}
}