{
	"AS_BarButtonItem_da3da063d37a42f0984ec4bbd7128a53": {
		"id": "AS_BarButtonItem_da3da063d37a42f0984ec4bbd7128a53",
		"type": "ACTION_SEQUENCE",
		"params": [
			{
				"datatype": "collection",
				"name": "eventobject"
			}
		],
		"language": "js",
		"actions": [
			{
				"id": "ADD_SNIPPET_e402b2ae4c8f48c1b8ea92e67f547145",
				"type": "ADD_SNIPPET",
				"codeSnippet": "this.navigateCustomBack();",
				"parentId": null
			}
		]
	}
}