{
	"AS_Button_j0b02c76833e4b8b969403c72c315f06": {
		"id": "AS_Button_j0b02c76833e4b8b969403c72c315f06",
		"type": "ACTION_SEQUENCE",
		"params": [
			{
				"datatype": "collection",
				"name": "eventobject"
			}
		],
		"contextObj": {
			"type": "forms",
			"platform": null,
			"KUID": "e9a6190c81034d669cce3baee3b28802"
		},
		"language": "js",
		"actions": [
			{
				"id": "INVOKE_FUNCTION__ide_onClick_je49483787e44c73a69512f44703c7a3",
				"type": "INVOKE_FUNCTION",
				"sequenceKUID": "btnContinueSignUpOnClick",
				"display": "btnContinueSignUpOnClick",
				"inputparams": [],
				"callbackType": null,
				"disabled": true,
				"source": "controller"
			},
			{
				"id": "ADD_SNIPPET_ide_onClick_cf4f4e804372406abc9c0e0faa64b9b5",
				"type": "ADD_SNIPPET",
				"codeSnippet": "",
				"callbackType": null
			}
		]
	}
}