{
	"AS_Button_g1e3f08fd7de4c6ba3490e1730d43dff": {
		"id": "AS_Button_g1e3f08fd7de4c6ba3490e1730d43dff",
		"type": "ACTION_SEQUENCE",
		"params": [
			{
				"datatype": "collection",
				"name": "eventobject"
			}
		],
		"contextObj": {
			"type": "forms",
			"platform": null,
			"KUID": "f9f98871d20b4eafb1d228fbce68ce57"
		},
		"language": "js",
		"actions": [
			{
				"id": "ADD_SNIPPET_ide_onClick_adafff1c640e4b74b0c330632d5e1b9b",
				"type": "ADD_SNIPPET",
				"codeSnippet": "this.setKeypadChar(4);",
				"callbackType": null
			}
		]
	}
}