{
	"AS_Button_je114c4cb2644f038e6ea33062d8f85f": {
		"id": "AS_Button_je114c4cb2644f038e6ea33062d8f85f",
		"type": "ACTION_SEQUENCE",
		"params": [
			{
				"datatype": "collection",
				"name": "eventobject"
			}
		],
		"contextObj": {
			"type": "forms",
			"platform": null,
			"KUID": "gf0bea0914e64207ac1054f290e6340f"
		},
		"language": "js",
		"actions": [
			{
				"id": "ADD_SNIPPET_ide_onClick_aaf3a24722b94f7a8bacd1f39e3b6135",
				"type": "ADD_SNIPPET",
				"codeSnippet": "this.setKeypadChar(6);",
				"callbackType": null
			}
		]
	}
}