{
	"AS_Button_gc9e12e0e082494d8f7cdaeacf965da2": {
		"id": "AS_Button_gc9e12e0e082494d8f7cdaeacf965da2",
		"type": "ACTION_SEQUENCE",
		"params": [
			{
				"datatype": "collection",
				"name": "eventobject"
			}
		],
		"contextObj": {
			"type": "forms",
			"platform": null,
			"KUID": "b3a32cd120a545158b3815abc4ed2cf6"
		},
		"language": "js",
		"actions": [
			{
				"id": "ADD_SNIPPET_ide_onClick_gebf3fd7d4ad45fa89c77ea2d4cafbfd",
				"type": "ADD_SNIPPET",
				"codeSnippet": "this.setKeypadChar(2);"
			}
		]
	}
}