{
	"AS_BarButtonItem_b8aa4654c7aa46d89dee4940773b7b40": {
		"id": "AS_BarButtonItem_b8aa4654c7aa46d89dee4940773b7b40",
		"type": "ACTION_SEQUENCE",
		"params": [
			{
				"datatype": "collection",
				"name": "eventobject"
			}
		],
		"language": "js",
		"actions": [
			{
				"id": "ADD_SNIPPET__j819c26c3f794e90ada70c435204dee7",
				"type": "ADD_SNIPPET",
				"codeSnippet": "this.onClickEdit();",
				"parentId": null,
				"callbackType": null
			}
		]
	}
}