{
	"AS_Button_e0f04d6a261043a1a7493133a6fa29b7": {
		"id": "AS_Button_e0f04d6a261043a1a7493133a6fa29b7",
		"type": "ACTION_SEQUENCE",
		"params": [
			{
				"datatype": "collection",
				"name": "eventobject"
			}
		],
		"contextObj": {
			"type": "forms",
			"platform": "",
			"KUID": "h65c10a2cabc493c8ac9ef9c703d1486"
		},
		"language": "js",
		"actions": [
			{
				"id": "INVOKE_FUNCTION___cfb48d27a808437399aa6e7bba6a493c",
				"type": "INVOKE_FUNCTION",
				"sequenceKUID": "showPinScreen",
				"display": "showPinScreen",
				"inputparams": [],
				"parentId": null,
				"callbackType": null,
				"disabled": null,
				"source": "controller"
			}
		]
	}
}