{
	"AS_Button_gc3956d9408d428ab74508df6947dd0f": {
		"id": "AS_Button_gc3956d9408d428ab74508df6947dd0f",
		"type": "ACTION_SEQUENCE",
		"params": [
			{
				"datatype": "collection",
				"name": "eventobject"
			}
		],
		"contextObj": {
			"type": "forms",
			"platform": null,
			"KUID": "a303dc034db740dfbc725d9a524fa6fd"
		},
		"language": "js",
		"actions": [
			{
				"id": "ADD_SNIPPET_ide_onClick_b07aefd516564536bf92fa8aa06fc94f",
				"type": "ADD_SNIPPET",
				"codeSnippet": "this.setKeypadChar(1);",
				"callbackType": null
			}
		]
	}
}