{
	"AS_BarButtonItem_ef0049161b6d40d18e84be786a54fcf6": {
		"id": "AS_BarButtonItem_ef0049161b6d40d18e84be786a54fcf6",
		"type": "ACTION_SEQUENCE",
		"params": [
			{
				"datatype": "collection",
				"name": "eventobject"
			}
		],
		"language": "js",
		"actions": [
			{
				"id": "ADD_SNIPPET_ide_onClick_d5824006dd794545b46a30cd49b19c2c",
				"type": "ADD_SNIPPET",
				"codeSnippet": "this.onClickCancel();",
				"callbackType": null
			}
		]
	}
}