{
	"AS_Button_d2db9f9b94f14a6e982315e3657dd4f8": {
		"id": "AS_Button_d2db9f9b94f14a6e982315e3657dd4f8",
		"type": "ACTION_SEQUENCE",
		"params": [
			{
				"datatype": "collection",
				"name": "eventobject"
			}
		],
		"contextObj": {
			"type": "forms",
			"platform": null,
			"KUID": "dc336312264b45a88927cb20acece118"
		},
		"language": "js",
		"actions": [
			{
				"id": "ADD_SNIPPET_ide_onClick_d16e2b3475074c3db95e193178e88fd5",
				"type": "ADD_SNIPPET",
				"codeSnippet": "this.setKeypadChar(5);",
				"callbackType": null
			}
		]
	}
}