{
	"AS_Button_ba2018991bdc4d98b81922ef75ade8d6": {
		"id": "AS_Button_ba2018991bdc4d98b81922ef75ade8d6",
		"type": "ACTION_SEQUENCE",
		"params": [
			{
				"datatype": "collection",
				"name": "eventobject"
			}
		],
		"contextObj": {
			"type": "forms",
			"platform": "",
			"KUID": "dd5e7b315b2b45ba9d04160845ed5c2d"
		},
		"language": "js",
		"actions": [
			{
				"id": "NAVIGATE_TO_FORM___cc50c85c3b9147769214d88f14f153a6",
				"type": "NAVIGATE_TO_FORM",
				"formId": "frmLogin",
				"friendlyName": "frmLogin",
				"formKUID": "h65c10a2cabc493c8ac9ef9c703d1486",
				"mappings": {},
				"mappingsOrder": [],
				"parentId": "",
				"callbackType": null,
				"enableMappingEditor": true,
				"package": "AuthModule",
				"navigationObj": "{\n    \"_meta_\": {\n        \"eventName\": \"\",\n        \"widgetId\": \"\"\n    }\n}",
				"isCustomInput": false
			}
		]
	}
}