{
	"AS_Button_hd1794866c1a456cad48b7f98af93b92": {
		"id": "AS_Button_hd1794866c1a456cad48b7f98af93b92",
		"type": "ACTION_SEQUENCE",
		"params": [
			{
				"datatype": "collection",
				"name": "eventobject"
			}
		],
		"contextObj": {
			"type": "forms",
			"platform": null,
			"KUID": "j21d8aaf0a434a598861e8edd1d907c1"
		},
		"language": "js",
		"actions": [
			{
				"id": "ADD_SNIPPET_ide_onClick_fa24b09584ac408eb19f6281e8caad2b",
				"type": "ADD_SNIPPET",
				"codeSnippet": "this.setKeypadChar(4);",
				"callbackType": null
			}
		]
	}
}