{
	"AS_BarButtonItem_afafe2daf72740b0a5c539bcc7a66f01": {
		"id": "AS_BarButtonItem_afafe2daf72740b0a5c539bcc7a66f01",
		"type": "ACTION_SEQUENCE",
		"params": [
			{
				"datatype": "collection",
				"name": "eventobject"
			}
		],
		"language": "js",
		"actions": [
			{
				"id": "ADD_SNIPPET_ide_onClick_f4ac56557c6848deb453aab3198db825",
				"type": "ADD_SNIPPET",
				"codeSnippet": "this.cancelCommon();",
				"callbackType": null
			}
		]
	}
}