{
	"AS_Button_g2f8946483aa430d934a750526d54a9b": {
		"id": "AS_Button_g2f8946483aa430d934a750526d54a9b",
		"type": "ACTION_SEQUENCE",
		"params": [
			{
				"datatype": "collection",
				"name": "eventobject"
			}
		],
		"contextObj": {
			"type": "forms",
			"platform": null,
			"KUID": "f55777c2954249b5bdd1a647d421e942"
		},
		"language": "js",
		"actions": [
			{
				"id": "ADD_SNIPPET_ide_onClick_c4d775ac48124570b1313bcfe1ec2e1a",
				"type": "ADD_SNIPPET",
				"codeSnippet": "this.setKeypadChar(1);",
				"callbackType": null
			}
		]
	}
}