{
	"AS_BarButtonItem_d532184fe68940fbb2679da1b3ab04cf": {
		"id": "AS_BarButtonItem_d532184fe68940fbb2679da1b3ab04cf",
		"type": "ACTION_SEQUENCE",
		"params": [
			{
				"datatype": "collection",
				"name": "eventobject"
			}
		],
		"language": "js",
		"actions": [
			{
				"id": "ADD_SNIPPET_i94ff1c4d9774db4812df0cf0afd6837",
				"type": "ADD_SNIPPET",
				"codeSnippet": "this.onCancelClick();",
				"parentId": null
			}
		]
	}
}