{
	"AS_Button_g444091b07834053970fd98ff695ca14": {
		"id": "AS_Button_g444091b07834053970fd98ff695ca14",
		"type": "ACTION_SEQUENCE",
		"params": [
			{
				"datatype": "collection",
				"name": "eventobject"
			}
		],
		"contextObj": {
			"type": "forms",
			"platform": null,
			"KUID": "b482b6efffaf4a9f9f24e84f96dfe5f7"
		},
		"language": "js",
		"actions": [
			{
				"id": "ADD_SNIPPET_ide_onClick_a109d25447ba44a0b1227fb19bdc6a3f",
				"type": "ADD_SNIPPET",
				"codeSnippet": "this.setKeypadChar(1);"
			}
		]
	}
}