{
	"AS_BarButtonItem_bf0d1a97d98f48a48721eb2e6bd6c750": {
		"id": "AS_BarButtonItem_bf0d1a97d98f48a48721eb2e6bd6c750",
		"type": "ACTION_SEQUENCE",
		"params": [
			{
				"datatype": "collection",
				"name": "eventobject"
			}
		],
		"language": "js",
		"actions": [
			{
				"id": "INVOKE_FUNCTION__i1c7cbe8f01c4963a412fd707e68fec2",
				"type": "INVOKE_FUNCTION",
				"sequenceKUID": "goBack",
				"display": "goBack",
				"inputparams": [],
				"parentId": null,
				"callbackType": null,
				"disabled": null,
				"source": "controller"
			}
		]
	}
}