{
	"AS_Button_d8bdc816124a4c73810dd852e2552b90": {
		"id": "AS_Button_d8bdc816124a4c73810dd852e2552b90",
		"type": "ACTION_SEQUENCE",
		"params": [
			{
				"datatype": "collection",
				"name": "eventobject"
			}
		],
		"contextObj": {
			"type": "forms",
			"platform": null,
			"KUID": "c1c2984a83da4813adbf533f9fbcd5ed"
		},
		"language": "js",
		"actions": [
			{
				"id": "ADD_SNIPPET_ide_onClick_e5766896623348c8be55cc52571b7999",
				"type": "ADD_SNIPPET",
				"codeSnippet": "this.setKeypadChar(2);"
			}
		]
	}
}