{
	"AS_BarButtonItem_f9e23803e9ac44eaafc26ba873ce2b46": {
		"id": "AS_BarButtonItem_f9e23803e9ac44eaafc26ba873ce2b46",
		"type": "ACTION_SEQUENCE",
		"params": [
			{
				"datatype": "collection",
				"name": "eventobject"
			}
		],
		"language": "js",
		"actions": [
			{
				"id": "INVOKE_FUNCTION___f575740b6ff14f7e970214c83a06b0e9",
				"type": "INVOKE_FUNCTION",
				"sequenceKUID": "readCountryCodeFromForm",
				"display": "readCountryCodeFromForm",
				"inputparams": [],
				"parentId": null,
				"callbackType": null,
				"disabled": null,
				"source": "controller"
			}
		]
	}
}