{
	"AS_Button_f9991a3dcdcd4a839ce2473df625ef32": {
		"id": "AS_Button_f9991a3dcdcd4a839ce2473df625ef32",
		"type": "ACTION_SEQUENCE",
		"params": [
			{
				"datatype": "collection",
				"name": "eventobject"
			}
		],
		"contextObj": {
			"type": "forms",
			"platform": "",
			"KUID": "g91a6b7c3c9147ffa6a22faac2248b95"
		},
		"language": "js",
		"actions": []
	}
}