{
	"AS_BarButtonItem_e4f7ac74183e4002ba0b226a5fc907c6": {
		"id": "AS_BarButtonItem_e4f7ac74183e4002ba0b226a5fc907c6",
		"type": "ACTION_SEQUENCE",
		"params": [
			{
				"datatype": "collection",
				"name": "eventobject"
			}
		],
		"language": "js",
		"actions": [
			{
				"id": "ADD_SNIPPET_ide_onClick_g112a9555ed24eb591150a01c6b3657d",
				"type": "ADD_SNIPPET",
				"codeSnippet": "this.flxBackOnClick();",
				"callbackType": null
			}
		]
	}
}