{
	"AS_BarButtonItem_a57d8703e58745699e5263fe09e577cc": {
		"id": "AS_BarButtonItem_a57d8703e58745699e5263fe09e577cc",
		"type": "ACTION_SEQUENCE",
		"params": [
			{
				"datatype": "collection",
				"name": "eventobject"
			}
		],
		"language": "js",
		"actions": [
			{
				"id": "ADD_SNIPPET_ff5b61756cf04f72b8118bc14db623ff",
				"type": "ADD_SNIPPET",
				"codeSnippet": "this.backOnClick();",
				"parentId": null
			}
		]
	}
}