{
	"AS_Button_d05055cc355b42f58ee74be11b5c9ab4": {
		"id": "AS_Button_d05055cc355b42f58ee74be11b5c9ab4",
		"type": "ACTION_SEQUENCE",
		"params": [
			{
				"datatype": "collection",
				"name": "eventobject"
			}
		],
		"contextObj": {
			"type": "forms",
			"platform": null,
			"KUID": "cfd520fd1f594c468fa06704b66e53b1"
		},
		"language": "js",
		"actions": [
			{
				"id": "ADD_SNIPPET_ide_onClick_fdfe13958ef248e9a2365e8d5fd55853",
				"type": "ADD_SNIPPET",
				"codeSnippet": "this.setKeypadChar(0);",
				"callbackType": null
			}
		]
	}
}