{
	"AS_Button_bb655a8549c04c09a49ac402a2cac457": {
		"id": "AS_Button_bb655a8549c04c09a49ac402a2cac457",
		"type": "ACTION_SEQUENCE",
		"params": [
			{
				"datatype": "collection",
				"name": "eventobject"
			}
		],
		"language": "js",
		"actions": [
			{
				"id": "ADD_SNIPPET_ide_onClick_a40b7dfc584844a693f249c63a58e5ea",
				"type": "ADD_SNIPPET",
				"codeSnippet": "this.setKeypadChar(7);",
				"callbackType": null
			}
		]
	}
}