{
	"AS_BarButtonItem_a2e75b17a28a4b9ebe80811633357d50": {
		"id": "AS_BarButtonItem_a2e75b17a28a4b9ebe80811633357d50",
		"type": "ACTION_SEQUENCE",
		"params": [
			{
				"datatype": "collection",
				"name": "eventobject"
			}
		],
		"language": "js",
		"actions": [
			{
				"id": "INVOKE_FUNCTION__bfd996cb306b459bbf501d101e067b2c",
				"type": "INVOKE_FUNCTION",
				"sequenceKUID": "navigateToCombinedSelector",
				"display": "navigateToCombinedSelector",
				"inputparams": [],
				"parentId": null,
				"callbackType": null,
				"disabled": null,
				"source": "controller"
			}
		]
	}
}