{
	"AS_Button_g61f491aec2049778653276546b3458c": {
		"id": "AS_Button_g61f491aec2049778653276546b3458c",
		"type": "ACTION_SEQUENCE",
		"params": [
			{
				"datatype": "collection",
				"name": "eventobject"
			}
		],
		"contextObj": {
			"type": "forms",
			"platform": "",
			"KUID": "de715a6e566245a58fcb775a437d3230"
		},
		"language": "js",
		"actions": [
			{
				"id": "ADD_SNIPPET_becc559a738b447698977678ad7929d2",
				"type": "ADD_SNIPPET",
				"codeSnippet": "this.setKeypadChar(3);",
				"parentId": null,
				"callbackType": null
			}
		]
	}
}