{
	"AS_BarButtonItem_i0a80ddb8cd74cfbb459e49d59a35ea8": {
		"id": "AS_BarButtonItem_i0a80ddb8cd74cfbb459e49d59a35ea8",
		"type": "ACTION_SEQUENCE",
		"params": [
			{
				"datatype": "collection",
				"name": "eventobject"
			}
		],
		"language": "js",
		"actions": [
			{
				"id": "ADD_SNIPPET__d4066d542d4c485091257f3294d5d301",
				"type": "ADD_SNIPPET",
				"codeSnippet": "var settingsMod = kony.mvc.MDAApplication.getSharedInstance().getModuleManager().getModule(\"SettingsModule\");\nsettingsMod.presentationController.commonFunctionForNavigation(\"frmProfilePersonalDetails\");",
				"parentId": null,
				"callbackType": null
			}
		]
	}
}