{
	"AS_BarButtonItem_d38b593f3573427eb1523005127bbe44": {
		"id": "AS_BarButtonItem_d38b593f3573427eb1523005127bbe44",
		"type": "ACTION_SEQUENCE",
		"params": [
			{
				"datatype": "collection",
				"name": "eventobject"
			}
		],
		"language": "js",
		"actions": [
			{
				"id": "ADD_SNIPPET__dd0b131464b84fb4b1c1d290dbb92995",
				"type": "ADD_SNIPPET",
				"codeSnippet": "this.cancelOnClick();",
				"parentId": null,
				"callbackType": null
			}
		]
	}
}