{
	"AS_BarButtonItem_f166360d647f46928f3f0eb0c36a6af9": {
		"id": "AS_BarButtonItem_f166360d647f46928f3f0eb0c36a6af9",
		"type": "ACTION_SEQUENCE",
		"params": [
			{
				"datatype": "collection",
				"name": "eventobject"
			}
		],
		"language": "js",
		"actions": [
			{
				"id": "NAVIGATE_TO_FORM__ide_onClick_h340a6b2cf9d4ab88f1c72c492e00371",
				"type": "NAVIGATE_TO_FORM",
				"formId": "frmManageRecipientList",
				"friendlyName": "frmManageRecipientList",
				"formKUID": "b30e09d8c30740b4b3a6416c9ccc4fc9",
				"mappings": {},
				"mappingsOrder": [],
				"parentId": "",
				"callbackType": null,
				"enableMappingEditor": true,
				"disabled": true,
				"package": "PayAPersonModule",
				"navigationObj": "{\n    \"_meta_\": {\n        \"eventName\": \"onClick\",\n        \"widgetId\": \"undefined\"\n    }\n}",
				"isCustomInput": false
			},
			{
				"id": "ADD_SNIPPET__bb407f32aa3d49ffacdfb3ad54e06915",
				"type": "ADD_SNIPPET",
				"codeSnippet": "this.onClickCancel();",
				"parentId": null,
				"callbackType": null
			}
		]
	}
}