{
	"AS_BarButtonItem_af06809baa5340d292ae7cfb1f085c0e": {
		"id": "AS_BarButtonItem_af06809baa5340d292ae7cfb1f085c0e",
		"type": "ACTION_SEQUENCE",
		"params": [
			{
				"datatype": "collection",
				"name": "eventobject"
			}
		],
		"language": "js",
		"actions": [
			{
				"id": "ADD_SNIPPET_h7ff880c2dc443b786ab7f2a197bf378",
				"type": "ADD_SNIPPET",
				"codeSnippet": "this.backNavigation();",
				"parentId": null
			}
		]
	}
}