{
	"AS_Button_ab348c740e13405b85db057f0ada20e0": {
		"id": "AS_Button_ab348c740e13405b85db057f0ada20e0",
		"type": "ACTION_SEQUENCE",
		"params": [
			{
				"datatype": "collection",
				"name": "eventobject"
			}
		],
		"contextObj": {
			"type": "forms",
			"platform": "",
			"KUID": "de715a6e566245a58fcb775a437d3230"
		},
		"language": "js",
		"actions": [
			{
				"id": "ADD_SNIPPET_j15f8c3090e54e28b6f765e0df5a306a",
				"type": "ADD_SNIPPET",
				"codeSnippet": "this.setKeypadChar(8);",
				"parentId": null,
				"callbackType": null
			}
		]
	}
}