{
	"AS_BarButtonItem_i85d4dd028bd4b1aa9a4092849b9867b": {
		"id": "AS_BarButtonItem_i85d4dd028bd4b1aa9a4092849b9867b",
		"type": "ACTION_SEQUENCE",
		"params": [
			{
				"datatype": "collection",
				"name": "eventobject"
			}
		],
		"language": "js",
		"actions": [
			{
				"id": "ADD_SNIPPET_f59638d3cc5c4e26975c13aa78ec847a",
				"type": "ADD_SNIPPET",
				"codeSnippet": "this.onCancelClick();",
				"parentId": null,
				"callbackType": null
			}
		]
	}
}