{
	"AS_Button_bb6867d3c35d4b0eae27b26f7a0d121b": {
		"id": "AS_Button_bb6867d3c35d4b0eae27b26f7a0d121b",
		"type": "ACTION_SEQUENCE",
		"params": [
			{
				"datatype": "collection",
				"name": "eventobject"
			}
		],
		"contextObj": {
			"type": "forms",
			"platform": "",
			"KUID": "eb884581c9154390af4af6572938d7c4"
		},
		"language": "js",
		"actions": []
	}
}