{
	"AS_Button_e430beba30a84da6887be8eb824b5f5e": {
		"id": "AS_Button_e430beba30a84da6887be8eb824b5f5e",
		"type": "ACTION_SEQUENCE",
		"params": [
			{
				"datatype": "collection",
				"name": "eventobject"
			}
		],
		"contextObj": {
			"type": "forms",
			"platform": null,
			"KUID": "bb574d49d1204bd796c9045bdf9a36dc"
		},
		"language": "js",
		"actions": [
			{
				"id": "ADD_SNIPPET_ide_onClick_e4ecb0b8c95d4934a421c2ec58bbd5b0",
				"type": "ADD_SNIPPET",
				"codeSnippet": "this.setKeypadChar(7);",
				"callbackType": null
			}
		]
	}
}