{
	"AS_BarButtonItem_c0eea92597a5415bb3c805dfd283f208": {
		"id": "AS_BarButtonItem_c0eea92597a5415bb3c805dfd283f208",
		"type": "ACTION_SEQUENCE",
		"params": [
			{
				"datatype": "collection",
				"name": "eventobject"
			}
		],
		"language": "js",
		"actions": [
			{
				"id": "ADD_SNIPPET__hf452681dd604afaa8f2d17287f8fb54",
				"type": "ADD_SNIPPET",
				"codeSnippet": "this.onCancel();",
				"parentId": null,
				"callbackType": null
			}
		]
	}
}