{
	"AS_BarButtonItem_e7e814f7720f406b96cd4d177a409026": {
		"id": "AS_BarButtonItem_e7e814f7720f406b96cd4d177a409026",
		"type": "ACTION_SEQUENCE",
		"params": [
			{
				"datatype": "collection",
				"name": "eventobject"
			}
		],
		"language": "js",
		"actions": [
			{
				"id": "ADD_SNIPPET__h8ecb40346104dbe837e92b975a1350c",
				"type": "ADD_SNIPPET",
				"codeSnippet": "this.onClickCancel();",
				"parentId": null,
				"callbackType": null
			}
		]
	}
}