{
	"AS_Form_c56c83c0e6d549f0bb2481ec1e3c1851": {
		"id": "AS_Form_c56c83c0e6d549f0bb2481ec1e3c1851",
		"type": "ACTION_SEQUENCE",
		"params": [
			{
				"datatype": "collection",
				"name": "eventobject"
			}
		],
		"contextObj": {
			"type": "forms",
			"platform": "",
			"KUID": "gb40e602696042faa7ee94b544a8d3a1"
		},
		"language": "js",
		"actions": [
			{
				"id": "ADD_SNIPPET__aa1b55e2640d46c5bfd152292d4c0a86",
				"type": "ADD_SNIPPET",
				"codeSnippet": "this.init();",
				"parentId": null,
				"callbackType": null
			}
		]
	}
}