{
	"AS_Form_ff72c7bfc2d2406a8335298e92de94c0": {
		"id": "AS_Form_ff72c7bfc2d2406a8335298e92de94c0",
		"type": "ACTION_SEQUENCE",
		"params": [
			{
				"datatype": "collection",
				"name": "eventobject"
			}
		],
		"contextObj": {
			"type": "forms",
			"platform": "",
			"KUID": "i4c4ab6abe5f48daa4ceb2c40d01a93d"
		},
		"language": "js",
		"actions": [
			{
				"id": "ADD_SNIPPET__d9cce6bd0d6640c0b958e5455e449137",
				"type": "ADD_SNIPPET",
				"codeSnippet": "this.preShowUiSettings();",
				"parentId": null,
				"callbackType": null
			}
		]
	}
}