{
	"AS_Form_ccde5a67171c4c169c7bfb62c7581afe": {
		"id": "AS_Form_ccde5a67171c4c169c7bfb62c7581afe",
		"type": "ACTION_SEQUENCE",
		"params": [
			{
				"datatype": "collection",
				"name": "eventobject"
			}
		],
		"contextObj": {
			"type": "forms",
			"platform": null,
			"KUID": "ife1cb4df1274c64abde2add7e7b73c8"
		},
		"language": "js",
		"actions": [
			{
				"id": "ADD_SNIPPET_ide_init_j9508f0e279e410d9db664dccf108ab4",
				"type": "ADD_SNIPPET",
				"codeSnippet": "this.init();"
			}
		]
	}
}