{
	"AS_Form_g7556b7a28b84ec6abffeca85f914415": {
		"id": "AS_Form_g7556b7a28b84ec6abffeca85f914415",
		"type": "ACTION_SEQUENCE",
		"params": [
			{
				"datatype": "collection",
				"name": "eventobject"
			}
		],
		"contextObj": {
			"type": "forms",
			"platform": null,
			"KUID": "b30e09d8c30740b4b3a6416c9ccc4fc9"
		},
		"language": "js",
		"actions": [
			{
				"id": "ADD_SNIPPET_ide_preShow_d27bc0e7e9aa40e6bb9bc3743dfd0691",
				"type": "ADD_SNIPPET",
				"codeSnippet": "this.preShow();",
				"callbackType": null
			}
		]
	}
}