{
	"AS_Form_a40931d01e2f47c08357d2a5d7748b4e": {
		"id": "AS_Form_a40931d01e2f47c08357d2a5d7748b4e",
		"type": "ACTION_SEQUENCE",
		"params": [
			{
				"datatype": "collection",
				"name": "eventobject"
			}
		],
		"contextObj": {
			"type": "forms",
			"platform": null,
			"KUID": "a1804fce193440de9b4bd95d8d2feded"
		},
		"language": "js",
		"actions": [
			{
				"id": "ADD_SNIPPET_ide_init_hd126ff0c2364b799178a150bbfaa670",
				"type": "ADD_SNIPPET",
				"codeSnippet": "this.init();",
				"callbackType": null
			}
		]
	}
}