{
	"AS_Form_gbbbc99e340748ba9225834442895ae3": {
		"id": "AS_Form_gbbbc99e340748ba9225834442895ae3",
		"type": "ACTION_SEQUENCE",
		"params": [
			{
				"datatype": "collection",
				"name": "eventobject"
			}
		],
		"contextObj": {
			"type": "forms",
			"platform": null,
			"KUID": "d217c9422f554583a30f5fc83626defd"
		},
		"language": "js",
		"actions": [
			{
				"id": "ADD_SNIPPET_ide_preShow_a7c78ee3ac7842c5ab2ebee248e65ac1",
				"type": "ADD_SNIPPET",
				"codeSnippet": "this.preShow();",
				"callbackType": null
			}
		]
	}
}