{
	"AS_Form_aad6ac45914146578be6d3df56133443": {
		"id": "AS_Form_aad6ac45914146578be6d3df56133443",
		"type": "ACTION_SEQUENCE",
		"params": [
			{
				"datatype": "collection",
				"name": "eventobject"
			}
		],
		"contextObj": {
			"type": "forms",
			"platform": "",
			"KUID": "f1cfc7db1ff94fd1a769cb46e43d2fc0"
		},
		"language": "js",
		"actions": [
			{
				"id": "ADD_SNIPPET__f76e2609efc64c1781f6864ec6265eac",
				"type": "ADD_SNIPPET",
				"codeSnippet": "this.preShowUiSettings();",
				"parentId": null,
				"callbackType": null
			}
		]
	}
}