{
	"AS_Form_h884f3c7706c43c592e1cfd0984d1f44": {
		"id": "AS_Form_h884f3c7706c43c592e1cfd0984d1f44",
		"type": "ACTION_SEQUENCE",
		"params": [
			{
				"datatype": "collection",
				"name": "eventobject"
			}
		],
		"contextObj": {
			"type": "forms",
			"platform": "",
			"KUID": "j8ed96e100ab4de6a47b9fed8d8e1fce"
		},
		"language": "js",
		"actions": [
			{
				"id": "INVOKE_FUNCTION__bfa2f72d7a2a456ca6b3ac285f2583c7",
				"type": "INVOKE_FUNCTION",
				"sequenceKUID": "init",
				"display": "init",
				"inputparams": [],
				"parentId": null,
				"callbackType": null,
				"disabled": null,
				"source": "controller"
			}
		]
	}
}