{
	"AS_Form_e1d10f76357d4e9aa04b782a6d394285": {
		"id": "AS_Form_e1d10f76357d4e9aa04b782a6d394285",
		"type": "ACTION_SEQUENCE",
		"params": [
			{
				"datatype": "collection",
				"name": "eventobject"
			}
		],
		"contextObj": {
			"type": "forms",
			"platform": "",
			"KUID": "f8396d95baa8403dbe74a3a400d4636c"
		},
		"language": "js",
		"actions": [
			{
				"id": "INVOKE_FUNCTION__c65c323e408048b8a47c6947a50ac161",
				"type": "INVOKE_FUNCTION",
				"sequenceKUID": "init",
				"display": "init",
				"inputparams": [],
				"parentId": null,
				"callbackType": null,
				"disabled": null,
				"source": "controller"
			}
		]
	}
}