{
	"AS_Form_d0c72185658c40c5971c493e150ca7a1": {
		"id": "AS_Form_d0c72185658c40c5971c493e150ca7a1",
		"type": "ACTION_SEQUENCE",
		"params": [
			{
				"datatype": "collection",
				"name": "eventobject"
			}
		],
		"contextObj": {
			"type": "forms",
			"platform": "",
			"KUID": "g8d112c54f70404aa2605b373ca8050e"
		},
		"language": "js",
		"actions": [
			{
				"id": "ADD_SNIPPET__be26f0476db64df584a81eafb78cd535",
				"type": "ADD_SNIPPET",
				"codeSnippet": "this.frmPreShow();",
				"parentId": null,
				"callbackType": null
			}
		]
	}
}