{
	"AS_Form_ddccefb55efb4fb785b44a6a8fc13834": {
		"id": "AS_Form_ddccefb55efb4fb785b44a6a8fc13834",
		"type": "ACTION_SEQUENCE",
		"params": [
			{
				"datatype": "collection",
				"name": "eventobject"
			}
		],
		"contextObj": {
			"type": "forms",
			"platform": null,
			"KUID": "c81793c6c386494bbf4feb7cfa78245c"
		},
		"language": "js",
		"actions": [
			{
				"id": "ADD_SNIPPET_ide_init_i7fdc6a189654b549bffb0577943abfd",
				"type": "ADD_SNIPPET",
				"codeSnippet": "this.init();"
			}
		]
	}
}