{
	"AS_Form_f1e2a6e01219429380eff431def87bd6": {
		"id": "AS_Form_f1e2a6e01219429380eff431def87bd6",
		"type": "ACTION_SEQUENCE",
		"params": [
			{
				"datatype": "collection",
				"name": "eventobject"
			}
		],
		"contextObj": {
			"type": "forms",
			"platform": null,
			"KUID": "g554e47daa7e496c8db3692b2d69a1ea"
		},
		"language": "js",
		"actions": [
			{
				"id": "ADD_SNIPPET_ide_preShow_a953fe269a764264a651c052e7283bf0",
				"type": "ADD_SNIPPET",
				"codeSnippet": "this.frmPreshow();",
				"callbackType": null
			}
		]
	}
}