{
	"AS_Form_bbb32a4fc1014614a96803915745ed14": {
		"id": "AS_Form_bbb32a4fc1014614a96803915745ed14",
		"type": "ACTION_SEQUENCE",
		"params": [
			{
				"datatype": "collection",
				"name": "eventobject"
			}
		],
		"contextObj": {
			"type": "forms",
			"platform": "",
			"KUID": "g3c0f1ca6f9c4177a5a6129c278ffe2e"
		},
		"language": "js",
		"actions": [
			{
				"id": "ADD_SNIPPET__daa3a447dd0d4485a73a3a134d274dca",
				"type": "ADD_SNIPPET",
				"codeSnippet": "this.init();",
				"parentId": null,
				"callbackType": null
			}
		]
	}
}