{
	"AS_Form_eafca79a20b94407b5207b40d934da21": {
		"id": "AS_Form_eafca79a20b94407b5207b40d934da21",
		"type": "ACTION_SEQUENCE",
		"params": [
			{
				"datatype": "collection",
				"name": "eventobject"
			}
		],
		"contextObj": {
			"type": "forms",
			"platform": null,
			"KUID": "ea781f82fed44a9abd13f2c54d66e2ba"
		},
		"language": "js",
		"actions": [
			{
				"id": "ADD_SNIPPET_ide_init_e17259bfae3a48d48e8e24c9683c972c",
				"type": "ADD_SNIPPET",
				"codeSnippet": "this.init();",
				"callbackType": null
			}
		]
	}
}