{
	"AS_Form_f71a0fe20ecc416eaa4ead229219da1e": {
		"id": "AS_Form_f71a0fe20ecc416eaa4ead229219da1e",
		"type": "ACTION_SEQUENCE",
		"params": [
			{
				"datatype": "collection",
				"name": "eventobject"
			}
		],
		"contextObj": {
			"type": "forms",
			"platform": null,
			"KUID": "af2bc771b2e8426eac5ef46458dbec9e"
		},
		"language": "js",
		"actions": [
			{
				"id": "ADD_SNIPPET_ide_preShow_i200bfdf1f154960ab35acb1a594ac7e",
				"type": "ADD_SNIPPET",
				"codeSnippet": "this.preShow();",
				"callbackType": null
			}
		]
	}
}