{
	"AS_Form_ae379a3fa4874bca8ef0643584ac1919": {
		"id": "AS_Form_ae379a3fa4874bca8ef0643584ac1919",
		"type": "ACTION_SEQUENCE",
		"params": [
			{
				"datatype": "collection",
				"name": "eventobject"
			}
		],
		"contextObj": {
			"type": "forms",
			"platform": null,
			"KUID": "c700ab4ff5834854a9265be3fe8aac59"
		},
		"language": "js",
		"actions": [
			{
				"id": "ADD_SNIPPET_ide_init_f80ae31f21a04f2cb666d0448ab47596",
				"type": "ADD_SNIPPET",
				"codeSnippet": "this.init();",
				"callbackType": null
			}
		]
	}
}