{
	"AS_Form_i2db50ae89404900bc8fa9436f7a0e38": {
		"id": "AS_Form_i2db50ae89404900bc8fa9436f7a0e38",
		"type": "ACTION_SEQUENCE",
		"params": [
			{
				"datatype": "collection",
				"name": "eventobject"
			}
		],
		"contextObj": {
			"type": "forms",
			"platform": null,
			"KUID": "d6e3d3991fde494cb0fd551b04d0c132"
		},
		"language": "js",
		"actions": [
			{
				"id": "ADD_SNIPPET_ide_preShow_bb334c4423fc45738d58911dfac1493b",
				"type": "ADD_SNIPPET",
				"codeSnippet": "this.preShow();"
			}
		]
	}
}