{
	"AS_Form_je0958fdd67843aab351a1325e37ab4b": {
		"id": "AS_Form_je0958fdd67843aab351a1325e37ab4b",
		"type": "ACTION_SEQUENCE",
		"params": [
			{
				"datatype": "collection",
				"name": "eventobject"
			}
		],
		"contextObj": {
			"type": "forms",
			"platform": "",
			"KUID": "d09fc8878e874678a9fc7a6433bb92bc"
		},
		"language": "js",
		"actions": [
			{
				"id": "ADD_SNIPPET_f702e4d212a14c05803b6ba66d40bb24",
				"type": "ADD_SNIPPET",
				"codeSnippet": "this.preShow();",
				"parentId": null,
				"callbackType": null
			}
		]
	}
}