{
	"AS_Form_b3cc6904009a4b57b90a754433630660": {
		"id": "AS_Form_b3cc6904009a4b57b90a754433630660",
		"type": "ACTION_SEQUENCE",
		"params": [
			{
				"datatype": "collection",
				"name": "eventobject"
			}
		],
		"contextObj": {
			"type": "forms",
			"platform": null,
			"KUID": "a30723bedf264ec2a3a9ae486d2c918e"
		},
		"language": "js",
		"actions": [
			{
				"id": "ADD_SNIPPET_ide_preShow_ac99ceaf85c24729be998e6743273c1e",
				"type": "ADD_SNIPPET",
				"codeSnippet": "this.frmPreshow();",
				"callbackType": null
			}
		]
	}
}