{
	"AS_Form_i2d5339139a54eacb28493d4c6207b9d": {
		"id": "AS_Form_i2d5339139a54eacb28493d4c6207b9d",
		"type": "ACTION_SEQUENCE",
		"params": [
			{
				"datatype": "collection",
				"name": "eventobject"
			}
		],
		"contextObj": {
			"type": "forms",
			"platform": null,
			"KUID": "g0224f14e1f3413c91da4f270104ca6c"
		},
		"language": "js",
		"actions": [
			{
				"id": "ADD_SNIPPET_d3e436b51fbc489c9c492d485d9c1312",
				"type": "ADD_SNIPPET",
				"codeSnippet": "this.init();",
				"parentId": null
			}
		]
	}
}