{
	"AS_Form_ic324fbb8db048abb1afb70a655f7ef8": {
		"id": "AS_Form_ic324fbb8db048abb1afb70a655f7ef8",
		"type": "ACTION_SEQUENCE",
		"params": [
			{
				"datatype": "collection",
				"name": "eventobject"
			}
		],
		"contextObj": {
			"type": "forms",
			"platform": "",
			"KUID": "c245049bb820428bb5e6ac988e83bfd7"
		},
		"language": "js",
		"actions": [
			{
				"id": "ADD_SNIPPET_d01d5ff6de69485388f274be922f43fa",
				"type": "ADD_SNIPPET",
				"codeSnippet": "this.onInit();",
				"parentId": null
			}
		]
	}
}