{
	"AS_Form_b86fb24b31bf4b1d8ace1d52b7b224b7": {
		"id": "AS_Form_b86fb24b31bf4b1d8ace1d52b7b224b7",
		"type": "ACTION_SEQUENCE",
		"params": [
			{
				"datatype": "collection",
				"name": "eventobject"
			}
		],
		"contextObj": {
			"type": "forms",
			"platform": "",
			"KUID": "a8386e4cceac4dbc95cfdf4da053a132"
		},
		"language": "js",
		"actions": [
			{
				"id": "ADD_SNIPPET_faa43c1414aa48b6a67408811a2766ef",
				"type": "ADD_SNIPPET",
				"codeSnippet": "this.init();",
				"parentId": null
			}
		]
	}
}