{
	"AS_Form_g342d91becf24874a8c740b34a11a066": {
		"id": "AS_Form_g342d91becf24874a8c740b34a11a066",
		"type": "ACTION_SEQUENCE",
		"params": [
			{
				"datatype": "collection",
				"name": "eventobject"
			}
		],
		"contextObj": {
			"type": "forms",
			"platform": null,
			"KUID": "d8027d6acde249cd85f845a5823f82a0"
		},
		"language": "js",
		"actions": [
			{
				"id": "ADD_SNIPPET_ide_init_id6ec136d9ef44fb942aef17a75089ca",
				"type": "ADD_SNIPPET",
				"codeSnippet": "this.init();",
				"callbackType": null
			}
		]
	}
}