{
	"AS_Form_e1c64b66bc594232a3f8e6b40eaa718b": {
		"id": "AS_Form_e1c64b66bc594232a3f8e6b40eaa718b",
		"type": "ACTION_SEQUENCE",
		"params": [
			{
				"datatype": "collection",
				"name": "eventobject"
			}
		],
		"contextObj": {
			"type": "forms",
			"platform": "",
			"KUID": "a6ab487898f94a1d990aedae6c8a7021"
		},
		"language": "js",
		"actions": [
			{
				"id": "ADD_SNIPPET__b05754d995d84384b9ae45e5bb5bc070",
				"type": "ADD_SNIPPET",
				"codeSnippet": "this.init();",
				"parentId": null,
				"callbackType": null
			}
		]
	}
}