{
	"AS_Form_e502fb78818b4e8690642719633c566d": {
		"id": "AS_Form_e502fb78818b4e8690642719633c566d",
		"type": "ACTION_SEQUENCE",
		"params": [
			{
				"datatype": "collection",
				"name": "eventobject"
			}
		],
		"contextObj": {
			"type": "forms",
			"platform": null,
			"KUID": "b874854507484387a3754d42c85d1dba"
		},
		"language": "js",
		"actions": [
			{
				"id": "ADD_SNIPPET_ide_init_gd8d34d374314dd99271c93872cce893",
				"type": "ADD_SNIPPET",
				"codeSnippet": "this.init();",
				"callbackType": null
			}
		]
	}
}