{
	"AS_Form_f400c071ec4e44898268b8d4bb73f98d": {
		"id": "AS_Form_f400c071ec4e44898268b8d4bb73f98d",
		"type": "ACTION_SEQUENCE",
		"params": [
			{
				"datatype": "collection",
				"name": "eventobject"
			}
		],
		"contextObj": {
			"type": "forms",
			"platform": "",
			"KUID": "fc40338e7ea64c55bfbabdaf9eacd83a"
		},
		"language": "js",
		"actions": [
			{
				"id": "ADD_SNIPPET__c1bb9ffcea9c4d608789e6ad8b49257e",
				"type": "ADD_SNIPPET",
				"codeSnippet": "this.init();",
				"parentId": null,
				"callbackType": null
			}
		]
	}
}