{
	"AS_Form_b2216e7e551c4a3ab1efc7b5833e19f2": {
		"id": "AS_Form_b2216e7e551c4a3ab1efc7b5833e19f2",
		"type": "ACTION_SEQUENCE",
		"params": [
			{
				"datatype": "collection",
				"name": "eventobject"
			}
		],
		"contextObj": {
			"type": "forms",
			"platform": "",
			"KUID": "a3b139158b234fbaa23b712b818d6087"
		},
		"language": "js",
		"actions": [
			{
				"id": "ADD_SNIPPET__g3a98114bafc4ff984ba121d2a743c18",
				"type": "ADD_SNIPPET",
				"codeSnippet": "this.preShow();",
				"parentId": null,
				"callbackType": null
			}
		]
	}
}