{
	"AS_Form_a1f66ff33ff94e1ca6a5cff4db952d02": {
		"id": "AS_Form_a1f66ff33ff94e1ca6a5cff4db952d02",
		"type": "ACTION_SEQUENCE",
		"params": [
			{
				"datatype": "collection",
				"name": "eventobject"
			}
		],
		"contextObj": {
			"type": "forms",
			"platform": "",
			"KUID": "bd407b4f1db84aaf857350c5154838d3"
		},
		"language": "js",
		"actions": [
			{
				"id": "ADD_SNIPPET__e7dfaa3fe9874559ab2c853845e5bfca",
				"type": "ADD_SNIPPET",
				"codeSnippet": "this.init();",
				"parentId": null,
				"callbackType": null
			}
		]
	}
}