{
	"AS_Form_ebca9cba3258447983cbcce924d2974e": {
		"id": "AS_Form_ebca9cba3258447983cbcce924d2974e",
		"type": "ACTION_SEQUENCE",
		"params": [
			{
				"datatype": "collection",
				"name": "eventobject"
			}
		],
		"contextObj": {
			"type": "forms",
			"platform": "",
			"KUID": "b277afc9fda843e7875c976a5e5ed661"
		},
		"language": "js",
		"actions": [
			{
				"id": "INVOKE_FUNCTION___c7922c1170fa4b9fa8e20617f63105ad",
				"type": "INVOKE_FUNCTION",
				"sequenceKUID": "preShow",
				"display": "preShow",
				"inputparams": [],
				"parentId": null,
				"callbackType": null,
				"disabled": null,
				"source": "controller"
			}
		]
	}
}