{
	"AS_Form_e0c2cbd5d6b54ff78f6f8e6c52927ca8": {
		"id": "AS_Form_e0c2cbd5d6b54ff78f6f8e6c52927ca8",
		"type": "ACTION_SEQUENCE",
		"params": [
			{
				"datatype": "collection",
				"name": "eventobject"
			}
		],
		"contextObj": {
			"type": "forms",
			"platform": "",
			"KUID": "e39e5039155e49f5b3d8f51f872846f0"
		},
		"language": "js",
		"actions": [
			{
				"id": "ADD_SNIPPET__c4188b4f326040868e1220d0d89929e4",
				"type": "ADD_SNIPPET",
				"codeSnippet": "this.init();",
				"parentId": null,
				"callbackType": null
			}
		]
	}
}