{
	"AS_Form_f17f3d85b47c44589217da6c0929bc1c": {
		"id": "AS_Form_f17f3d85b47c44589217da6c0929bc1c",
		"type": "ACTION_SEQUENCE",
		"params": [
			{
				"datatype": "collection",
				"name": "eventobject"
			}
		],
		"contextObj": {
			"type": "forms",
			"platform": null,
			"KUID": "h0019be6446841e5bcc300c410a0b868"
		},
		"language": "js",
		"actions": [
			{
				"id": "ADD_SNIPPET_ide_init_fe176bb3e4b64d8bad388508f3bd83e8",
				"type": "ADD_SNIPPET",
				"codeSnippet": "this.init();",
				"callbackType": null
			}
		]
	}
}