{
	"AS_Form_d7bf21f755ec421184b8a5ad78289dde": {
		"id": "AS_Form_d7bf21f755ec421184b8a5ad78289dde",
		"type": "ACTION_SEQUENCE",
		"params": [
			{
				"datatype": "collection",
				"name": "eventobject"
			}
		],
		"contextObj": {
			"type": "forms",
			"platform": "",
			"KUID": "e5d9ba0bd7c64ab8958cbf3939526b16"
		},
		"language": "js",
		"actions": [
			{
				"id": "ADD_SNIPPET_a80ab01abf024b6d90bf9e6e95742ff8",
				"type": "ADD_SNIPPET",
				"codeSnippet": "this.preShow();",
				"parentId": null
			}
		]
	}
}