{
	"AS_Form_ee8f69ff5abb41fd8322048793f5255b": {
		"id": "AS_Form_ee8f69ff5abb41fd8322048793f5255b",
		"type": "ACTION_SEQUENCE",
		"params": [
			{
				"datatype": "collection",
				"name": "eventobject"
			}
		],
		"contextObj": {
			"type": "forms",
			"platform": "",
			"KUID": "d5e7dd08c3a04db68e856076f6f80e02"
		},
		"language": "js",
		"actions": [
			{
				"id": "ADD_SNIPPET__ace961bfc9404ef0ae12809fc308c890",
				"type": "ADD_SNIPPET",
				"codeSnippet": "this.init();",
				"parentId": null,
				"callbackType": null
			}
		]
	}
}