{
	"AS_Form_eb1d22f8b8604332a9cb76a5a242cc05": {
		"id": "AS_Form_eb1d22f8b8604332a9cb76a5a242cc05",
		"type": "ACTION_SEQUENCE",
		"params": [
			{
				"datatype": "collection",
				"name": "eventobject"
			}
		],
		"contextObj": {
			"type": "forms",
			"platform": "",
			"KUID": "c791345d25c24271ad28687aa87ac3c0"
		},
		"language": "js",
		"actions": [
			{
				"id": "ADD_SNIPPET_c6b2ae1222704d1f9afd5ba83dd17eb6",
				"type": "ADD_SNIPPET",
				"codeSnippet": "this.init();",
				"parentId": null,
				"callbackType": null
			}
		]
	}
}