{
	"AS_Form_f39a89d404744aa4adf5759bc4089ce8": {
		"id": "AS_Form_f39a89d404744aa4adf5759bc4089ce8",
		"type": "ACTION_SEQUENCE",
		"params": [
			{
				"datatype": "collection",
				"name": "eventobject"
			}
		],
		"contextObj": {
			"type": "forms",
			"platform": "",
			"KUID": "cbbd9bd64621412a96c975d44fbf157e"
		},
		"language": "js",
		"actions": [
			{
				"id": "ADD_SNIPPET__fd14eacc536d4950803a2221fe14334f",
				"type": "ADD_SNIPPET",
				"codeSnippet": "applicationManager.getPresentationUtility().dismissLoadingScreen();",
				"parentId": null,
				"callbackType": null
			}
		]
	}
}