{
	"AS_Form_ddac5b07857c4349b4663bad7c072efa": {
		"id": "AS_Form_ddac5b07857c4349b4663bad7c072efa",
		"type": "ACTION_SEQUENCE",
		"params": [
			{
				"datatype": "collection",
				"name": "eventobject"
			}
		],
		"contextObj": {
			"type": "forms",
			"platform": "",
			"KUID": "e33988d71009417587c2d8bf335da3a3"
		},
		"language": "js",
		"actions": [
			{
				"id": "ADD_SNIPPET__fb38c247e7494ea296976e8c3795c62e",
				"type": "ADD_SNIPPET",
				"codeSnippet": "this.init();",
				"parentId": null,
				"callbackType": null
			}
		]
	}
}