{
	"AS_Form_aec9b7989e064545b73dd5c67bc0bd84": {
		"id": "AS_Form_aec9b7989e064545b73dd5c67bc0bd84",
		"type": "ACTION_SEQUENCE",
		"params": [
			{
				"datatype": "collection",
				"name": "eventobject"
			}
		],
		"contextObj": {
			"type": "forms",
			"platform": null,
			"KUID": "i8e8f9bd5f114804b554a09ff0e3b7fa"
		},
		"language": "js",
		"actions": [
			{
				"id": "ADD_SNIPPET_ide_init_j71403803b1b4821956f91ca43032496",
				"type": "ADD_SNIPPET",
				"codeSnippet": "this.init();",
				"callbackType": null
			}
		]
	}
}