{
	"AS_Form_iaf110c4c8f94171aed867abd0cd392a": {
		"id": "AS_Form_iaf110c4c8f94171aed867abd0cd392a",
		"type": "ACTION_SEQUENCE",
		"params": [
			{
				"datatype": "collection",
				"name": "eventobject"
			}
		],
		"contextObj": {
			"type": "forms",
			"platform": "",
			"KUID": "j36f9be22c9e43028b180029d1a50251"
		},
		"language": "js",
		"actions": [
			{
				"id": "ADD_SNIPPET__fa68bab271304381a67645dd53669eaf",
				"type": "ADD_SNIPPET",
				"codeSnippet": "this.init();",
				"parentId": null,
				"callbackType": null
			}
		]
	}
}