{
	"AS_Form_ibd701b6204b46f6ba793c79083f0e93": {
		"id": "AS_Form_ibd701b6204b46f6ba793c79083f0e93",
		"type": "ACTION_SEQUENCE",
		"params": [
			{
				"datatype": "collection",
				"name": "eventobject"
			}
		],
		"contextObj": {
			"type": "forms",
			"platform": null,
			"KUID": "ha294807df5a4f40a1f85f13996f4919"
		},
		"language": "js",
		"actions": [
			{
				"id": "ADD_SNIPPET_ide_preShow_c14e17ead2274cef939e16109642e6dc",
				"type": "ADD_SNIPPET",
				"codeSnippet": "this.preShow();"
			}
		]
	}
}