{
	"AS_Form_a380f1a7ac3d4fc5bca017a6ed16a15c": {
		"id": "AS_Form_a380f1a7ac3d4fc5bca017a6ed16a15c",
		"type": "ACTION_SEQUENCE",
		"params": [
			{
				"datatype": "collection",
				"name": "eventobject"
			}
		],
		"contextObj": {
			"type": "forms",
			"platform": null,
			"KUID": "ie3f7c0d05b04674b94c2f57511a9822"
		},
		"language": "js",
		"actions": [
			{
				"id": "ADD_SNIPPET_ide_preShow_e0d6036fa6bf46b0a536c467dbdb27f6",
				"type": "ADD_SNIPPET",
				"codeSnippet": "this.preShow();",
				"callbackType": null
			}
		]
	}
}