{
	"AS_Form_i7dbca78237b4471b0df945cc8437fda": {
		"id": "AS_Form_i7dbca78237b4471b0df945cc8437fda",
		"type": "ACTION_SEQUENCE",
		"params": [
			{
				"datatype": "collection",
				"name": "eventobject"
			}
		],
		"contextObj": {
			"type": "forms",
			"platform": "",
			"KUID": "d8d015c64942463b9113ce89f2ad5a53"
		},
		"language": "js",
		"actions": [
			{
				"id": "ADD_SNIPPET__faac04f03cd34fcfb947d8089ffdb451",
				"type": "ADD_SNIPPET",
				"codeSnippet": "this.init();",
				"parentId": null,
				"callbackType": null
			}
		]
	}
}