{
	"AS_Form_c985c9f46c594e28947724691cd3d512": {
		"id": "AS_Form_c985c9f46c594e28947724691cd3d512",
		"type": "ACTION_SEQUENCE",
		"params": [
			{
				"datatype": "collection",
				"name": "eventobject"
			}
		],
		"contextObj": {
			"type": "forms",
			"platform": "",
			"KUID": "a86d903974224f388fdbb3ea868a01e1"
		},
		"language": "js",
		"actions": [
			{
				"id": "ADD_SNIPPET_cc1ebff48c8b45b5ad04d6df8c0736b6",
				"type": "ADD_SNIPPET",
				"codeSnippet": "this.preShow();",
				"parentId": null
			}
		]
	}
}