{
	"AS_Form_dd71ec169af548c99e8208c990ffe06f": {
		"id": "AS_Form_dd71ec169af548c99e8208c990ffe06f",
		"type": "ACTION_SEQUENCE",
		"params": [
			{
				"datatype": "collection",
				"name": "eventobject"
			}
		],
		"contextObj": {
			"type": "forms",
			"platform": "",
			"KUID": "ae1a926984ff4cd48905f7e0a0102adb"
		},
		"language": "js",
		"actions": [
			{
				"id": "ADD_SNIPPET__j5f651be965b4811a84f0cbf75957906",
				"type": "ADD_SNIPPET",
				"codeSnippet": "this.init();",
				"parentId": null,
				"callbackType": null
			}
		]
	}
}