{
	"AS_Form_ibda741007a14e3298c32cff201f810d": {
		"id": "AS_Form_ibda741007a14e3298c32cff201f810d",
		"type": "ACTION_SEQUENCE",
		"params": [
			{
				"datatype": "collection",
				"name": "eventobject"
			}
		],
		"contextObj": {
			"type": "forms",
			"platform": null,
			"KUID": "i915585c3e4c43598aa9fa285fcdd5c9"
		},
		"language": "js",
		"actions": [
			{
				"id": "ADD_SNIPPET__he46b9ba37194d859af180bfd2b4d7fc",
				"type": "ADD_SNIPPET",
				"codeSnippet": "this.preShow();",
				"parentId": null,
				"callbackType": null
			}
		]
	}
}