{
	"AS_FlexContainer_gf6befb244c84e1d9de3a34c566be762": {
		"id": "AS_FlexContainer_gf6befb244c84e1d9de3a34c566be762",
		"type": "ACTION_SEQUENCE",
		"params": [
			{
				"datatype": "collection",
				"name": "eventobject"
			},
			{
				"datatype": "string",
				"name": "x"
			},
			{
				"datatype": "string",
				"name": "y"
			}
		],
		"contextObj": {
			"type": "forms",
			"platform": "",
			"KUID": "ecf7639a920347fc8ef217708e4ca322"
		},
		"language": "js",
		"actions": [
			{
				"id": "ADD_SNIPPET__b4c5a677660e4c9ea728767defeb2228",
				"type": "ADD_SNIPPET",
				"codeSnippet": "this.adsOnTouchEnd();",
				"parentId": null,
				"callbackType": null
			}
		]
	}
}