{
	"AS_Form_dac44b67e0634f5dad84261b0489b782": {
		"id": "AS_Form_dac44b67e0634f5dad84261b0489b782",
		"type": "ACTION_SEQUENCE",
		"params": [
			{
				"datatype": "collection",
				"name": "eventobject"
			}
		],
		"contextObj": {
			"type": "forms",
			"platform": null,
			"KUID": "j8b70531e08d4e2888ea0430f5c1b080"
		},
		"language": "js",
		"actions": [
			{
				"id": "INVOKE_FUNCTION__ide_preShow_b49fe68a5c984c09ae80101f3a42adc1",
				"type": "INVOKE_FUNCTION",
				"sequenceKUID": "preShow",
				"display": "preShow",
				"inputparams": [],
				"callbackType": null,
				"disabled": null,
				"source": "controller"
			}
		]
	}
}