{
	"AS_Form_eb3d6d7d394142f9a4f971298ab31c39": {
		"id": "AS_Form_eb3d6d7d394142f9a4f971298ab31c39",
		"type": "ACTION_SEQUENCE",
		"params": [
			{
				"datatype": "collection",
				"name": "eventobject"
			}
		],
		"contextObj": {
			"type": "forms",
			"platform": "",
			"KUID": "j4cc52b8ac9449d7bf649948ad4e9866"
		},
		"language": "js",
		"actions": [
			{
				"id": "ADD_SNIPPET_h8f23897f1394d6b96bb1b54386ad60b",
				"type": "ADD_SNIPPET",
				"codeSnippet": "this.preShow();",
				"parentId": null
			}
		]
	}
}