{
	"AS_Form_jc73a65aeb694e3090a6aa0aec26fc63": {
		"id": "AS_Form_jc73a65aeb694e3090a6aa0aec26fc63",
		"type": "ACTION_SEQUENCE",
		"params": [
			{
				"datatype": "collection",
				"name": "eventobject"
			}
		],
		"contextObj": {
			"type": "forms",
			"platform": "",
			"KUID": "je8407d2b9574cada73905d4a92c7a9b"
		},
		"language": "js",
		"actions": []
	}
}