{
	"AS_Form_bf368211a1ed42dda4007a81fa285b1f": {
		"id": "AS_Form_bf368211a1ed42dda4007a81fa285b1f",
		"type": "ACTION_SEQUENCE",
		"params": [
			{
				"datatype": "collection",
				"name": "eventobject"
			}
		],
		"contextObj": {
			"type": "forms",
			"platform": null,
			"KUID": "fd4ec4e85a614e788aa27f17ad94a6c5"
		},
		"language": "js",
		"actions": [
			{
				"id": "ADD_SNIPPET_ide_preShow_c36f8d33780840299b3eb7a45b43ce6b",
				"type": "ADD_SNIPPET",
				"codeSnippet": "this.preShow();",
				"callbackType": null
			}
		]
	}
}