{
	"AS_Form_c400f89ac6f248b1a87373ff91d87bcf": {
		"id": "AS_Form_c400f89ac6f248b1a87373ff91d87bcf",
		"type": "ACTION_SEQUENCE",
		"params": [
			{
				"datatype": "collection",
				"name": "eventobject"
			}
		],
		"contextObj": {
			"type": "forms",
			"platform": null,
			"KUID": "ae065bf84d994098bbd7904cab5ed7a6"
		},
		"language": "js",
		"actions": [
			{
				"id": "ADD_SNIPPET_ide_preShow_d3360d4bc96d42f09ac04c380b6b4517",
				"type": "ADD_SNIPPET",
				"codeSnippet": "this.preShow();",
				"callbackType": null
			}
		]
	}
}