{
	"AS_Form_a48bd4afee044dea9ea833d09ce7c734": {
		"id": "AS_Form_a48bd4afee044dea9ea833d09ce7c734",
		"type": "ACTION_SEQUENCE",
		"params": [
			{
				"datatype": "collection",
				"name": "eventobject"
			}
		],
		"contextObj": {
			"type": "forms",
			"platform": null,
			"KUID": "e5bab7b300804d15b9fb3177c5951345"
		},
		"language": "js",
		"actions": [
			{
				"id": "ADD_SNIPPET_ide_preShow_dcf6c79150614af687ade40ecf3bfa43",
				"type": "ADD_SNIPPET",
				"codeSnippet": "this.preShow();",
				"callbackType": null
			}
		]
	}
}