{
	"AS_FlexContainer_e0bb60057c224c8aa5739d64706e12e7": {
		"id": "AS_FlexContainer_e0bb60057c224c8aa5739d64706e12e7",
		"type": "ACTION_SEQUENCE",
		"params": [
			{
				"datatype": "collection",
				"name": "eventobject"
			}
		],
		"contextObj": {
			"type": "forms",
			"platform": "",
			"KUID": "h65c10a2cabc493c8ac9ef9c703d1486"
		},
		"language": "js",
		"actions": [
			{
				"id": "INVOKE_FUNCTION___ff6b4ec52709461ba1361d85cef795ba",
				"type": "INVOKE_FUNCTION",
				"sequenceKUID": "flxCancelDialPadOnClick",
				"display": "flxCancelDialPadOnClick",
				"inputparams": [],
				"parentId": null,
				"callbackType": null,
				"disabled": null,
				"source": "controller"
			}
		]
	}
}