{
	"AS_Form_f53b79ecc611413bafb4cee89c5a7044": {
		"id": "AS_Form_f53b79ecc611413bafb4cee89c5a7044",
		"type": "ACTION_SEQUENCE",
		"params": [
			{
				"datatype": "collection",
				"name": "eventobject"
			}
		],
		"contextObj": {
			"type": "forms",
			"platform": "",
			"KUID": "a15114bd0e9642f99fe77b6ae30e3dde"
		},
		"language": "js",
		"actions": [
			{
				"id": "ADD_SNIPPET__d590bc8234854444b5acce856962b54d",
				"type": "ADD_SNIPPET",
				"codeSnippet": "this.init();",
				"parentId": null,
				"callbackType": null
			}
		]
	}
}