{
	"AS_Form_h04e58ff2f764f50aeed81dd5c2c0267": {
		"id": "AS_Form_h04e58ff2f764f50aeed81dd5c2c0267",
		"type": "ACTION_SEQUENCE",
		"params": [
			{
				"datatype": "collection",
				"name": "eventobject"
			}
		],
		"contextObj": {
			"type": "forms",
			"platform": "",
			"KUID": "eb12bd04a92a46289e2c9aed128513dc"
		},
		"language": "js",
		"actions": [
			{
				"id": "ADD_SNIPPET_baf1c744f10b4b98b179f69f70a96a81",
				"type": "ADD_SNIPPET",
				"codeSnippet": "this.init();",
				"parentId": null,
				"callbackType": null
			}
		]
	}
}