{
	"AS_Form_c47d9d9303f34bcfb6546755f520e98f": {
		"id": "AS_Form_c47d9d9303f34bcfb6546755f520e98f",
		"type": "ACTION_SEQUENCE",
		"params": [
			{
				"datatype": "collection",
				"name": "eventobject"
			}
		],
		"contextObj": {
			"type": "forms",
			"platform": null,
			"KUID": "fd6efa06d64147e7b8e59cdf145e932d"
		},
		"language": "js",
		"actions": [
			{
				"id": "ADD_SNIPPET_ide_init_f114be2eae264f7398d0979ade25584d",
				"type": "ADD_SNIPPET",
				"codeSnippet": "this.init();",
				"callbackType": null
			}
		]
	}
}