{
	"AS_Form_d1dd2dbf49984316b0eca9d0fb1df3e9": {
		"id": "AS_Form_d1dd2dbf49984316b0eca9d0fb1df3e9",
		"type": "ACTION_SEQUENCE",
		"params": [
			{
				"datatype": "collection",
				"name": "eventobject"
			}
		],
		"contextObj": {
			"type": "forms",
			"platform": null,
			"KUID": "c700ab4ff5834854a9265be3fe8aac59"
		},
		"language": "js",
		"actions": [
			{
				"id": "INVOKE_FUNCTION__ide_preShow_h28a4c59e68c40e2a9b48e4daa0a8baa",
				"type": "INVOKE_FUNCTION",
				"sequenceKUID": "frmPreShow",
				"display": "frmPreShow",
				"inputparams": [],
				"callbackType": null,
				"disabled": null,
				"source": "controller"
			}
		]
	}
}