{
	"AS_Form_bc4ece42950f40639c45614f83e9f6e6": {
		"id": "AS_Form_bc4ece42950f40639c45614f83e9f6e6",
		"type": "ACTION_SEQUENCE",
		"params": [
			{
				"datatype": "collection",
				"name": "eventobject"
			}
		],
		"contextObj": {
			"type": "forms",
			"platform": "",
			"KUID": "ee8d269529174f11b0dd3b8de304b08e"
		},
		"language": "js",
		"actions": [
			{
				"id": "ADD_SNIPPET__i657e7ac1b4042c3a986daa571b4c90d",
				"type": "ADD_SNIPPET",
				"codeSnippet": "this.init();",
				"parentId": null,
				"callbackType": null
			}
		]
	}
}