{
	"AS_Form_ifd6db70de3e4756bc7e9bf564846041": {
		"id": "AS_Form_ifd6db70de3e4756bc7e9bf564846041",
		"type": "ACTION_SEQUENCE",
		"params": [
			{
				"datatype": "collection",
				"name": "eventobject"
			}
		],
		"contextObj": {
			"type": "forms",
			"platform": "",
			"KUID": "fe5ac63bec2f409da54baace771774a4"
		},
		"language": "js",
		"actions": [
			{
				"id": "ADD_SNIPPET__c82f393920f34fb79c6e81ee02e3a832",
				"type": "ADD_SNIPPET",
				"codeSnippet": "this.frmPreShow();",
				"parentId": null,
				"callbackType": null
			}
		]
	}
}