{
	"AS_FlexContainer_g9d389590aa04a62b4fb6ecd956b9d10": {
		"id": "AS_FlexContainer_g9d389590aa04a62b4fb6ecd956b9d10",
		"type": "ACTION_SEQUENCE",
		"params": [
			{
				"datatype": "collection",
				"name": "eventobject"
			}
		],
		"contextObj": {
			"type": "forms",
			"platform": null,
			"KUID": "a3b139158b234fbaa23b712b818d6087"
		},
		"language": "js",
		"actions": [
			{
				"id": "NAVIGATE_TO_FORM___i51248a536074db29e2c15e87c9d9a45",
				"type": "NAVIGATE_TO_FORM",
				"formId": "frmSupport",
				"friendlyName": "frmSupport",
				"formKUID": "c52da8048a9242e98ce7a09cf62abd71",
				"mappings": {},
				"mappingsOrder": [],
				"parentId": "",
				"callbackType": null,
				"enableMappingEditor": true,
				"package": "InformationModule",
				"navigationObj": "{\n    \"_meta_\": {\n        \"eventName\": \"\",\n        \"widgetId\": \"\"\n    }\n}",
				"isCustomInput": false
			}
		]
	}
}