{
	"AS_Form_i009f473282244788f6a6a053e2a415f": {
		"id": "AS_Form_i009f473282244788f6a6a053e2a415f",
		"type": "ACTION_SEQUENCE",
		"params": [
			{
				"datatype": "collection",
				"name": "eventobject"
			}
		],
		"contextObj": {
			"type": "forms",
			"platform": "",
			"KUID": "d7d53f8d53a443048a3b2b18d9105a24"
		},
		"language": "js",
		"actions": [
			{
				"id": "ADD_SNIPPET_c95dfd4931eb418887d73345f0c06677",
				"type": "ADD_SNIPPET",
				"codeSnippet": "this.formPreShow();\n",
				"parentId": null
			}
		]
	}
}