{
	"AS_Form_a9b0b31a00914c35b8215d7747a067e8": {
		"id": "AS_Form_a9b0b31a00914c35b8215d7747a067e8",
		"type": "ACTION_SEQUENCE",
		"params": [
			{
				"datatype": "collection",
				"name": "eventobject"
			}
		],
		"contextObj": {
			"type": "forms",
			"platform": null,
			"KUID": "b55e620312ec449f9f231b79ced92746"
		},
		"language": "js",
		"actions": [
			{
				"id": "ADD_SNIPPET_ide_init_a0bb3e13248045da8ac5adbc8744a3c7",
				"type": "ADD_SNIPPET",
				"codeSnippet": "this.init();",
				"callbackType": null
			}
		]
	}
}