{
	"AS_Form_hfdbb94c08b54a87bc706eb5dfbab962": {
		"id": "AS_Form_hfdbb94c08b54a87bc706eb5dfbab962",
		"type": "ACTION_SEQUENCE",
		"params": [
			{
				"datatype": "collection",
				"name": "eventobject"
			}
		],
		"contextObj": {
			"type": "forms",
			"platform": null,
			"KUID": "baac3536b0a1493f8524cd633a8400d2"
		},
		"language": "js",
		"actions": [
			{
				"id": "INVOKE_FUNCTION__fb2bad59abc84d0eb4d156928f088d22",
				"type": "INVOKE_FUNCTION",
				"sequenceKUID": "init",
				"display": "init",
				"inputparams": [],
				"parentId": null,
				"callbackType": null,
				"disabled": null,
				"source": "controller"
			}
		]
	}
}