{
	"AS_Form_hec78f005bcb4037ac88cda4c04db7d6": {
		"id": "AS_Form_hec78f005bcb4037ac88cda4c04db7d6",
		"type": "ACTION_SEQUENCE",
		"params": [
			{
				"datatype": "collection",
				"name": "eventobject"
			}
		],
		"contextObj": {
			"type": "forms",
			"platform": "",
			"KUID": "d81c2803d82d4387813dd3778ccf7ef5"
		},
		"language": "js",
		"actions": [
			{
				"id": "ADD_SNIPPET__e68089222fd34fe8a1ae3d6bceb30f64",
				"type": "ADD_SNIPPET",
				"codeSnippet": "this.preShow();",
				"parentId": null,
				"callbackType": null
			}
		]
	}
}