{
	"AS_Form_eaec904005e84074b374b7e0c6a4341b": {
		"id": "AS_Form_eaec904005e84074b374b7e0c6a4341b",
		"type": "ACTION_SEQUENCE",
		"params": [
			{
				"datatype": "collection",
				"name": "eventobject"
			}
		],
		"contextObj": {
			"type": "forms",
			"platform": "",
			"KUID": "fc0d4a98a2f3481f80e864f5e47a9f9d"
		},
		"language": "js",
		"actions": [
			{
				"id": "ADD_SNIPPET__da648cf7ff1f4e5783287708262c1e22",
				"type": "ADD_SNIPPET",
				"codeSnippet": "this.init();",
				"parentId": null,
				"callbackType": null
			}
		]
	}
}