{
	"AS_Form_e759029b699349b680ce42acc6798565": {
		"id": "AS_Form_e759029b699349b680ce42acc6798565",
		"type": "ACTION_SEQUENCE",
		"params": [
			{
				"datatype": "collection",
				"name": "eventobject"
			}
		],
		"contextObj": {
			"type": "forms",
			"platform": null,
			"KUID": "ce3f8f7bf85b4cc4b31fdfefa62d3e9a"
		},
		"language": "js",
		"actions": [
			{
				"id": "ADD_SNIPPET_ide_preShow_b9a4baeff66e46d0b76b753b3422469b",
				"type": "ADD_SNIPPET",
				"codeSnippet": "this.preShow();",
				"callbackType": null
			}
		]
	}
}