{
	"AS_Form_a74ff7045db247d1a941bde631a5ec70": {
		"id": "AS_Form_a74ff7045db247d1a941bde631a5ec70",
		"type": "ACTION_SEQUENCE",
		"params": [
			{
				"datatype": "collection",
				"name": "eventobject"
			}
		],
		"contextObj": {
			"type": "forms",
			"platform": "",
			"KUID": "ic0658423272421c9413a75b3eb62572"
		},
		"language": "js",
		"actions": [
			{
				"id": "ADD_SNIPPET__h319361ada214a6ab9264060711a7c55",
				"type": "ADD_SNIPPET",
				"codeSnippet": "this.preShow();",
				"parentId": null,
				"callbackType": null
			}
		]
	}
}