{
	"AS_Form_abbfb036032c4475b5bd6a437c231e31": {
		"id": "AS_Form_abbfb036032c4475b5bd6a437c231e31",
		"type": "ACTION_SEQUENCE",
		"params": [
			{
				"datatype": "collection",
				"name": "eventobject"
			}
		],
		"contextObj": {
			"type": "forms",
			"platform": "",
			"KUID": "de521e156be6466781ac10d44390b952"
		},
		"language": "js",
		"actions": [
			{
				"id": "ADD_SNIPPET_d745321c96934acdb9b37588144d4c91",
				"type": "ADD_SNIPPET",
				"codeSnippet": "this.postShow();",
				"parentId": null
			}
		]
	}
}