{
	"AS_Form_c3c6c3e79f1d48e7b9d52821bd27922d": {
		"id": "AS_Form_c3c6c3e79f1d48e7b9d52821bd27922d",
		"type": "ACTION_SEQUENCE",
		"params": [
			{
				"datatype": "collection",
				"name": "eventobject"
			}
		],
		"contextObj": {
			"type": "forms",
			"platform": "",
			"KUID": "fd1f83561c154c6aac3e5f0bf00e93da"
		},
		"language": "js",
		"actions": [
			{
				"id": "INVOKE_FUNCTION__c488f34c61124d0898dabd081c1f503a",
				"type": "INVOKE_FUNCTION",
				"sequenceKUID": "postShow",
				"display": "postShow",
				"inputparams": [],
				"parentId": null,
				"callbackType": null,
				"disabled": null,
				"source": "controller"
			}
		]
	}
}