{
	"AS_Form_ad5cee80de4742f080073e63d24dbbed": {
		"id": "AS_Form_ad5cee80de4742f080073e63d24dbbed",
		"type": "ACTION_SEQUENCE",
		"params": [
			{
				"datatype": "collection",
				"name": "eventobject"
			}
		],
		"contextObj": {
			"type": "forms",
			"platform": "",
			"KUID": "c1c2984a83da4813adbf533f9fbcd5ed"
		},
		"language": "js",
		"actions": [
			{
				"id": "ADD_SNIPPET__gfa93e49ff9948188efb45df13f3cd23",
				"type": "ADD_SNIPPET",
				"codeSnippet": "this.init();",
				"parentId": null,
				"callbackType": null
			}
		]
	}
}