{
	"AS_Form_e1209acb117a47c98e4844bc23b27736": {
		"id": "AS_Form_e1209acb117a47c98e4844bc23b27736",
		"type": "ACTION_SEQUENCE",
		"params": [
			{
				"datatype": "collection",
				"name": "eventobject"
			}
		],
		"contextObj": {
			"type": "forms",
			"platform": "",
			"KUID": "c3c6bb6a507e42f9955dbbc8d3483644"
		},
		"language": "js",
		"actions": [
			{
				"id": "ADD_SNIPPET__f8e0fc3d17484c0d83bd71c4f0529dce",
				"type": "ADD_SNIPPET",
				"codeSnippet": "this.preShow();",
				"parentId": null,
				"callbackType": null
			}
		]
	}
}