{
	"AS_FlexContainer_e0bc99d1d27441c2b6966a1951462ea1": {
		"id": "AS_FlexContainer_e0bc99d1d27441c2b6966a1951462ea1",
		"type": "ACTION_SEQUENCE",
		"params": [
			{
				"datatype": "collection",
				"name": "eventobject"
			}
		],
		"contextObj": {
			"type": "forms",
			"platform": "",
			"KUID": "fe21355b9d46462a8db787248e2ccf00"
		},
		"language": "js",
		"actions": [
			{
				"id": "ADD_SNIPPET__i1496110b9204b47952009c99e52cfed",
				"type": "ADD_SNIPPET",
				"codeSnippet": "var authMod = kony.mvc.MDAApplication.getSharedInstance().getModuleManager().getModule(\"AuthModule\"); \nauthMod.presentationController.commonFunctionForNavigation(\"frmLogin\");",
				"parentId": null,
				"callbackType": null
			}
		]
	}
}