{
	"AS_Form_j0eec1b69af04151ab4241048fa5ec74": {
		"id": "AS_Form_j0eec1b69af04151ab4241048fa5ec74",
		"type": "ACTION_SEQUENCE",
		"params": [
			{
				"datatype": "collection",
				"name": "eventobject"
			}
		],
		"contextObj": {
			"type": "forms",
			"platform": null,
			"KUID": "iba7623e51e94ab8ad173c737ceb2244"
		},
		"language": "js",
		"actions": [
			{
				"id": "ADD_SNIPPET_ide_init_ha561228261140c9a6112e5028ad3939",
				"type": "ADD_SNIPPET",
				"codeSnippet": "this.init();"
			}
		]
	}
}