{
	"AS_Form_d6fb54b84c734729847210d74f860322": {
		"id": "AS_Form_d6fb54b84c734729847210d74f860322",
		"type": "ACTION_SEQUENCE",
		"params": [
			{
				"datatype": "collection",
				"name": "eventobject"
			}
		],
		"contextObj": {
			"type": "forms",
			"platform": "",
			"KUID": "e76be61897e5490ab5c1f52a617a7ee6"
		},
		"language": "js",
		"actions": [
			{
				"id": "INVOKE_FUNCTION___ac881dd56e6d4cfbb8b03b88c80521ef",
				"type": "INVOKE_FUNCTION",
				"sequenceKUID": "registerActions",
				"display": "registerActions",
				"inputparams": [],
				"parentId": null,
				"callbackType": null,
				"disabled": null,
				"source": "controller"
			}
		]
	}
}