{
	"AS_Form_ea97840198984c9a86ad5b4ee3e52fb6": {
		"id": "AS_Form_ea97840198984c9a86ad5b4ee3e52fb6",
		"type": "ACTION_SEQUENCE",
		"params": [
			{
				"datatype": "collection",
				"name": "eventobject"
			}
		],
		"contextObj": {
			"type": "forms",
			"platform": null,
			"KUID": "e1102f42ac1c427bb12219dac3d8ca73"
		},
		"language": "js",
		"actions": [
			{
				"id": "ADD_SNIPPET_ide_preShow_f10b6400b89c4f43b61b09ce58fe5b45",
				"type": "ADD_SNIPPET",
				"codeSnippet": "this.preShow();",
				"callbackType": null
			}
		]
	}
}