{
	"AS_Form_ef820b9f1a1a4792be3c7b5c99a155b8": {
		"id": "AS_Form_ef820b9f1a1a4792be3c7b5c99a155b8",
		"type": "ACTION_SEQUENCE",
		"params": [
			{
				"datatype": "collection",
				"name": "eventobject"
			}
		],
		"contextObj": {
			"type": "forms",
			"platform": null,
			"KUID": "b5cc05db315b42edb0ea54c16c850028"
		},
		"language": "js",
		"actions": [
			{
				"id": "ADD_SNIPPET_ide_preShow_c0a209b042d74a54b0069d0c5d07ec9b",
				"type": "ADD_SNIPPET",
				"codeSnippet": "this.preShow();",
				"callbackType": null
			}
		]
	}
}