{
	"AS_Form_fb2e14a17ae642f5adf6533df7e4f5ab": {
		"id": "AS_Form_fb2e14a17ae642f5adf6533df7e4f5ab",
		"type": "ACTION_SEQUENCE",
		"params": [
			{
				"datatype": "collection",
				"name": "eventobject"
			}
		],
		"contextObj": {
			"type": "forms",
			"platform": null,
			"KUID": "c1c2984a83da4813adbf533f9fbcd5ed"
		},
		"language": "js",
		"actions": [
			{
				"id": "INVOKE_FUNCTION__ide_preShow_i390365ef9bb44bea8e34a80d05a2dc9",
				"type": "INVOKE_FUNCTION",
				"sequenceKUID": "frmPreshow",
				"display": "frmPreshow",
				"inputparams": [],
				"callbackType": null,
				"disabled": null,
				"source": "controller"
			}
		]
	}
}