{
	"AS_Form_h7b35f64326141c1aa767618f4db23d4": {
		"id": "AS_Form_h7b35f64326141c1aa767618f4db23d4",
		"type": "ACTION_SEQUENCE",
		"params": [
			{
				"datatype": "collection",
				"name": "eventobject"
			}
		],
		"contextObj": {
			"type": "forms",
			"platform": null,
			"KUID": "e4bdb835717340abb4cbb29412235918"
		},
		"language": "js",
		"actions": [
			{
				"id": "ADD_SNIPPET_ide_preShow_gc5e0be8004f4af39cc78d98465058d3",
				"type": "ADD_SNIPPET",
				"codeSnippet": "this.preshow();",
				"callbackType": null
			}
		]
	}
}