{
	"AS_Form_c0f1c4e78e804902a4933ea5a1bf78a4": {
		"id": "AS_Form_c0f1c4e78e804902a4933ea5a1bf78a4",
		"type": "ACTION_SEQUENCE",
		"params": [
			{
				"datatype": "collection",
				"name": "eventobject"
			}
		],
		"contextObj": {
			"type": "forms",
			"platform": null,
			"KUID": "cad3d4899959494695b469ab34511e4b"
		},
		"language": "js",
		"actions": [
			{
				"id": "ADD_SNIPPET_a2ff57cd47af4c84ad8b87d31b1f0cff",
				"type": "ADD_SNIPPET",
				"codeSnippet": "this.init();",
				"parentId": null,
				"callbackType": null
			}
		]
	}
}