{
	"AS_Form_h8316f28875a4e72ad379898ab26ff51": {
		"id": "AS_Form_h8316f28875a4e72ad379898ab26ff51",
		"type": "ACTION_SEQUENCE",
		"params": [
			{
				"datatype": "collection",
				"name": "eventobject"
			}
		],
		"contextObj": {
			"type": "forms",
			"platform": "",
			"KUID": "d48d401b09e64af0aa1b2f490eca9622"
		},
		"language": "js",
		"actions": [
			{
				"id": "ADD_SNIPPET_e879cfb2f84b46c5afb4cccae121f7e9",
				"type": "ADD_SNIPPET",
				"codeSnippet": "this.preShow();",
				"parentId": null
			}
		]
	}
}