{
	"AS_Form_e622ed9f48a44f8db528c7c156fb5ac0": {
		"id": "AS_Form_e622ed9f48a44f8db528c7c156fb5ac0",
		"type": "ACTION_SEQUENCE",
		"params": [
			{
				"datatype": "collection",
				"name": "eventobject"
			}
		],
		"contextObj": {
			"type": "forms",
			"platform": null,
			"KUID": "ia1a2f716ce24132a52e758ad3f25840"
		},
		"language": "js",
		"actions": [
			{
				"id": "ADD_SNIPPET_dd30f9a8a7e54f35bb3c5c13c2fcc6ee",
				"type": "ADD_SNIPPET",
				"codeSnippet": "this.postShow();",
				"parentId": null
			}
		]
	}
}