{
	"AS_Form_dd8034bd5f1b40a1ab07d834cad0cd86": {
		"id": "AS_Form_dd8034bd5f1b40a1ab07d834cad0cd86",
		"type": "ACTION_SEQUENCE",
		"params": [
			{
				"datatype": "collection",
				"name": "eventobject"
			}
		],
		"contextObj": {
			"type": "forms",
			"platform": "",
			"KUID": "ee8d269529174f11b0dd3b8de304b08e"
		},
		"language": "js",
		"actions": [
			{
				"id": "ADD_SNIPPET__f8d77ff516114101a4f011e91524771c",
				"type": "ADD_SNIPPET",
				"codeSnippet": "this.preshow();",
				"parentId": null,
				"callbackType": null
			}
		]
	}
}