{
	"AS_Form_c9294c1e0a0243fb9f426fd2dd224ffe": {
		"id": "AS_Form_c9294c1e0a0243fb9f426fd2dd224ffe",
		"type": "ACTION_SEQUENCE",
		"params": [
			{
				"datatype": "collection",
				"name": "eventobject"
			}
		],
		"contextObj": {
			"type": "forms",
			"platform": "",
			"KUID": "bc28aafe36dd4298af158ca8ae2b9a91"
		},
		"language": "js",
		"actions": [
			{
				"id": "ADD_SNIPPET__j821e6cab4ff40f8b57dfce1c94cdfce",
				"type": "ADD_SNIPPET",
				"codeSnippet": "this.pfmPreshow();",
				"parentId": null,
				"callbackType": null
			}
		]
	}
}