{
	"AS_Form_g952f3a171db431bb76a892178198f5e": {
		"id": "AS_Form_g952f3a171db431bb76a892178198f5e",
		"type": "ACTION_SEQUENCE",
		"params": [
			{
				"datatype": "collection",
				"name": "eventobject"
			}
		],
		"contextObj": {
			"type": "forms",
			"platform": "",
			"KUID": "jd067bda53eb426b988bfc6cfb59019e"
		},
		"language": "js",
		"actions": [
			{
				"id": "ADD_SNIPPET__a65b69de851547c081f412baa4aa2264",
				"type": "ADD_SNIPPET",
				"codeSnippet": "this.init();",
				"parentId": null
			}
		]
	}
}