{
	"AS_FlexContainer_g196dcb706dd418ebf7935b2c03944bb": {
		"id": "AS_FlexContainer_g196dcb706dd418ebf7935b2c03944bb",
		"type": "ACTION_SEQUENCE",
		"params": [
			{
				"datatype": "collection",
				"name": "eventobject"
			},
			{
				"datatype": "string",
				"name": "x"
			},
			{
				"datatype": "string",
				"name": "y"
			}
		],
		"contextObj": {
			"type": "forms",
			"platform": "",
			"KUID": "ecf7639a920347fc8ef217708e4ca322"
		},
		"language": "js",
		"actions": [
			{
				"id": "ADD_SNIPPET__ff19d3d2f91b43979797d8f8ddc6905b",
				"type": "ADD_SNIPPET",
				"codeSnippet": "this.adsOnTouchMove(y);",
				"parentId": null,
				"callbackType": null
			}
		]
	}
}