{
	"AS_Form_jfa1f12894184086a522b0cdae0a724d": {
		"id": "AS_Form_jfa1f12894184086a522b0cdae0a724d",
		"type": "ACTION_SEQUENCE",
		"params": [
			{
				"datatype": "collection",
				"name": "eventobject"
			}
		],
		"contextObj": {
			"type": "forms",
			"platform": null,
			"KUID": "j8f838f789b7449bbda30da5791502a0"
		},
		"language": "js",
		"actions": [
			{
				"id": "INVOKE_FUNCTION___i4158d65feb040d785a1ecd255f678d1",
				"type": "INVOKE_FUNCTION",
				"sequenceKUID": "preShow",
				"display": "preShow",
				"inputparams": [],
				"parentId": null,
				"callbackType": null,
				"disabled": null,
				"source": "controller"
			}
		]
	}
}