{
	"AS_Form_a7b9e2a2cf28488c956a7e2057649ee3": {
		"id": "AS_Form_a7b9e2a2cf28488c956a7e2057649ee3",
		"type": "ACTION_SEQUENCE",
		"params": [
			{
				"datatype": "collection",
				"name": "eventobject"
			}
		],
		"contextObj": {
			"type": "forms",
			"platform": null,
			"KUID": "i915585c3e4c43598aa9fa285fcdd5c9"
		},
		"language": "js",
		"actions": [
			{
				"id": "ADD_SNIPPET_ide_init_bd684bd76379468b91463e1b7b4d5956",
				"type": "ADD_SNIPPET",
				"codeSnippet": "// this.init();\nkony.print(\"in init\");",
				"callbackType": null
			}
		]
	}
}