{
	"AS_Form_b0727c194dc84b448fb15be168c44ab8": {
		"id": "AS_Form_b0727c194dc84b448fb15be168c44ab8",
		"type": "ACTION_SEQUENCE",
		"params": [
			{
				"datatype": "collection",
				"name": "eventobject"
			}
		],
		"contextObj": {
			"type": "forms",
			"platform": null,
			"KUID": "aa41c85b03db4a13854914cd74790227"
		},
		"language": "js",
		"actions": [
			{
				"id": "ADD_SNIPPET_ide_preShow_aab27294862f48ccbcc2fc3fe5ad642b",
				"type": "ADD_SNIPPET",
				"codeSnippet": "this.preShow();"
			}
		]
	}
}