{
	"AS_FlexContainer_g7a4ac510d724900962ab8a7a740cd6d": {
		"id": "AS_FlexContainer_g7a4ac510d724900962ab8a7a740cd6d",
		"type": "ACTION_SEQUENCE",
		"params": [
			{
				"datatype": "collection",
				"name": "eventobject"
			}
		],
		"contextObj": {
			"type": "forms",
			"platform": "",
			"KUID": "bd407b4f1db84aaf857350c5154838d3"
		},
		"language": "js",
		"actions": [
			{
				"id": "ADD_SNIPPET__be5df19b382c494cb23d66c2633c18d9",
				"type": "ADD_SNIPPET",
				"codeSnippet": "var authMod = kony.mvc.MDAApplication.getSharedInstance().getModuleManager().getModule(\"AuthModule\"); \nauthMod.presentationController.commonFunctionForNavigation(\"frmForgotMain\");",
				"parentId": null,
				"callbackType": null
			}
		]
	}
}