{
	"AS_Form_eaa5f4b079814653b1787b96a846be74": {
		"id": "AS_Form_eaa5f4b079814653b1787b96a846be74",
		"type": "ACTION_SEQUENCE",
		"params": [
			{
				"datatype": "collection",
				"name": "eventobject"
			}
		],
		"contextObj": {
			"type": "forms",
			"platform": "",
			"KUID": "ab220b819e2f4f0dbfc2dec81767b53a"
		},
		"language": "js",
		"actions": [
			{
				"id": "ADD_SNIPPET_b028e0713b7f483f9d6ae53afa6d1f04",
				"type": "ADD_SNIPPET",
				"codeSnippet": "this.preShow();",
				"parentId": null
			}
		]
	}
}