{
	"AS_Form_a211998b0a294ddfa0a69b293cc3a8e9": {
		"id": "AS_Form_a211998b0a294ddfa0a69b293cc3a8e9",
		"type": "ACTION_SEQUENCE",
		"params": [
			{
				"datatype": "collection",
				"name": "eventobject"
			}
		],
		"contextObj": {
			"type": "forms",
			"platform": "",
			"KUID": "d4eab7216cdd43ec984e16ae02728d06"
		},
		"language": "js",
		"actions": [
			{
				"id": "ADD_SNIPPET_ic2a088c61e24d7391e50ec4fb8faab7",
				"type": "ADD_SNIPPET",
				"codeSnippet": "this.postShow();",
				"parentId": null
			}
		]
	}
}