{
	"AS_Form_c695bf8f9fc14e80a558d578e57595f4": {
		"id": "AS_Form_c695bf8f9fc14e80a558d578e57595f4",
		"type": "ACTION_SEQUENCE",
		"params": [
			{
				"datatype": "collection",
				"name": "eventobject"
			}
		],
		"contextObj": {
			"type": "forms",
			"platform": "",
			"KUID": "ja21e59dd04d4c7d89e97fd382f6bb5c"
		},
		"language": "js",
		"actions": [
			{
				"id": "ADD_SNIPPET__i2905396a253497292babf16f97bd593",
				"type": "ADD_SNIPPET",
				"codeSnippet": "this.init();",
				"parentId": null,
				"callbackType": null
			}
		]
	}
}