{
	"AS_FlexContainer_ed1b91f1547342c8a57be97d53875db4": {
		"id": "AS_FlexContainer_ed1b91f1547342c8a57be97d53875db4",
		"type": "ACTION_SEQUENCE",
		"params": [
			{
				"datatype": "collection",
				"name": "eventobject"
			}
		],
		"contextObj": {
			"type": "forms",
			"platform": "",
			"KUID": "h6b48350e1fa430ab574ecf490ee5a50"
		},
		"language": "js",
		"actions": [
			{
				"id": "NAVIGATE_TO_FORM___j1265e29ce4d41fe8f60a53be21d173b",
				"type": "NAVIGATE_TO_FORM",
				"formKUID": "g0cd4d74ae9e49a1bcbf83377e523294",
				"mappings": {},
				"mappingsOrder": [],
				"parentId": "",
				"callbackType": null,
				"enableMappingEditor": true,
				"package": "",
				"navigationObj": "{\n    \"_meta_\": {\n        \"eventName\": \"\",\n        \"widgetId\": \"\"\n    }\n}",
				"isCustomInput": false
			}
		]
	}
}