{
	"AS_Form_i652cf248a1d4322987af14d41c1d290": {
		"id": "AS_Form_i652cf248a1d4322987af14d41c1d290",
		"type": "ACTION_SEQUENCE",
		"params": [
			{
				"datatype": "collection",
				"name": "eventobject"
			}
		],
		"contextObj": {
			"type": "forms",
			"platform": "",
			"KUID": "ab979898e7ce471ca8192d80554d9f95"
		},
		"language": "js",
		"actions": [
			{
				"id": "ADD_SNIPPET_ed38a4623eee40499557863284659e60",
				"type": "ADD_SNIPPET",
				"codeSnippet": "this.preShow();",
				"parentId": null,
				"callbackType": null
			}
		]
	}
}