{
	"AS_Form_jef8886af76f4bf09cfd02330accc0e1": {
		"id": "AS_Form_jef8886af76f4bf09cfd02330accc0e1",
		"type": "ACTION_SEQUENCE",
		"params": [
			{
				"datatype": "collection",
				"name": "eventobject"
			}
		],
		"contextObj": {
			"type": "forms",
			"platform": "",
			"KUID": "bc28aafe36dd4298af158ca8ae2b9a91"
		},
		"language": "js",
		"actions": [
			{
				"id": "ADD_SNIPPET__a64934ab28644eb8a6b6fd91f7559830",
				"type": "ADD_SNIPPET",
				"codeSnippet": "this.init();",
				"parentId": null,
				"callbackType": null
			}
		]
	}
}