{
	"AS_Form_f543b1684e5d430fbee513e54acf894c": {
		"id": "AS_Form_f543b1684e5d430fbee513e54acf894c",
		"type": "ACTION_SEQUENCE",
		"params": [
			{
				"datatype": "collection",
				"name": "eventobject"
			}
		],
		"contextObj": {
			"type": "forms",
			"platform": "",
			"KUID": "d2a148b143104f5da1ba5bc7c8381342"
		},
		"language": "js",
		"actions": [
			{
				"id": "ADD_SNIPPET__e5f0bfdcbce94c34a07bcf69a5b05177",
				"type": "ADD_SNIPPET",
				"codeSnippet": "this.frmMessagesDetailsPreShow();",
				"parentId": null,
				"callbackType": null
			}
		]
	}
}