{
	"AS_Form_a07adac141a847ce91c9617cffb85f00": {
		"id": "AS_Form_a07adac141a847ce91c9617cffb85f00",
		"type": "ACTION_SEQUENCE",
		"params": [
			{
				"datatype": "collection",
				"name": "eventobject"
			}
		],
		"contextObj": {
			"type": "forms",
			"platform": "",
			"KUID": "be231eb5fa924d70b903d2eb1fa92a0b"
		},
		"language": "js",
		"actions": [
			{
				"id": "ADD_SNIPPET_d43be709ec6242b3b8e0c4823a788dc8",
				"type": "ADD_SNIPPET",
				"codeSnippet": "this.init();",
				"parentId": null
			}
		]
	}
}