{
	"AS_FlexContainer_f392eaa783094c9386e76dffed39a3e1": {
		"id": "AS_FlexContainer_f392eaa783094c9386e76dffed39a3e1",
		"type": "ACTION_SEQUENCE",
		"params": [
			{
				"datatype": "collection",
				"name": "eventobject"
			}
		],
		"contextObj": {
			"type": "forms",
			"platform": "",
			"KUID": "fc40338e7ea64c55bfbabdaf9eacd83a"
		},
		"language": "js",
		"actions": [
			{
				"id": "ADD_SNIPPET__d4ee6e8084cd418eb09412bf69bfc980",
				"type": "ADD_SNIPPET",
				"codeSnippet": "var authMod = kony.mvc.MDAApplication.getSharedInstance().getModuleManager().getModule(\"AuthModule\"); \nauthMod.presentationController.commonFunctionForNavigation(\"frmForgotEnterSSN\");",
				"parentId": null,
				"callbackType": null
			}
		]
	}
}