{
	"AS_Form_i0b75f9e426f421d82b8a81fa81340bd": {
		"id": "AS_Form_i0b75f9e426f421d82b8a81fa81340bd",
		"type": "ACTION_SEQUENCE",
		"params": [
			{
				"datatype": "collection",
				"name": "eventobject"
			}
		],
		"contextObj": {
			"type": "forms",
			"platform": null,
			"KUID": "cec4f0b2aea2420a937739e98e009103"
		},
		"language": "js",
		"actions": [
			{
				"id": "ADD_SNIPPET_ide_preShow_ded44634ad79492f986739cb2c6ccabb",
				"type": "ADD_SNIPPET",
				"codeSnippet": "this.frmEnrollLAstNamePreShow();",
				"callbackType": null
			}
		]
	}
}