{
	"AS_Form_i45c235790e4415891fdf27fac6b653e": {
		"id": "AS_Form_i45c235790e4415891fdf27fac6b653e",
		"type": "ACTION_SEQUENCE",
		"params": [
			{
				"datatype": "collection",
				"name": "eventobject"
			}
		],
		"contextObj": {
			"type": "forms",
			"platform": "",
			"KUID": "f3d941f0c60342c18a733d365499db2f"
		},
		"language": "js",
		"actions": [
			{
				"id": "ADD_SNIPPET_ca00c5ba01614117a368ebb5bba5e508",
				"type": "ADD_SNIPPET",
				"codeSnippet": "this.init();",
				"parentId": null,
				"callbackType": null
			}
		]
	}
}