{
	"AS_Form_b2a9ce92c0a64ad3b6c01200dd9a8fbf": {
		"id": "AS_Form_b2a9ce92c0a64ad3b6c01200dd9a8fbf",
		"type": "ACTION_SEQUENCE",
		"params": [
			{
				"datatype": "collection",
				"name": "eventobject"
			}
		],
		"contextObj": {
			"type": "forms",
			"platform": "",
			"KUID": "jd067bda53eb426b988bfc6cfb59019e"
		},
		"language": "js",
		"actions": [
			{
				"id": "ADD_SNIPPET__c7147e3cc89341dfb146b7edaf49bdbb",
				"type": "ADD_SNIPPET",
				"codeSnippet": "this.registerActions();",
				"parentId": null
			}
		]
	}
}