{
	"AS_FlexContainer_eea0cf9717db4f99bb141bb87da0837a": {
		"id": "AS_FlexContainer_eea0cf9717db4f99bb141bb87da0837a",
		"type": "ACTION_SEQUENCE",
		"params": [
			{
				"datatype": "collection",
				"name": "eventobject"
			}
		],
		"contextObj": {
			"type": "forms",
			"platform": "",
			"KUID": "d6bbfc6576234fb18946d0534b188032"
		},
		"language": "js",
		"actions": [
			{
				"id": "ADD_SNIPPET__ee511b9fe494437d96bad73c3d7a43f9",
				"type": "ADD_SNIPPET",
				"codeSnippet": "this.imgbackAction();",
				"parentId": null,
				"callbackType": null
			}
		]
	}
}