{
	"AS_Form_i17f1e53c7e443b7a845d129b822d4a5": {
		"id": "AS_Form_i17f1e53c7e443b7a845d129b822d4a5",
		"type": "ACTION_SEQUENCE",
		"params": [
			{
				"datatype": "collection",
				"name": "eventobject"
			}
		],
		"contextObj": {
			"type": "forms",
			"platform": "",
			"KUID": "a8cb8607c0b04eb2964b681d2c56b8bb"
		},
		"language": "js",
		"actions": [
			{
				"id": "ADD_SNIPPET_j24f79ea712e4b51bcbc86593f0d856a",
				"type": "ADD_SNIPPET",
				"codeSnippet": "this.preShow();",
				"parentId": null
			}
		]
	}
}