{
	"AS_Form_aa0406a9a8e74e9fba64d76ad1849863": {
		"id": "AS_Form_aa0406a9a8e74e9fba64d76ad1849863",
		"type": "ACTION_SEQUENCE",
		"params": [
			{
				"datatype": "collection",
				"name": "eventobject"
			}
		],
		"contextObj": {
			"type": "forms",
			"platform": "",
			"KUID": "f92ece2013e2467d8d90c3168453b78e"
		},
		"language": "js",
		"actions": [
			{
				"id": "ADD_SNIPPET__cbf4bec682f94b01aff16533ce41146a",
				"type": "ADD_SNIPPET",
				"codeSnippet": "this.frmPreShow();",
				"parentId": null,
				"callbackType": null
			}
		]
	}
}