{
	"AS_Form_b4e16fc0ef03447883388ab9e1155220": {
		"id": "AS_Form_b4e16fc0ef03447883388ab9e1155220",
		"type": "ACTION_SEQUENCE",
		"params": [
			{
				"datatype": "collection",
				"name": "eventobject"
			}
		],
		"contextObj": {
			"type": "forms",
			"platform": "",
			"KUID": "ed1576bf6aa9467d991fda31c015ebc7"
		},
		"language": "js",
		"actions": [
			{
				"id": "ADD_SNIPPET__jc4170ab2f014c9a8e8fb4dabaad6f71",
				"type": "ADD_SNIPPET",
				"codeSnippet": "this.init();",
				"parentId": null,
				"callbackType": null
			}
		]
	}
}