{
	"AS_Form_i10e00f65807405384ceb3ceef65bb4a": {
		"id": "AS_Form_i10e00f65807405384ceb3ceef65bb4a",
		"type": "ACTION_SEQUENCE",
		"params": [
			{
				"datatype": "collection",
				"name": "eventobject"
			}
		],
		"contextObj": {
			"type": "forms",
			"platform": "",
			"KUID": "dd3dd673296b4f01a8bf212db6da9294"
		},
		"language": "js",
		"actions": [
			{
				"id": "ADD_SNIPPET__if36096c976d449280636650f7d528b4",
				"type": "ADD_SNIPPET",
				"codeSnippet": "this.pfmSelectTimePostShow();",
				"parentId": null,
				"callbackType": null
			}
		]
	}
}