{
	"AS_Form_d2308dd2bb5c4bbaa2ffcf917c9302ac": {
		"id": "AS_Form_d2308dd2bb5c4bbaa2ffcf917c9302ac",
		"type": "ACTION_SEQUENCE",
		"params": [
			{
				"datatype": "collection",
				"name": "eventobject"
			}
		],
		"contextObj": {
			"type": "forms",
			"platform": null,
			"KUID": "hc9636dd02714965b87a06d3b040c6ec"
		},
		"language": "js",
		"actions": [
			{
				"id": "ADD_SNIPPET_ide_init_h2808e88d07f41b68361c10c1d284190",
				"type": "ADD_SNIPPET",
				"codeSnippet": "this.init();",
				"callbackType": null
			}
		]
	}
}