{
	"AS_Form_e9e41545142d482799ccee0a66eb1de3": {
		"id": "AS_Form_e9e41545142d482799ccee0a66eb1de3",
		"type": "ACTION_SEQUENCE",
		"params": [
			{
				"datatype": "collection",
				"name": "eventobject"
			}
		],
		"contextObj": {
			"type": "forms",
			"platform": "",
			"KUID": "f448e7d8782548d8aa29741e7a5a7d5e"
		},
		"language": "js",
		"actions": [
			{
				"id": "ADD_SNIPPET__b17b3b8cad44428c9f34dcd0d8e25415",
				"type": "ADD_SNIPPET",
				"codeSnippet": "this.init();",
				"parentId": null,
				"callbackType": null
			}
		]
	}
}