{
	"AS_Form_cbea953f9e90436c894e6b25de7c4ea6": {
		"id": "AS_Form_cbea953f9e90436c894e6b25de7c4ea6",
		"type": "ACTION_SEQUENCE",
		"params": [
			{
				"datatype": "collection",
				"name": "eventobject"
			}
		],
		"contextObj": {
			"type": "forms",
			"platform": null,
			"KUID": "e80e4215a60a416997b9c740fa532534"
		},
		"language": "js",
		"actions": [
			{
				"id": "ADD_SNIPPET__aa2de5b743b040deb130072c7924d895",
				"type": "ADD_SNIPPET",
				"codeSnippet": "this.frmMessagesCategoryPreShow();",
				"parentId": null,
				"callbackType": null
			}
		]
	}
}