{
	"AS_Form_j571d78723ca42fe9c27641c0eb12321": {
		"id": "AS_Form_j571d78723ca42fe9c27641c0eb12321",
		"type": "ACTION_SEQUENCE",
		"params": [
			{
				"datatype": "collection",
				"name": "eventobject"
			}
		],
		"contextObj": {
			"type": "forms",
			"platform": null,
			"KUID": "ibaead2d4efb4aee80b1e6365a91333c"
		},
		"language": "js",
		"actions": [
			{
				"id": "ADD_SNIPPET_ide_preShow_abac546a5c244c098494592783862f56",
				"type": "ADD_SNIPPET",
				"codeSnippet": "this.preShow();",
				"callbackType": null
			}
		]
	}
}