{
	"AS_Form_ab96ab15230843e5ab459642f9fd8769": {
		"id": "AS_Form_ab96ab15230843e5ab459642f9fd8769",
		"type": "ACTION_SEQUENCE",
		"params": [
			{
				"datatype": "collection",
				"name": "eventobject"
			}
		],
		"contextObj": {
			"type": "forms",
			"platform": null,
			"KUID": "g0224f14e1f3413c91da4f270104ca6c"
		},
		"language": "js",
		"actions": [
			{
				"id": "ADD_SNIPPET_c10f42fe41e34dd79417414e424f4f52",
				"type": "ADD_SNIPPET",
				"codeSnippet": "this.preShow();",
				"parentId": null
			}
		]
	}
}