{
	"AS_Form_afb26ff07e25422684ab4bc751ac41e4": {
		"id": "AS_Form_afb26ff07e25422684ab4bc751ac41e4",
		"type": "ACTION_SEQUENCE",
		"params": [
			{
				"datatype": "collection",
				"name": "eventobject"
			}
		],
		"contextObj": {
			"type": "forms",
			"platform": "",
			"KUID": "a66a13b337f3485e829879dac1640d69"
		},
		"language": "js",
		"actions": [
			{
				"id": "ADD_SNIPPET_d8aca579516b490f9aa57b71e63c63d2",
				"type": "ADD_SNIPPET",
				"codeSnippet": "this.init();",
				"parentId": null
			}
		]
	}
}