{
	"AS_Image_ed83e0d4701a4a0da43a34f213a23622": {
		"id": "AS_Image_ed83e0d4701a4a0da43a34f213a23622",
		"type": "ACTION_SEQUENCE",
		"params": [
			{
				"datatype": "collection",
				"name": "eventobject"
			},
			{
				"datatype": "string",
				"name": "x"
			},
			{
				"datatype": "string",
				"name": "y"
			}
		],
		"contextObj": {
			"type": "forms",
			"platform": null,
			"KUID": "af809a63989946cea079277475373101"
		},
		"language": "js",
		"actions": [
			{
				"id": "ADD_SNIPPET_ide_onTouchEnd_fd953229fb134776a1f24d997a065f95",
				"type": "ADD_SNIPPET",
				"codeSnippet": "this.clearKeypadChar()",
				"callbackType": null
			}
		]
	}
}