{
	"AS_Image_de5d7a94e25b45cbbd9f0c8358dc71c3": {
		"id": "AS_Image_de5d7a94e25b45cbbd9f0c8358dc71c3",
		"type": "ACTION_SEQUENCE",
		"params": [
			{
				"datatype": "collection",
				"name": "eventobject"
			},
			{
				"datatype": "string",
				"name": "x"
			},
			{
				"datatype": "string",
				"name": "y"
			}
		],
		"contextObj": {
			"type": "forms",
			"platform": null,
			"KUID": "bbfb9ffa68744e769c6a9b44c7028f87"
		},
		"language": "js",
		"actions": [
			{
				"id": "ADD_SNIPPET_ide_onTouchEnd_bcb9b8a54c98470db865df9d9c98192a",
				"type": "ADD_SNIPPET",
				"codeSnippet": "this.clearKeypadChar();",
				"callbackType": null
			}
		]
	}
}