{
	"AS_Image_e443a90d3dd34f87befdceae07810d6e": {
		"id": "AS_Image_e443a90d3dd34f87befdceae07810d6e",
		"type": "ACTION_SEQUENCE",
		"params": [
			{
				"datatype": "collection",
				"name": "eventobject"
			},
			{
				"datatype": "string",
				"name": "x"
			},
			{
				"datatype": "string",
				"name": "y"
			}
		],
		"contextObj": {
			"type": "forms",
			"platform": null,
			"KUID": "bb574d49d1204bd796c9045bdf9a36dc"
		},
		"language": "js",
		"actions": [
			{
				"id": "ADD_SNIPPET_ide_onTouchEnd_ad2095eeb38141b7aca4c6a113b1ac8b",
				"type": "ADD_SNIPPET",
				"codeSnippet": "this.clearKeypadChar();",
				"callbackType": null
			}
		]
	}
}