{
	"AS_Image_a8f48394ba054bb8b845eb89a9217536": {
		"id": "AS_Image_a8f48394ba054bb8b845eb89a9217536",
		"type": "ACTION_SEQUENCE",
		"params": [
			{
				"datatype": "collection",
				"name": "eventobject"
			},
			{
				"datatype": "string",
				"name": "imagesrc"
			},
			{
				"datatype": "boolean",
				"name": "issuccess"
			}
		],
		"contextObj": {
			"type": "forms",
			"platform": null,
			"KUID": "b96909bc2f0f47fca6cc1b2e2e49f311"
		},
		"language": "js",
		"actions": [
			{
				"id": "ADD_SNIPPET_ide_onDownloadComplete_f7561735a0d945b8849ba98965d269ed",
				"type": "ADD_SNIPPET",
				"codeSnippet": "this.onAdDownloadComplete(issuccess,1);"
			}
		]
	}
}