{
	"AS_Image_abf10fcff57f4c6da212d36355e3d3f2": {
		"id": "AS_Image_abf10fcff57f4c6da212d36355e3d3f2",
		"type": "ACTION_SEQUENCE",
		"params": [
			{
				"datatype": "collection",
				"name": "eventobject"
			},
			{
				"datatype": "string",
				"name": "x"
			},
			{
				"datatype": "string",
				"name": "y"
			}
		],
		"contextObj": {
			"type": "forms",
			"platform": "",
			"KUID": "eb884581c9154390af4af6572938d7c4"
		},
		"language": "js",
		"actions": [
			{
				"id": "ADD_SNIPPET__f91d573f2115465baa63c02c31bd543f",
				"type": "ADD_SNIPPET",
				"codeSnippet": "this.clearKeypadChar();",
				"parentId": null,
				"callbackType": null
			}
		]
	}
}