{
	"AS_Image_e33519b41adc4680a70af88b0821bbed": {
		"id": "AS_Image_e33519b41adc4680a70af88b0821bbed",
		"type": "ACTION_SEQUENCE",
		"params": [
			{
				"datatype": "collection",
				"name": "eventobject"
			},
			{
				"datatype": "string",
				"name": "x"
			},
			{
				"datatype": "string",
				"name": "y"
			}
		],
		"contextObj": {
			"type": "forms",
			"platform": null,
			"KUID": "i478aeb81aa84e7ba1d760efdbb6b815"
		},
		"language": "js",
		"actions": [
			{
				"id": "ADD_SNIPPET_ide_onTouchEnd_b25d73f4e806406f9a29a313d2e1820d",
				"type": "ADD_SNIPPET",
				"codeSnippet": "this.clearKeypadChar();",
				"callbackType": null
			}
		]
	}
}