{
	"AS_Image_e79994a483214a7e96edd635ff3f9c1c": {
		"id": "AS_Image_e79994a483214a7e96edd635ff3f9c1c",
		"type": "ACTION_SEQUENCE",
		"params": [
			{
				"datatype": "collection",
				"name": "eventobject"
			},
			{
				"datatype": "string",
				"name": "x"
			},
			{
				"datatype": "string",
				"name": "y"
			}
		],
		"contextObj": {
			"type": "forms",
			"platform": null,
			"KUID": "d138f3641ddc4aa786ef3d6fb529af3a"
		},
		"language": "js",
		"actions": [
			{
				"id": "ADD_SNIPPET_ide_onTouchEnd_jc756407c646471bb0c603446f60c985",
				"type": "ADD_SNIPPET",
				"codeSnippet": "this.clearKeypadChar();",
				"callbackType": null
			}
		]
	}
}