{
	"AS_Image_a207f67304a7478b8cbe7c7ac0970e7f": {
		"id": "AS_Image_a207f67304a7478b8cbe7c7ac0970e7f",
		"type": "ACTION_SEQUENCE",
		"params": [
			{
				"datatype": "collection",
				"name": "eventobject"
			},
			{
				"datatype": "string",
				"name": "imagesrc"
			},
			{
				"datatype": "boolean",
				"name": "issuccess"
			}
		],
		"language": "js",
		"actions": [
			{
				"id": "ADD_SNIPPET_ide_onDownloadComplete_ee709a9978a14c42976366666ea2fd00",
				"type": "ADD_SNIPPET",
				"codeSnippet": "this.onAdDownloadComplete(issuccess,3);",
				"callbackType": null
			}
		]
	}
}