{
	"AS_Image_ea110cbc96c54c5d9f42350f545fb874": {
		"id": "AS_Image_ea110cbc96c54c5d9f42350f545fb874",
		"type": "ACTION_SEQUENCE",
		"params": [
			{
				"datatype": "collection",
				"name": "eventobject"
			},
			{
				"datatype": "string",
				"name": "x"
			},
			{
				"datatype": "string",
				"name": "y"
			}
		],
		"contextObj": {
			"type": "forms",
			"platform": "",
			"KUID": "je8407d2b9574cada73905d4a92c7a9b"
		},
		"language": "js",
		"actions": [
			{
				"id": "ADD_SNIPPET__h82f57f4218a45dfa333a00155508567",
				"type": "ADD_SNIPPET",
				"codeSnippet": "this.clearKeypadChar()",
				"parentId": null,
				"callbackType": null
			}
		]
	}
}