{
	"AS_Segment_ea836b182f51448890317598d38cfdea": {
		"id": "AS_Segment_ea836b182f51448890317598d38cfdea",
		"type": "ACTION_SEQUENCE",
		"params": [
			{
				"datatype": "collection",
				"name": "eventobject"
			},
			{
				"datatype": "number",
				"name": "sectionNumber"
			},
			{
				"datatype": "number",
				"name": "rowNumber"
			}
		],
		"language": "js",
		"actions": [
			{
				"id": "ADD_SNIPPET_ide_onRowClick_a9778cd066ee430bbf13589d06adaf88",
				"type": "ADD_SNIPPET",
				"codeSnippet": "this.segToAccountOnRowClick();",
				"callbackType": null
			}
		]
	}
}