{
	"AS_Segment_f9493e768f104f30a25b2ea81144978c": {
		"id": "AS_Segment_f9493e768f104f30a25b2ea81144978c",
		"type": "ACTION_SEQUENCE",
		"params": [
			{
				"datatype": "collection",
				"name": "eventobject"
			},
			{
				"datatype": "number",
				"name": "sectionNumber"
			},
			{
				"datatype": "number",
				"name": "rowNumber"
			}
		],
		"contextObj": {
			"type": "forms",
			"platform": "",
			"KUID": "j5f6b4ea75f3470dad1a09f2afcf0c09"
		},
		"language": "js",
		"actions": [
			{
				"id": "ADD_SNIPPET__h1b82000d5894a5093b3f690b1113ce7",
				"type": "ADD_SNIPPET",
				"codeSnippet": "this.accountSegmentOnClick();",
				"parentId": null,
				"callbackType": null
			}
		]
	}
}