{
	"AS_TextField_f3e36892f7384e2c8767c30ebeb45184": {
		"id": "AS_TextField_f3e36892f7384e2c8767c30ebeb45184",
		"type": "ACTION_SEQUENCE",
		"params": [
			{
				"datatype": "collection",
				"name": "eventobject"
			},
			{
				"datatype": "string",
				"name": "changedtext"
			}
		],
		"language": "js",
		"actions": [
			{
				"id": "INVOKE_FUNCTION__ide_onTextChange_d6e6ce62913b4d18a3b0212705aca4b4",
				"type": "INVOKE_FUNCTION",
				"sequenceKUID": "resetSkinsOfUsernameAndPwd",
				"display": "resetSkinsOfUsernameAndPwd",
				"inputparams": [],
				"callbackType": null,
				"disabled": null,
				"source": "controller"
			}
		]
	}
}