{
	"AS_TextField_ja995d5e0ecf4b26bdf5f19c92300394": {
		"id": "AS_TextField_ja995d5e0ecf4b26bdf5f19c92300394",
		"type": "ACTION_SEQUENCE",
		"params": [
			{
				"datatype": "collection",
				"name": "eventobject"
			},
			{
				"datatype": "string",
				"name": "changedtext"
			}
		],
		"language": "js",
		"actions": [
			{
				"id": "INVOKE_FUNCTION__ide_onTextChange_g3a5577837d549fbb922f2b1b7dbb60c",
				"type": "INVOKE_FUNCTION",
				"sequenceKUID": "resetSkinsOfUsernameAndPwd",
				"display": "resetSkinsOfUsernameAndPwd",
				"inputparams": [],
				"callbackType": null,
				"disabled": null,
				"source": "controller"
			}
		]
	}
}