{
	"AS_UWI_c84d1f445dcc400980f1e7b38e3ae368": {
		"id": "AS_UWI_c84d1f445dcc400980f1e7b38e3ae368",
		"type": "ACTION_SEQUENCE",
		"params": [],
		"contextObj": {
			"type": "forms",
			"platform": "",
			"KUID": "h65c10a2cabc493c8ac9ef9c703d1486"
		},
		"language": "js",
		"actions": [
			{
				"id": "INVOKE_FUNCTION__ib4aa11262134d84b9630e785ff29b7a",
				"type": "INVOKE_FUNCTION",
				"sequenceKUID": "tbxOnTouchStart",
				"display": "tbxOnTouchStart",
				"inputparams": [],
				"parentId": null,
				"callbackType": null,
				"disabled": null,
				"source": "controller"
			}
		]
	}
}