{
    "@class": "com.kony.gen.viz.model.component.KVizButton",
    "DNDConfig": null,
    "__parentReadjusting__": false,
    "_height_": {
        "type": "string",
        "value": "40dp"
    },
    "_left_": {
        "type": "string",
        "value": "20dp"
    },
    "_margin_": [
        6,
        6,
        6,
        6
    ],
    "_padding_": [
        0,
        0,
        0,
        0
    ],
    "_right_": {
        "type": "string",
        "value": "20dp"
    },
    "_skin_": "s28fe7cf63d341cf90a4f363d1a7844b",
    "_text_": "VIEW ALL TRANSACTIONS",
    "accessibilityconfig": {
        "a11yLabel": "VIEW ALL TRANSACTIONS"
    },
    "canUpdateUI": true,
    "centery": {
        "type": "string",
        "value": "40%"
    },
    "containerweight": 100,
    "contentalignment": 5,
    "disabledSkins": {},
    "displaytext": true,
    "focusskin": "s9486fc492f843acb7a48c25d3ebc1dd",
    "id": "btnViewAllTransactions",
    "info": null,
    "iphone": {
        "psp": {
            "showProgressIndicator": false
        }
    },
    "iscustomlayout": false,
    "isvisible": true,
    "kuid": "fb6a0f9f62c4405c9dc516a4e3fdc3d3",
    "name": "kony.ui.Button",
    "parent": "flxViewAllTransactions",
    "pf": "frmUnifiedDashboard",
    "retaincontentalignment": false,
    "retainflexpositionproperties": false,
    "texti18n": "kony.mb.Dashboard.ViewAllTransactions",
    "wType": "Button",
    "zindex": 1
}