{
    "DNDConfig": null,
    "__parentReadjusting__": false,
    "_height_": {
        "type": "string",
        "value": "60dp"
    },
    "_left_": {
        "type": "string",
        "value": "0dp"
    },
    "_margin_": [
        0,
        0,
        0,
        0
    ],
    "_orientation_": 6,
    "_padding_": [
        0,
        0,
        0,
        0
    ],
    "_percent_": true,
    "_skin_": "s966eaf1ea1441148b4828270a782f8b",
    "_top_": {
        "type": "string",
        "value": "6dp"
    },
    "_width_": {
        "type": "string",
        "value": "100%"
    },
    "allboxes": [],
    "autogrowmode": 0,
    "canUpdateUI": true,
    "children": [
        "CopyimgShowAllAccounts0cc6ab2ea3a1f40",
        "CopylblTypeName0gaccfb30c75749",
        "CopylblTypeName0i9fcf6c7873e48",
        "CopyflxProgressHeader0b80354ed11504c",
        "CopyflxDummy0gb0bb5628e2b44",
        "CopyflxProgressBackgroundHeader0fdc505b4da5b47"
    ],
    "clipbounds": true,
    "containerweight": 100,
    "enablescrolling": true,
    "id": "CopyflxAccounts0a5d478bc87fc4c",
    "info": null,
    "iscustomlayout": false,
    "isvisible": false,
    "kuid": "j83b89c203af4fabb91a63740c328b64",
    "layouttype": 2,
    "name": "kony.ui.FlexContainer",
    "parent": "flxSpendingBudget",
    "pf": "frmUnifiedDashboard",
    "retaincontentalignment": false,
    "retainflexpositionproperties": false,
    "snapgridsize": 10,
    "snaptogrid": true,
    "wType": "FlexContainer",
    "widgetalignment": 1,
    "zindex": 2
}