{
    "DNDConfig": null,
    "__parentReadjusting__": false,
    "_height_": {
        "type": "string",
        "value": "149dp"
    },
    "_left_": {
        "type": "string",
        "value": "10%"
    },
    "_margin_": [
        0,
        0,
        0,
        0
    ],
    "_orientation_": 6,
    "_padding_": [
        0,
        0,
        0,
        0
    ],
    "_percent_": true,
    "_skin_": "s8b4b39c3eb64e2d91e776167ebbcf7b",
    "_top_": {
        "type": "string",
        "value": "6%"
    },
    "_width_": {
        "type": "string",
        "value": "90%"
    },
    "allboxes": [],
    "autogrowmode": 0,
    "canUpdateUI": true,
    "children": [
        "flxApprovalTitleContainer",
        "flxApprovalSeparator",
        "flxApprovalTransactionContainer",
        "flxApprovalACHTransactionContainer",
        "flxApprovalACHFileContainer"
    ],
    "clipbounds": true,
    "containerweight": 100,
    "enablescrolling": true,
    "id": "flxApprovalInnerContainer",
    "info": null,
    "iscustomlayout": false,
    "isvisible": true,
    "kuid": "dc73360e40a6427b8c234961c62be5ec",
    "layouttype": 4,
    "name": "kony.ui.FlexContainer",
    "parent": "flxApprovalContainer",
    "pf": "frmUnifiedDashboard",
    "retaincontentalignment": false,
    "retainflexpositionproperties": false,
    "retainflowhorizontalalignment": false,
    "snapgridsize": 10,
    "snaptogrid": true,
    "wType": "FlexContainer",
    "widgetalignment": 1
}