{
    "DNDConfig": null,
    "__parentReadjusting__": false,
    "_height_": {
        "type": "string",
        "value": "100%"
    },
    "_left_": {
        "type": "string",
        "value": "0dp"
    },
    "_margin_": [
        0,
        0,
        0,
        0
    ],
    "_orientation_": 6,
    "_padding_": [
        0,
        0,
        0,
        0
    ],
    "_percent_": true,
    "_skin_": "s966eaf1ea1441148b4828270a782f8b",
    "_top_": {
        "type": "string",
        "value": "0dp"
    },
    "_width_": {
        "type": "string",
        "value": "100%"
    },
    "allboxes": [],
    "autogrowmode": 0,
    "canUpdateUI": true,
    "children": [
        "flxBroswerChart",
        "flxDonutSegment",
        "lblTotalSpendingValue",
        "lblTotalSpending",
        "flxMonthlySpendingContainer",
        "flxSegGraph"
    ],
    "clipbounds": true,
    "containerweight": 100,
    "enablescrolling": true,
    "id": "flxGraph",
    "info": null,
    "iscustomlayout": false,
    "isvisible": true,
    "kuid": "j80da321f1b044a79ff0b683296d340d",
    "layouttype": 2,
    "minheight": {
        "type": "string",
        "value": "50dp"
    },
    "name": "kony.ui.FlexContainer",
    "parent": "flxDashboardHeader",
    "pf": "frmUnifiedDashboard",
    "retaincontentalignment": false,
    "retainflexpositionproperties": false,
    "snapgridsize": 10,
    "snaptogrid": true,
    "wType": "FlexContainer",
    "widgetalignment": 1,
    "zindex": 1
}