{
    "@class": "com.kony.gen.viz.model.component.KVizTextBox2",
    "DNDConfig": null,
    "__parentReadjusting__": false,
    "_height_": {
        "type": "string",
        "value": "40dp"
    },
    "_left_": {
        "type": "string",
        "value": "20dp"
    },
    "_margin_": [
        0,
        0,
        0,
        0
    ],
    "_padding_": [
        10,
        3,
        1,
        3
    ],
    "_placeholder_": "Enter here",
    "_right_": {
        "type": "string",
        "value": "20dp"
    },
    "_skin_": "sdc14f85f7984e13bb5ed2544fe80fe6",
    "_text_": "",
    "_top_": {
        "type": "string",
        "value": "0dp"
    },
    "accessibilityconfig": {
        "a11yLabel": "Enter here"
    },
    "android": {
        "padding": [
            10,
            3,
            1,
            3
        ],
        "paddingInPixel": true
    },
    "autocapitalize": "none",
    "autocomplete": false,
    "autocorrect": false,
    "autofilter": false,
    "canUpdateUI": true,
    "centerx": {
        "type": "string",
        "value": "50.00%"
    },
    "containerheight": "",
    "containerheightmode": 1,
    "containerweight": 100,
    "contentalignment": 4,
    "focusskin": "s2688670ed0f4789900f7368aeda469c",
    "id": "txtState",
    "info": null,
    "iphone": {
        "padding": [
            10,
            3,
            1,
            3
        ],
        "paddingInPixel": true
    },
    "isvisible": true,
    "keyboardtype": "A",
    "kuid": "a11b8bae72ce4a648065e07550c6e6a4",
    "mode": "A",
    "name": "kony.ui.TextBox2",
    "paddinginpixel": false,
    "parent": "flxResidentialAddressState",
    "pf": "frmBillPayEditAddress",
    "placeholderi18n": "kony.mb.cardManage.enterHere",
    "placeholderskin": "s1bcf8b78d1649a9a56fc498f08472f8",
    "securetextentry": false,
    "textinputmode": "A",
    "tooltip": "",
    "viewtype": "default",
    "wType": "TextField",
    "zindex": 3
}