{
    "@class": "com.kony.gen.viz.model.component.KVizButton",
    "DNDConfig": null,
    "__parentReadjusting__": false,
    "_bottom_": {
        "type": "string",
        "value": "20dp"
    },
    "_height_": {
        "type": "string",
        "value": "40dp"
    },
    "_left_": {
        "type": "string",
        "value": "20dp"
    },
    "_margin_": [
        6,
        6,
        6,
        6
    ],
    "_padding_": [
        0,
        0,
        0,
        0
    ],
    "_right_": {
        "type": "string",
        "value": "20dp"
    },
    "_skin_": "s3a6af80e8464e51af22769363bf659d",
    "_text_": "CONTINUE",
    "accessibilityconfig": {
        "a11yHint": "Tap Continue to move to the next screen",
        "a11yLabel": "Continue"
    },
    "canUpdateUI": true,
    "centerx": {
        "type": "string",
        "value": "50%"
    },
    "containerweight": 100,
    "contentalignment": 5,
    "disabledSkins": {},
    "displaytext": true,
    "focusskin": "sd85a0f475ff4b3b9f0a5e4b82f68213",
    "id": "btnContinue",
    "ide_onClick": "AS_Button_c1c43725c0a94e619fd05968713eca0e",
    "info": null,
    "isvisible": true,
    "kuid": "geffa9ebe4a842578fd265722ca37558",
    "name": "kony.ui.Button",
    "parent": "flxMainContainer",
    "pf": "frmTransfersEndDateEurope",
    "texti18n": "kony.mb.common.continue",
    "wType": "Button",
    "zindex": 1,
    "iphone": {
        "psp": {
            "showProgressIndicator": false
        }
    }
}