{
    "@class": "com.kony.gen.viz.model.component.KVizButton",
    "DNDConfig": null,
    "__parentReadjusting__": false,
    "_height_": {
        "type": "string",
        "value": "40dp"
    },
    "_margin_": [
        6,
        6,
        6,
        6
    ],
    "_padding_": [
        0,
        0,
        0,
        0
    ],
    "_skin_": "s351bc3bfa714000b7578f144b0d81ba",
    "_text_": "",
    "_top_": {
        "type": "string",
        "value": "10dp"
    },
    "_width_": {
        "type": "string",
        "value": "85%"
    },
    "accessibilityconfig": {
        "a11yLabel": "Number of Recurrences"
    },
    "canUpdateUI": true,
    "centerx": {
        "type": "string",
        "value": "50%"
    },
    "containerweight": 100,
    "contentalignment": 5,
    "displaytext": true,
    "focusskin": "s31beeb1acb948a9ab9cfb48513042ca",
    "id": "btnNumberOfOccurances",
    "info": null,
    "iscustomlayout": false,
    "isvisible": false,
    "kuid": "ie18421ca4124795b7d55c948b1e5eee",
    "name": "kony.ui.Button",
    "parent": "flxSetFrequency",
    "pf": "frmTransfersDurationEurope",
    "retaincontentalignment": false,
    "retainflexpositionproperties": false,
    "texti18n": "kony.mb.frequency.NumberofRecurrence",
    "wType": "Button",
    "zindex": 1,
    "iphone": {
        "psp": {
            "showProgressIndicator": false
        }
    }
}