{
    "@class": "com.kony.gen.viz.model.component.KVizButton",
    "DNDConfig": null,
    "__parentReadjusting__": false,
    "_bottom_": {
        "type": "string",
        "value": "0%"
    },
    "_height_": {
        "type": "string",
        "value": "40dp"
    },
    "_left_": {
        "type": "string",
        "value": "20dp"
    },
    "_margin_": [
        6,
        6,
        6,
        6
    ],
    "_padding_": [
        0,
        0,
        0,
        0
    ],
    "_right_": {
        "type": "string",
        "value": "20dp"
    },
    "_skin_": "s30d39ca8c744d388569c1d52d0824b6",
    "_text_": "Done",
    "accessibilityconfig": {
        "a11yHint": "Tap Log In to sign into your account",
        "a11yLabel": "Log In"
    },
    "canUpdateUI": true,
    "containerweight": 100,
    "contentalignment": 5,
    "disabledSkins": {},
    "displaytext": true,
    "focusskin": "s77f5e4693994923b02a151cae68403f",
    "id": "btnDone",
    "info": null,
    "iphone": {
        "psp": {
            "showProgressIndicator": false
        }
    },
    "isvisible": true,
    "kuid": "cd1df9e4c55a4565aab8a58e9192c02f",
    "name": "kony.ui.Button",
    "parent": "flxProfileActivatedSuccessful",
    "pf": "userwidgetmodel",
    "wType": "Button",
    "zindex": 1
}