{
    "@class": "com.kony.gen.viz.model.component.KVizImage2",
    "DNDConfig": null,
    "__parentReadjusting__": false,
    "_base64_": null,
    "_height_": {
        "type": "string",
        "value": "15dp"
    },
    "_left_": {
        "type": "string",
        "value": "30dp"
    },
    "_margin_": [
        0,
        0,
        0,
        0
    ],
    "_padding_": [
        0,
        0,
        0,
        0
    ],
    "_skin_": "s679032976ec4441b527ec218f32745a",
    "_src_": "search.png",
    "_width_": {
        "type": "string",
        "value": "15dp"
    },
    "canUpdateUI": true,
    "centery": {
        "type": "string",
        "value": "50%"
    },
    "containerweight": 100,
    "context": {
        "channel": "mobile",
        "formID": "frmBillPaySelectPayee",
        "platform": "iphone",
        "templateType": "forms",
        "topLevelBox": null
    },
    "id": "imgSearchIcon",
    "imagescalemode": 1,
    "info": null,
    "isvisible": true,
    "kuid": "cebb4206194f4c6cac13977f81437dcf",
    "name": "kony.ui.Image2",
    "parent": "flxSearchMain",
    "pf": "frmBillPaySelectPayee",
    "srcType": 1,
    "wType": "Image",
    "widgetalignment": 5,
    "zindex": 10
}