{
    "DNDConfig": null,
    "__parentReadjusting__": false,
    "_bottom_": {
        "type": "string",
        "value": "70dp"
    },
    "_left_": {
        "type": "string",
        "value": "0dp"
    },
    "_margin_": [
        0,
        0,
        0,
        0
    ],
    "_orientation_": 6,
    "_padding_": [
        0,
        0,
        0,
        0
    ],
    "_percent_": true,
    "_skin_": "s53828e949cc498895b6e4dd89030bf4",
    "_top_": {
        "type": "string",
        "value": "0dp"
    },
    "_width_": {
        "type": "string",
        "value": "100%"
    },
    "allboxes": [],
    "android": {
        "top": {
            "type": "string",
            "value": "56dp"
        }
    },
    "canUpdateUI": true,
    "children": [
        "flxSearch",
        "flxMainContainer"
    ],
    "clipbounds": true,
    "containerweight": 100,
    "enablescrolling": true,
    "id": "flxAdvanceSearchWrapper",
    "info": null,
    "iphone": {},
    "iscustomlayout": false,
    "isvisible": true,
    "kuid": "fa751ba779d44db49401912cb0d74b8e",
    "layouttype": 2,
    "name": "kony.ui.FlexContainer",
    "parent": "frmAdvanceSearch",
    "pf": "frmAdvanceSearch",
    "retaincontentalignment": false,
    "retainflexpositionproperties": false,
    "snapgridsize": 10,
    "snaptogrid": true,
    "vizProps": {},
    "wType": "FlexContainer",
    "widgetalignment": 1,
    "zindex": 3
}