{
    "@class": "com.kony.gen.viz.model.component.KVizTextBox2",
    "DNDConfig": null,
    "__parentReadjusting__": false,
    "_bottom_": {
        "type": "string",
        "value": "20dp"
    },
    "_height_": {
        "type": "string",
        "value": "45dp"
    },
    "_left_": {
        "type": "string",
        "value": "20dp"
    },
    "_margin_": [
        0,
        0,
        0,
        0
    ],
    "_padding_": [
        3,
        0,
        0,
        0
    ],
    "_placeholder_": "",
    "_skin_": "s29931801e854e65bd09be3501012367",
    "_text_": "",
    "_width_": {
        "type": "string",
        "value": "120dp"
    },
    "autocapitalize": "none",
    "autocomplete": false,
    "autocorrect": false,
    "autofilter": false,
    "canUpdateUI": true,
    "containerheight": "",
    "containerheightmode": 1,
    "containerweight": 100,
    "contentalignment": 4,
    "focusskin": "s2688670ed0f4789900f7368aeda469c",
    "id": "txtCheckNumbersFrom",
    "info": null,
    "iphone": {
        "psp": {
            "keyboardActionLabel": 4
        }
    },
    "iscustomlayout": false,
    "isvisible": true,
    "keyboardstyle": "A",
    "keyboardtype": "A",
    "kuid": "f96269f0c17b4998abf2cff4ef62ed60",
    "mode": "N",
    "name": "kony.ui.TextBox2",
    "parent": "flxCheckNumbers",
    "pf": "frmAdvanceSearch",
    "placeholderskin": "s3eaacc3cd154862b4935c9ce116df1c",
    "retaincontentalignment": false,
    "retainflexpositionproperties": false,
    "securetextentry": false,
    "textinputmode": "N",
    "tooltip": "",
    "viewtype": "default",
    "wType": "TextField",
    "zindex": 1
}