{
	"AS_Button_aab4c1f60cdf4ad39a6df32d079d21a3": {
		"id": "AS_Button_aab4c1f60cdf4ad39a6df32d079d21a3",
		"type": "ACTION_SEQUENCE",
		"params": [
			{
				"datatype": "collection",
				"name": "eventobject"
			}
		],
		"contextObj": {
			"type": "forms",
			"platform": "",
			"KUID": "i5252f49c72e4592a74e9d389f119243"
		},
		"language": "js",
		"actions": [
			{
				"id": "ADD_SNIPPET__be70de6b72244407b06bcb7f27554f19",
				"type": "ADD_SNIPPET",
				"codeSnippet": "this.setKeypadChar('8');",
				"parentId": null,
				"callbackType": null
			}
		]
	}
}