{
	"AS_BarButtonItem_ddc61d7b81e04cc6bbed8a12934613ce": {
		"id": "AS_BarButtonItem_ddc61d7b81e04cc6bbed8a12934613ce",
		"type": "ACTION_SEQUENCE",
		"params": [
			{
				"datatype": "collection",
				"name": "eventobject"
			}
		],
		"language": "js",
		"actions": [
			{
				"id": "INVOKE_FUNCTION___hb291d6e1b27401798f253084ed09408",
				"type": "INVOKE_FUNCTION",
				"sequenceKUID": "handlerCancelActions",
				"display": "handlerCancelActions",
				"inputparams": [],
				"parentId": null,
				"callbackType": null,
				"disabled": null,
				"source": "controller"
			}
		]
	}
}