{
	"AS_Button_e80fec35de1b42ba930cbf7f2631c5e6": {
		"id": "AS_Button_e80fec35de1b42ba930cbf7f2631c5e6",
		"type": "ACTION_SEQUENCE",
		"params": [
			{
				"datatype": "collection",
				"name": "eventobject"
			}
		],
		"contextObj": {
			"type": "forms",
			"platform": "",
			"KUID": "a415730c104e4f87be2b0243e68e6c48"
		},
		"language": "js",
		"actions": [
			{
				"id": "ADD_SNIPPET__gffb5cd2784b40b090931a259e475d30",
				"type": "ADD_SNIPPET",
				"codeSnippet": "this.setKeypadChar(7);",
				"parentId": null,
				"callbackType": null
			}
		]
	}
}