{
	"AS_BarButtonItem_f3024d678a104b6ead27c66625ab8a77": {
		"id": "AS_BarButtonItem_f3024d678a104b6ead27c66625ab8a77",
		"type": "ACTION_SEQUENCE",
		"params": [
			{
				"datatype": "collection",
				"name": "eventobject"
			}
		],
		"language": "js",
		"actions": []
	}
}