{
	"AS_Button_de75af7bcc8e477d8076bf09e23d9d76": {
		"id": "AS_Button_de75af7bcc8e477d8076bf09e23d9d76",
		"type": "ACTION_SEQUENCE",
		"params": [
			{
				"datatype": "collection",
				"name": "eventobject"
			}
		],
		"contextObj": {
			"type": "forms",
			"platform": "",
			"KUID": "id8b3a26b155402796513a09b156fd38"
		},
		"language": "js",
		"actions": [
			{
				"id": "ADD_SNIPPET__eb7d4b5f577b44a48f331f81f5f92552",
				"type": "ADD_SNIPPET",
				"codeSnippet": "this.setKeypadChar('8');",
				"parentId": null,
				"callbackType": null
			}
		]
	}
}