{
	"AS_BarButtonItem_a69bcf0efa6645f58e3eee859b9667b0": {
		"id": "AS_BarButtonItem_a69bcf0efa6645f58e3eee859b9667b0",
		"type": "ACTION_SEQUENCE",
		"params": [
			{
				"datatype": "collection",
				"name": "eventobject"
			}
		],
		"language": "js",
		"actions": [
			{
				"id": "ADD_SNIPPET__d263aa02ea9541a2a1ba3ca672b188c4",
				"type": "ADD_SNIPPET",
				"codeSnippet": "this.handleCancelAction();",
				"parentId": null,
				"callbackType": null
			}
		]
	}
}