{
	"AS_BarButtonItem_a8439d6370204be881a16a6b286db71d": {
		"id": "AS_BarButtonItem_a8439d6370204be881a16a6b286db71d",
		"type": "ACTION_SEQUENCE",
		"params": [
			{
				"datatype": "collection",
				"name": "eventobject"
			}
		],
		"language": "js",
		"actions": [
			{
				"id": "INVOKE_FUNCTION___c42f78ada20d4ece8460029c844e942d",
				"type": "INVOKE_FUNCTION",
				"sequenceKUID": "onClickCancel",
				"display": "onClickCancel",
				"inputparams": [],
				"parentId": null,
				"callbackType": null,
				"disabled": null,
				"source": "controller"
			}
		]
	}
}