{
	"AS_Button_c5ad23f6cb414c468b996e0cd64132a9": {
		"id": "AS_Button_c5ad23f6cb414c468b996e0cd64132a9",
		"type": "ACTION_SEQUENCE",
		"params": [
			{
				"datatype": "collection",
				"name": "eventobject"
			}
		],
		"contextObj": {
			"type": "forms",
			"platform": null,
			"KUID": "f02a8866bb4743c7bb4782a195904b0c"
		},
		"language": "js",
		"actions": [
			{
				"id": "ADD_SNIPPET_ide_onClick_b8c43a6718184c0c9e2b26ca33ba42e2",
				"type": "ADD_SNIPPET",
				"codeSnippet": "this.setKeypadChar(4);",
				"callbackType": null
			}
		]
	}
}