{
	"AS_BarButtonItem_bf9c013b960c403e90fef59ee99de9ea": {
		"id": "AS_BarButtonItem_bf9c013b960c403e90fef59ee99de9ea",
		"type": "ACTION_SEQUENCE",
		"params": [
			{
				"datatype": "collection",
				"name": "eventobject"
			}
		],
		"language": "js",
		"actions": []
	}
}