{
	"AS_BarButtonItem_a3935a4188e044688f68e1acce581163": {
		"id": "AS_BarButtonItem_a3935a4188e044688f68e1acce581163",
		"type": "ACTION_SEQUENCE",
		"params": [
			{
				"datatype": "collection",
				"name": "eventobject"
			}
		],
		"language": "js",
		"actions": [
			{
				"id": "ADD_SNIPPET__gfc9d002873b4814bf882c3a1d02fd55",
				"type": "ADD_SNIPPET",
				"codeSnippet": "this.handleCancelAction();",
				"parentId": null,
				"callbackType": null
			}
		]
	}
}