{
	"AS_BarButtonItem_a36670a45c24468ab1c54dad5ee40430": {
		"id": "AS_BarButtonItem_a36670a45c24468ab1c54dad5ee40430",
		"type": "ACTION_SEQUENCE",
		"params": [
			{
				"datatype": "collection",
				"name": "eventobject"
			}
		],
		"language": "js",
		"actions": [
			{
				"id": "INVOKE_FUNCTION___e94eeb540b3745139f0e8f009324f3e8",
				"type": "INVOKE_FUNCTION",
				"sequenceKUID": "onClickCancel",
				"display": "onClickCancel",
				"inputparams": [],
				"parentId": null,
				"callbackType": null,
				"disabled": null,
				"source": "controller"
			}
		]
	}
}