{
	"AS_BarButtonItem_gb9ed0e2a9044df784d773444347ae3d": {
		"id": "AS_BarButtonItem_gb9ed0e2a9044df784d773444347ae3d",
		"type": "ACTION_SEQUENCE",
		"params": [
			{
				"datatype": "collection",
				"name": "eventobject"
			}
		],
		"language": "js",
		"actions": [
			{
				"id": "INVOKE_FUNCTION___gecbeecabdc44fe181eb8a6ba34e7868",
				"type": "INVOKE_FUNCTION",
				"sequenceKUID": "onBack",
				"display": "onBack",
				"inputparams": [],
				"parentId": null,
				"callbackType": null,
				"disabled": null,
				"source": "controller"
			}
		]
	}
}