{
	"AS_Form_c9faab095db84a7486f2e58dbce51c74": {
		"id": "AS_Form_c9faab095db84a7486f2e58dbce51c74",
		"type": "ACTION_SEQUENCE",
		"params": [
			{
				"datatype": "collection",
				"name": "eventobject"
			}
		],
		"contextObj": {
			"type": "forms",
			"platform": "",
			"KUID": "c54d35764ddb43798fa888dae0bd8bca"
		},
		"language": "js",
		"actions": [
			{
				"id": "INVOKE_FUNCTION___f0e9222e37b746ba9bbd83058b92a527",
				"type": "INVOKE_FUNCTION",
				"sequenceKUID": "init",
				"display": "init",
				"inputparams": [],
				"parentId": null,
				"callbackType": null,
				"disabled": null,
				"source": "controller"
			}
		]
	}
}