{
	"AS_Form_c8bf4de395da4becb12e5e6822d68266": {
		"id": "AS_Form_c8bf4de395da4becb12e5e6822d68266",
		"type": "ACTION_SEQUENCE",
		"params": [
			{
				"datatype": "collection",
				"name": "eventobject"
			}
		],
		"contextObj": {
			"type": "forms",
			"platform": "",
			"KUID": "f019cc6e3b2648f595356f0f415384e9"
		},
		"language": "js",
		"actions": [
			{
				"id": "ADD_SNIPPET__i34a573d4a5742b592325a894fd45221",
				"type": "ADD_SNIPPET",
				"codeSnippet": "this.preShow();",
				"parentId": null,
				"callbackType": null
			}
		]
	}
}