{
	"AS_Form_g2eeb907041d4a95b93bd844ad0bb694": {
		"id": "AS_Form_g2eeb907041d4a95b93bd844ad0bb694",
		"type": "ACTION_SEQUENCE",
		"params": [
			{
				"datatype": "collection",
				"name": "eventobject"
			}
		],
		"contextObj": {
			"type": "forms",
			"platform": "",
			"KUID": "i6105b94ca294c78b82b1c4755c26baa"
		},
		"language": "js",
		"actions": [
			{
				"id": "INVOKE_FUNCTION___e9f6fff49c754dbb93e7dfa24e6b33ba",
				"type": "INVOKE_FUNCTION",
				"sequenceKUID": "init",
				"display": "init",
				"inputparams": [],
				"parentId": null,
				"callbackType": null,
				"disabled": null,
				"source": "controller"
			}
		]
	}
}