{
	"AS_Form_d3be97d31f4f4722bcb6ea0e4fdf7bf6": {
		"id": "AS_Form_d3be97d31f4f4722bcb6ea0e4fdf7bf6",
		"type": "ACTION_SEQUENCE",
		"params": [
			{
				"datatype": "collection",
				"name": "eventobject"
			}
		],
		"contextObj": {
			"type": "forms",
			"platform": "",
			"KUID": "a69545a0ec40404b9c138a4ec4e3de3a"
		},
		"language": "js",
		"actions": [
			{
				"id": "INVOKE_FUNCTION___ea7ac116799f43cea218a43233358105",
				"type": "INVOKE_FUNCTION",
				"sequenceKUID": "preShow",
				"display": "preShow",
				"inputparams": [],
				"parentId": null,
				"callbackType": null,
				"disabled": null,
				"source": "controller"
			}
		]
	}
}