{
	"AS_Form_cc63f076bb6c4456b0f90a29d4e1b0a0": {
		"id": "AS_Form_cc63f076bb6c4456b0f90a29d4e1b0a0",
		"type": "ACTION_SEQUENCE",
		"params": [
			{
				"datatype": "collection",
				"name": "eventobject"
			}
		],
		"contextObj": {
			"type": "forms",
			"platform": "",
			"KUID": "a79733e083804616b76652e8b68012ba"
		},
		"language": "js",
		"actions": [
			{
				"id": "INVOKE_FUNCTION___e9ab317931294b92b9d549dfa57bd6d6",
				"type": "INVOKE_FUNCTION",
				"sequenceKUID": "preShow",
				"display": "preShow",
				"inputparams": [],
				"parentId": null,
				"callbackType": null,
				"disabled": null,
				"source": "controller"
			}
		]
	}
}