{
	"AS_Form_b155014c9b634c118d64dbee36473649": {
		"id": "AS_Form_b155014c9b634c118d64dbee36473649",
		"type": "ACTION_SEQUENCE",
		"params": [
			{
				"datatype": "collection",
				"name": "eventobject"
			}
		],
		"contextObj": {
			"type": "forms",
			"platform": "",
			"KUID": "j79141cf82ad428ab6aecf2c3fcf1a77"
		},
		"language": "js",
		"actions": [
			{
				"id": "INVOKE_FUNCTION___e8316895a80248e19490b1abc7962124",
				"type": "INVOKE_FUNCTION",
				"sequenceKUID": "preShow",
				"display": "preShow",
				"inputparams": [],
				"parentId": null,
				"callbackType": null,
				"disabled": null,
				"source": "controller"
			}
		]
	}
}