{
	"AS_Form_e67c3f42a39d411ab8b0a3c1856e4c29": {
		"id": "AS_Form_e67c3f42a39d411ab8b0a3c1856e4c29",
		"type": "ACTION_SEQUENCE",
		"params": [
			{
				"datatype": "collection",
				"name": "eventobject"
			}
		],
		"contextObj": {
			"type": "forms",
			"platform": null,
			"KUID": "f3f3eb2dd48e453183bd2ffd47ee47cd"
		},
		"language": "js",
		"actions": [
			{
				"id": "INVOKE_FUNCTION__ide_preShow_c701bbe48f764024b2f609c1b14f4831",
				"type": "INVOKE_FUNCTION",
				"sequenceKUID": "frmLoginPreShow",
				"display": "frmLoginPreShow",
				"inputparams": [],
				"callbackType": null,
				"disabled": false,
				"source": "controller"
			}
		]
	}
}