{
	"AS_Form_i51523edeed649aab55a8941f44b2225": {
		"id": "AS_Form_i51523edeed649aab55a8941f44b2225",
		"type": "ACTION_SEQUENCE",
		"params": [
			{
				"datatype": "collection",
				"name": "eventobject"
			}
		],
		"contextObj": {
			"type": "forms",
			"platform": "",
			"KUID": "hf319e50848d4f10b690f9e98910bd59"
		},
		"language": "js",
		"actions": [
			{
				"id": "INVOKE_FUNCTION___efce82b99a95483582de9847520ffa1f",
				"type": "INVOKE_FUNCTION",
				"sequenceKUID": "init",
				"display": "init",
				"inputparams": [],
				"parentId": null,
				"callbackType": null,
				"disabled": null,
				"source": "controller"
			}
		]
	}
}