{
	"AS_Form_d25f5769f80040a68d4dd86d2e938054": {
		"id": "AS_Form_d25f5769f80040a68d4dd86d2e938054",
		"type": "ACTION_SEQUENCE",
		"params": [
			{
				"datatype": "collection",
				"name": "eventobject"
			}
		],
		"contextObj": {
			"type": "forms",
			"platform": "",
			"KUID": "b60b93351c13496ab39bfb97cc4bedaa"
		},
		"language": "js",
		"actions": [
			{
				"id": "INVOKE_FUNCTION___jaaaadd29d244b64a8102de74ee6515f",
				"type": "INVOKE_FUNCTION",
				"sequenceKUID": "preShow",
				"display": "preShow",
				"inputparams": [],
				"parentId": null,
				"callbackType": null,
				"disabled": null,
				"source": "controller"
			}
		]
	}
}