{
	"AS_Form_b7fc7e9ee14a4d3eb7947d11c647e8c5": {
		"id": "AS_Form_b7fc7e9ee14a4d3eb7947d11c647e8c5",
		"type": "ACTION_SEQUENCE",
		"params": [
			{
				"datatype": "collection",
				"name": "eventobject"
			}
		],
		"contextObj": {
			"type": "forms",
			"platform": "",
			"KUID": "h0cda73f1e254e69a905f1e72b2668fe"
		},
		"language": "js",
		"actions": [
			{
				"id": "INVOKE_FUNCTION___d06e26c5e209409c9889a441731300fe",
				"type": "INVOKE_FUNCTION",
				"sequenceKUID": "preShow",
				"display": "preShow",
				"inputparams": [],
				"parentId": null,
				"callbackType": null,
				"disabled": null,
				"source": "controller"
			}
		]
	}
}