{
	"AS_Form_e957105f219444a984d0062b33ae69e9": {
		"id": "AS_Form_e957105f219444a984d0062b33ae69e9",
		"type": "ACTION_SEQUENCE",
		"params": [
			{
				"datatype": "collection",
				"name": "eventobject"
			}
		],
		"contextObj": {
			"type": "forms",
			"platform": null,
			"KUID": "b8c817ac87e34f7ab138939860630f85"
		},
		"language": "js",
		"actions": [
			{
				"id": "ADD_SNIPPET_ide_preShow_a137a32c00b146a29ea6eacdfe51eb8d",
				"type": "ADD_SNIPPET",
				"codeSnippet": "this.frmEditNickNamePreShow();",
				"callbackType": null
			}
		]
	}
}