{
	"AS_Form_g772b0cd13f049ffa7a5d5b2e42f500c": {
		"id": "AS_Form_g772b0cd13f049ffa7a5d5b2e42f500c",
		"type": "ACTION_SEQUENCE",
		"params": [
			{
				"datatype": "collection",
				"name": "eventobject"
			}
		],
		"contextObj": {
			"type": "forms",
			"platform": "",
			"KUID": "c54d35764ddb43798fa888dae0bd8bca"
		},
		"language": "js",
		"actions": [
			{
				"id": "INVOKE_FUNCTION___f5d24a845f724a37a6d5a96009df7df6",
				"type": "INVOKE_FUNCTION",
				"sequenceKUID": "preShow",
				"display": "preShow",
				"inputparams": [],
				"parentId": null,
				"callbackType": null,
				"disabled": null,
				"source": "controller"
			}
		]
	}
}