{
	"AS_Form_b329f202c2e0439590f3a399d1017011": {
		"id": "AS_Form_b329f202c2e0439590f3a399d1017011",
		"type": "ACTION_SEQUENCE",
		"params": [
			{
				"datatype": "collection",
				"name": "eventobject"
			}
		],
		"contextObj": {
			"type": "forms",
			"platform": null,
			"KUID": "b9b6feb12eda48169151696af7ab07cd"
		},
		"language": "js",
		"actions": [
			{
				"id": "ADD_SNIPPET_ide_init_i2a9bd070aeb4adcb250f856249a5e13",
				"type": "ADD_SNIPPET",
				"codeSnippet": "this.init();",
				"callbackType": null
			}
		]
	}
}