{
	"AS_Form_ed17f201a63e495284fe5371aaa38b75": {
		"id": "AS_Form_ed17f201a63e495284fe5371aaa38b75",
		"type": "ACTION_SEQUENCE",
		"params": [
			{
				"datatype": "collection",
				"name": "eventobject"
			}
		],
		"contextObj": {
			"type": "forms",
			"platform": null,
			"KUID": "d43a5637d54844b2b0fd7e2cc9f31a91"
		},
		"language": "js",
		"actions": [
			{
				"id": "INVOKE_FUNCTION___gcc48167d87d44879fa8c555af9fd83c",
				"type": "INVOKE_FUNCTION",
				"sequenceKUID": "init",
				"display": "init",
				"inputparams": [],
				"parentId": null,
				"callbackType": null,
				"disabled": null,
				"source": "controller"
			}
		]
	}
}