{
	"AS_Form_fa13f60955fd44809cf797be9c6f1272": {
		"id": "AS_Form_fa13f60955fd44809cf797be9c6f1272",
		"type": "ACTION_SEQUENCE",
		"params": [
			{
				"datatype": "collection",
				"name": "eventobject"
			}
		],
		"contextObj": {
			"type": "forms",
			"platform": "",
			"KUID": "beccbb34da964804814a063cc42abe27"
		},
		"language": "js",
		"actions": [
			{
				"id": "INVOKE_FUNCTION___ce6e3575ea0a472bab1d1521ca0d14cd",
				"type": "INVOKE_FUNCTION",
				"sequenceKUID": "preShow",
				"display": "preShow",
				"inputparams": [],
				"parentId": null,
				"callbackType": null,
				"disabled": null,
				"source": "controller"
			}
		]
	}
}