{
	"AS_Form_a842d73c0ee74cb7a183746cff4dde71": {
		"id": "AS_Form_a842d73c0ee74cb7a183746cff4dde71",
		"type": "ACTION_SEQUENCE",
		"params": [
			{
				"datatype": "collection",
				"name": "eventobject"
			}
		],
		"contextObj": {
			"type": "forms",
			"platform": "",
			"KUID": "c6ac5bd0407f45d49ebf2292d6a9d197"
		},
		"language": "js",
		"actions": [
			{
				"id": "INVOKE_FUNCTION___fae02670795341baad488f0665f21c35",
				"type": "INVOKE_FUNCTION",
				"sequenceKUID": "preShow",
				"display": "preShow",
				"inputparams": [],
				"parentId": null,
				"callbackType": null,
				"disabled": null,
				"source": "controller"
			}
		]
	}
}