{
	"AS_Image_b66662a8fdfe49dfad766d0297d8d10b": {
		"id": "AS_Image_b66662a8fdfe49dfad766d0297d8d10b",
		"type": "ACTION_SEQUENCE",
		"params": [
			{
				"datatype": "collection",
				"name": "eventobject"
			},
			{
				"datatype": "string",
				"name": "imagesrc"
			},
			{
				"datatype": "boolean",
				"name": "issuccess"
			}
		],
		"language": "js",
		"actions": [
			{
				"id": "ADD_SNIPPET_ide_onDownloadComplete_b4992f146d324f2aaf0f6afdc7155d74",
				"type": "ADD_SNIPPET",
				"codeSnippet": "this.onAdDownloadComplete(issuccess,3);",
				"callbackType": null
			}
		]
	}
}