{
	"AS_Image_f6985a0914a846c4ab1fb347dd6d9553": {
		"id": "AS_Image_f6985a0914a846c4ab1fb347dd6d9553",
		"type": "ACTION_SEQUENCE",
		"params": [
			{
				"datatype": "collection",
				"name": "eventobject"
			},
			{
				"datatype": "string",
				"name": "imagesrc"
			},
			{
				"datatype": "boolean",
				"name": "issuccess"
			}
		],
		"language": "js",
		"actions": [
			{
				"id": "ADD_SNIPPET_ide_onDownloadComplete_a69b38b693e94ccba9a4e34c9cdf3167",
				"type": "ADD_SNIPPET",
				"codeSnippet": "this.onAdDownloadComplete(issuccess,3);",
				"callbackType": null
			}
		]
	}
}