{
	"AS_Image_e1c44722b383410ab4b4701ce4518e73": {
		"id": "AS_Image_e1c44722b383410ab4b4701ce4518e73",
		"type": "ACTION_SEQUENCE",
		"params": [
			{
				"datatype": "collection",
				"name": "eventobject"
			},
			{
				"datatype": "string",
				"name": "imagesrc"
			},
			{
				"datatype": "boolean",
				"name": "issuccess"
			}
		],
		"contextObj": {
			"type": "forms",
			"platform": null,
			"KUID": "c8a7dc6c7ee34a309865ec250710894b"
		},
		"language": "js",
		"actions": [
			{
				"id": "ADD_SNIPPET_ide_onDownloadComplete_bd65556919a14456bd381fd10b40eb4e",
				"type": "ADD_SNIPPET",
				"codeSnippet": "this.onAdDownloadComplete(issuccess,3);",
				"callbackType": null
			}
		]
	}
}