{
    "@class": "com.kony.gen.viz.model.container.KVizScrollFlexForm",
    "DNDConfig": null,
    "_margin_": [
        0,
        0,
        0,
        0
    ],
    "_orientation_": 1,
    "_padding_": [
        0,
        0,
        0,
        0
    ],
    "_percent_": true,
    "_skin_": "s65f88973dc14ebca960443547d2700d",
    "_title_": "Cheque Number",
    "addWidgetsdone": false,
    "allboxes": [],
    "android": {
        "needAppMenu": false,
        "psp": {
            "windowSoftInputMode": 2
        }
    },
    "canUpdateUI": true,
    "children": [
        "flxHeader",
        "flxMainContainer",
        "flxKeypad",
        "flxPopup"
    ],
    "containerweight": 100,
    "controllerInfo": {
        "default": {
            "channel": "mobile",
            "name": "frmSeriesChequeController"
        }
    },
    "currentLocale": "default",
    "desktopweb": {
        "needAppMenu": false
    },
    "device": "iPhone11",
    "displayorientation": 1,
    "enabledforidletimeout": true,
    "friendlyName": "frmSeriesCheque",
    "id": "frmSeriesCheque",
    "ide_init": "AS_Form_a27bc744dcce4905a572d8037055e080",
    "ide_postShow": "AS_Form_ad79d6029fe842299b0cb03b66285d7a",
    "ide_preShow": "AS_Form_cafe98de65eb409db7d08185104aea00",
    "info": null,
    "initdone": false,
    "inputaccessoryviewtype": 4,
    "ipad": {
        "needAppMenu": false,
        "psp": {
            "inputAccessoryViewType": 4
        },
        "titleBar": false
    },
    "iphone": {
        "needAppMenu": false,
        "psp": {
            "inputAccessoryViewType": 4,
            "titleBarAttributes": {
                "backBarButtonItem": {
                    "enabled": true,
                    "info": {
                        "title": ""
                    },
                    "kuid": "a73f882676324b898f92813aa6115c70",
                    "style": 0,
                    "tintColor": "ffffff00",
                    "type": 1
                },
                "barStyle": 0,
                "hidesBackButton": false,
                "kuid": "eaa314972f3d49e5962066efb38d1699",
                "leftBarButtonItems": [],
                "leftItemsSupplementBackButton": true,
                "prompt": "",
                "renderTitleText": true,
                "rightBarButtonItems": [
                    {
                        "enabled": true,
                        "ide_onClick": "AS_BarButtonItem_i91165f389994ce8bc77cfc04d7c269c",
                        "info": {
                            "title": "Cancel"
                        },
                        "kuid": "bf3bea4f6e534065bbbf48c1bef8a91a",
                        "style": 0,
                        "tintColor": "ffffff00",
                        "type": 1
                    }
                ],
                "tintColor": "ffffff00",
                "translucent": false
            }
        },
        "titleBar": true
    },
    "iscustomlayout": false,
    "isvisible": true,
    "kiosk": {
        "needAppMenu": false
    },
    "kuid": "hdfa0e31fbb74bcda1c1584f3b322d7d",
    "layouttype": 2,
    "name": "kony.ui.Form2",
    "needappmenu": false,
    "paddinginpixel": false,
    "platform": "iphone",
    "prevDevice": "Pixel3",
    "prevPlatform": "android",
    "retaincontentalignment": false,
    "retainflexpositionproperties": false,
    "retainscrollposition": false,
    "shellCSS": "iOS_iPhoneXR",
    "snapgridsize": 10,
    "snaptogrid": true,
    "spaan": {
        "needAppMenu": false
    },
    "spaandroidtablet": {
        "needAppMenu": false
    },
    "spabb": {
        "needAppMenu": false
    },
    "spaip": {
        "needAppMenu": false
    },
    "spaipad": {
        "needAppMenu": false
    },
    "spawindowstablet": {
        "needAppMenu": false
    },
    "spawinphone8": {
        "needAppMenu": false
    },
    "texti18n": "kony.mb.CM.chequeNumber",
    "titleBarSkin": "scb8fcbdebb649d1b5900564018c8da5",
    "titlebar": false,
    "type": 3,
    "wType": "Form",
    "windows8": {
        "needAppMenu": false
    },
    "winphone8": {
        "needAppMenu": false
    }
}