{
    "@class": "com.kony.gen.viz.model.component.KVizButton",
    "DNDConfig": null,
    "__parentReadjusting__": false,
    "_height_": {
        "type": "string",
        "value": "40dp"
    },
    "_margin_": [
        6,
        6,
        6,
        6
    ],
    "_padding_": [
        0,
        0,
        0,
        0
    ],
    "_skin_": "sc61e719c72447bf9f14db24bea23eb3",
    "_text_": "Transfer to New Recipient",
    "_width_": {
        "type": "string",
        "value": "335dp"
    },
    "accessibilityconfig": {
        "a11yLabel": "CONFIRM"
    },
    "canUpdateUI": true,
    "centerx": {
        "type": "string",
        "value": "50%"
    },
    "centery": {
        "type": "string",
        "value": "50%"
    },
    "containerweight": 100,
    "contentalignment": 5,
    "disabledSkins": {},
    "displaytext": true,
    "focusskin": "sd85a0f475ff4b3b9f0a5e4b82f68213",
    "id": "btnNewAccount",
    "info": null,
    "iphone": {
        "psp": {
            "showProgressIndicator": false
        }
    },
    "isvisible": true,
    "kuid": "ad3411a2014941668dcf034d715366e2",
    "name": "kony.ui.Button",
    "parent": "flxFooter",
    "pf": "frmEuropeTransferToAccountSM",
    "showprogressindicator": false,
    "texti18n": "kony.mb.MM.TransferToNewRecipient",
    "wType": "Button",
    "zindex": 1
}