{
    "@class": "com.kony.gen.viz.model.component.KVizButton",
    "DNDConfig": null,
    "__parentReadjusting__": false,
    "_bottom_": {
        "type": "string",
        "value": "20dp"
    },
    "_height_": {
        "type": "string",
        "value": "48dp"
    },
    "_left_": {
        "type": "string",
        "value": "43dp"
    },
    "_margin_": [
        6,
        6,
        6,
        6
    ],
    "_padding_": [
        0,
        0,
        0,
        0
    ],
    "_skin_": "s212a69c98924c738990f3c375a58e56",
    "_text_": "Download",
    "_width_": {
        "type": "string",
        "value": "330dp"
    },
    "canUpdateUI": true,
    "centerx": {
        "type": "string",
        "value": "50%"
    },
    "containerweight": 100,
    "contentalignment": 5,
    "displaytext": true,
    "focusskin": "sf44d06ca8224832827ea7fdff757013",
    "id": "btnDownload",
    "info": null,
    "iscustomlayout": false,
    "isvisible": true,
    "kuid": "f9d9c6f5c7624dc1bd4ea322c9b35670",
    "name": "kony.ui.Button",
    "parent": "flxMain",
    "pf": "frmAttachments",
    "retaincontentalignment": false,
    "retainflexpositionproperties": false,
    "wType": "Button",
    "zindex": 1000
}